<?xml version="1.0"?>
<!-- Created by MetaPost 1.9991 on 2017.11.23:0050 -->
<svg version="1.1" xmlns="http://www.w3.org/2000/svg" xmlns:xlink="http://www.w3.org/1999/xlink" width="432.012878" height="342.013489" viewBox="0 0 432.012878 342.013489">
<!-- Original BoundingBox: -11.761658 -11.761658 420.251221 330.251831 -->
  <path d="M21.000610 30.000000C17.104065 39.804062,13.765198 49.820663,11.000000 60.001831C-10.208282 138.088516,2.841980 219.709641,11.000000 299.998169C12.489502 314.657333,17.806320 330.000000,30.999695 330.000000L91.000305 330.000000C104.193680 330.000000,109.510498 314.657333,111.000000 299.998169C119.158020 219.709641,132.208282 138.088516,111.000000 60.001831C108.234802 49.820663,104.895935 39.804062,100.999390 30.000000" style="stroke:rgb(0.000000%,0.000000%,0.000000%); stroke-width: 0.500000;stroke-linecap: round;stroke-linejoin: round;stroke-miterlimit: 10.000000;fill: none;"></path>
  <path d="M16.000305 30.000000L105.999695 30.000000L105.999695 -0.001831L16.000305 -0.001831Z" style="stroke:rgb(100.000000%,0.000000%,0.000000%); stroke-width: 0.500000;stroke-linecap: round;stroke-linejoin: round;stroke-miterlimit: 10.000000;fill: none;"></path>
  <path d="M16.000305 30.000000L16.000305 -0.001831" style="stroke:rgb(100.000000%,0.000000%,0.000000%); stroke-width: 0.500000;stroke-linecap: round;stroke-linejoin: round;stroke-miterlimit: 10.000000;fill: none;"></path>
  <path d="M21.000305 30.000000L21.000305 -0.001831" style="stroke:rgb(100.000000%,0.000000%,0.000000%); stroke-width: 0.500000;stroke-linecap: round;stroke-linejoin: round;stroke-miterlimit: 10.000000;fill: none;"></path>
  <path d="M26.000305 30.000000L26.000305 -0.001831" style="stroke:rgb(100.000000%,0.000000%,0.000000%); stroke-width: 0.500000;stroke-linecap: round;stroke-linejoin: round;stroke-miterlimit: 10.000000;fill: none;"></path>
  <path d="M31.000305 30.000000L31.000305 -0.001831" style="stroke:rgb(100.000000%,0.000000%,0.000000%); stroke-width: 0.500000;stroke-linecap: round;stroke-linejoin: round;stroke-miterlimit: 10.000000;fill: none;"></path>
  <path d="M36.000305 30.000000L36.000305 -0.001831" style="stroke:rgb(100.000000%,0.000000%,0.000000%); stroke-width: 0.500000;stroke-linecap: round;stroke-linejoin: round;stroke-miterlimit: 10.000000;fill: none;"></path>
  <path d="M41.000305 30.000000L41.000305 -0.001831" style="stroke:rgb(100.000000%,0.000000%,0.000000%); stroke-width: 0.500000;stroke-linecap: round;stroke-linejoin: round;stroke-miterlimit: 10.000000;fill: none;"></path>
  <path d="M46.000305 30.000000L46.000305 -0.001831" style="stroke:rgb(100.000000%,0.000000%,0.000000%); stroke-width: 0.500000;stroke-linecap: round;stroke-linejoin: round;stroke-miterlimit: 10.000000;fill: none;"></path>
  <path d="M51.000305 30.000000L51.000305 -0.001831" style="stroke:rgb(100.000000%,0.000000%,0.000000%); stroke-width: 0.500000;stroke-linecap: round;stroke-linejoin: round;stroke-miterlimit: 10.000000;fill: none;"></path>
  <path d="M56.000305 30.000000L56.000305 -0.001831" style="stroke:rgb(100.000000%,0.000000%,0.000000%); stroke-width: 0.500000;stroke-linecap: round;stroke-linejoin: round;stroke-miterlimit: 10.000000;fill: none;"></path>
  <path d="M61.000305 30.000000L61.000305 -0.001831" style="stroke:rgb(100.000000%,0.000000%,0.000000%); stroke-width: 0.500000;stroke-linecap: round;stroke-linejoin: round;stroke-miterlimit: 10.000000;fill: none;"></path>
  <path d="M66.000305 30.000000L66.000305 -0.001831" style="stroke:rgb(100.000000%,0.000000%,0.000000%); stroke-width: 0.500000;stroke-linecap: round;stroke-linejoin: round;stroke-miterlimit: 10.000000;fill: none;"></path>
  <path d="M71.000305 30.000000L71.000305 -0.001831" style="stroke:rgb(100.000000%,0.000000%,0.000000%); stroke-width: 0.500000;stroke-linecap: round;stroke-linejoin: round;stroke-miterlimit: 10.000000;fill: none;"></path>
  <path d="M76.000305 30.000000L76.000305 -0.001831" style="stroke:rgb(100.000000%,0.000000%,0.000000%); stroke-width: 0.500000;stroke-linecap: round;stroke-linejoin: round;stroke-miterlimit: 10.000000;fill: none;"></path>
  <path d="M81.000305 30.000000L81.000305 -0.001831" style="stroke:rgb(100.000000%,0.000000%,0.000000%); stroke-width: 0.500000;stroke-linecap: round;stroke-linejoin: round;stroke-miterlimit: 10.000000;fill: none;"></path>
  <path d="M86.000305 30.000000L86.000305 -0.001831" style="stroke:rgb(100.000000%,0.000000%,0.000000%); stroke-width: 0.500000;stroke-linecap: round;stroke-linejoin: round;stroke-miterlimit: 10.000000;fill: none;"></path>
  <path d="M91.000305 30.000000L91.000305 -0.001831" style="stroke:rgb(100.000000%,0.000000%,0.000000%); stroke-width: 0.500000;stroke-linecap: round;stroke-linejoin: round;stroke-miterlimit: 10.000000;fill: none;"></path>
  <path d="M96.000305 30.000000L96.000305 -0.001831" style="stroke:rgb(100.000000%,0.000000%,0.000000%); stroke-width: 0.500000;stroke-linecap: round;stroke-linejoin: round;stroke-miterlimit: 10.000000;fill: none;"></path>
  <path d="M101.000305 30.000000L101.000305 -0.001831" style="stroke:rgb(100.000000%,0.000000%,0.000000%); stroke-width: 0.500000;stroke-linecap: round;stroke-linejoin: round;stroke-miterlimit: 10.000000;fill: none;"></path>
  <path d="M106.000305 30.000000L106.000305 -0.001831" style="stroke:rgb(100.000000%,0.000000%,0.000000%); stroke-width: 0.500000;stroke-linecap: round;stroke-linejoin: round;stroke-miterlimit: 10.000000;fill: none;"></path>
  <g transform="matrix(0.707107,0.707107,-0.707107,0.707107,0.000000,0.000000)">
    <path d="M222.839109 -131.002019C218.942555 -121.197947,215.603694 -111.181342,212.838494 -101.000152C191.630189 -22.913384,204.680461 58.707817,212.838494 138.996438C214.327997 153.655611,219.644828 168.998305,232.838213 168.998305L292.838882 168.998305C306.032267 168.998305,311.349098 153.655611,312.838602 138.996438C320.996635 58.707817,334.046907 -22.913384,312.838602 -101.000152C310.073402 -111.181342,306.734540 -121.197947,302.837987 -131.002019" style="stroke:rgb(0.000000%,0.000000%,0.000000%); stroke-width: 0.500011;stroke-linecap: round;stroke-linejoin: round;stroke-miterlimit: 10.000000;fill: none;"></path>
  </g>
  <g transform="matrix(0.707107,0.707107,-0.707107,0.707107,0.000000,0.000000)">
    <path d="M217.838801 -131.002019L307.838294 -131.002019L307.838294 -161.003885L217.838801 -161.003885Z" style="stroke:rgb(100.000000%,0.000000%,0.000000%); stroke-width: 0.500011;stroke-linecap: round;stroke-linejoin: round;stroke-miterlimit: 10.000000;fill: none;"></path>
  </g>
  <g transform="matrix(0.707107,0.707107,-0.707107,0.707107,0.000000,0.000000)">
    <path d="M217.838801 -131.002019L217.838801 -161.003885" style="stroke:rgb(100.000000%,0.000000%,0.000000%); stroke-width: 0.500011;stroke-linecap: round;stroke-linejoin: round;stroke-miterlimit: 10.000000;fill: none;"></path>
  </g>
  <g transform="matrix(0.707107,0.707107,-0.707107,0.707107,0.000000,0.000000)">
    <path d="M222.838807 -131.002019L222.838807 -161.003885" style="stroke:rgb(100.000000%,0.000000%,0.000000%); stroke-width: 0.500011;stroke-linecap: round;stroke-linejoin: round;stroke-miterlimit: 10.000000;fill: none;"></path>
  </g>
  <g transform="matrix(0.707107,0.707107,-0.707107,0.707107,0.000000,0.000000)">
    <path d="M227.838812 -131.002019L227.838812 -161.003885" style="stroke:rgb(100.000000%,0.000000%,0.000000%); stroke-width: 0.500011;stroke-linecap: round;stroke-linejoin: round;stroke-miterlimit: 10.000000;fill: none;"></path>
  </g>
  <g transform="matrix(0.707107,0.707107,-0.707107,0.707107,0.000000,0.000000)">
    <path d="M232.838817 -131.002019L232.838817 -161.003885" style="stroke:rgb(100.000000%,0.000000%,0.000000%); stroke-width: 0.500011;stroke-linecap: round;stroke-linejoin: round;stroke-miterlimit: 10.000000;fill: none;"></path>
  </g>
  <g transform="matrix(0.707107,0.707107,-0.707107,0.707107,0.000000,0.000000)">
    <path d="M237.838823 -131.002019L237.838823 -161.003885" style="stroke:rgb(100.000000%,0.000000%,0.000000%); stroke-width: 0.500011;stroke-linecap: round;stroke-linejoin: round;stroke-miterlimit: 10.000000;fill: none;"></path>
  </g>
  <g transform="matrix(0.707107,0.707107,-0.707107,0.707107,0.000000,0.000000)">
    <path d="M242.838828 -131.002019L242.838828 -161.003885" style="stroke:rgb(100.000000%,0.000000%,0.000000%); stroke-width: 0.500011;stroke-linecap: round;stroke-linejoin: round;stroke-miterlimit: 10.000000;fill: none;"></path>
  </g>
  <g transform="matrix(0.707107,0.707107,-0.707107,0.707107,0.000000,0.000000)">
    <path d="M247.838834 -131.002019L247.838834 -161.003885" style="stroke:rgb(100.000000%,0.000000%,0.000000%); stroke-width: 0.500011;stroke-linecap: round;stroke-linejoin: round;stroke-miterlimit: 10.000000;fill: none;"></path>
  </g>
  <g transform="matrix(0.707107,0.707107,-0.707107,0.707107,0.000000,0.000000)">
    <path d="M252.838839 -131.002019L252.838839 -161.003885" style="stroke:rgb(100.000000%,0.000000%,0.000000%); stroke-width: 0.500011;stroke-linecap: round;stroke-linejoin: round;stroke-miterlimit: 10.000000;fill: none;"></path>
  </g>
  <g transform="matrix(0.707107,0.707107,-0.707107,0.707107,0.000000,0.000000)">
    <path d="M257.838844 -131.002019L257.838844 -161.003885" style="stroke:rgb(100.000000%,0.000000%,0.000000%); stroke-width: 0.500011;stroke-linecap: round;stroke-linejoin: round;stroke-miterlimit: 10.000000;fill: none;"></path>
  </g>
  <g transform="matrix(0.707107,0.707107,-0.707107,0.707107,0.000000,0.000000)">
    <path d="M262.838850 -131.002019L262.838850 -161.003885" style="stroke:rgb(100.000000%,0.000000%,0.000000%); stroke-width: 0.500011;stroke-linecap: round;stroke-linejoin: round;stroke-miterlimit: 10.000000;fill: none;"></path>
  </g>
  <g transform="matrix(0.707107,0.707107,-0.707107,0.707107,0.000000,0.000000)">
    <path d="M267.838855 -131.002019L267.838855 -161.003885" style="stroke:rgb(100.000000%,0.000000%,0.000000%); stroke-width: 0.500011;stroke-linecap: round;stroke-linejoin: round;stroke-miterlimit: 10.000000;fill: none;"></path>
  </g>
  <g transform="matrix(0.707107,0.707107,-0.707107,0.707107,0.000000,0.000000)">
    <path d="M272.838861 -131.002019L272.838861 -161.003885" style="stroke:rgb(100.000000%,0.000000%,0.000000%); stroke-width: 0.500011;stroke-linecap: round;stroke-linejoin: round;stroke-miterlimit: 10.000000;fill: none;"></path>
  </g>
  <g transform="matrix(0.707107,0.707107,-0.707107,0.707107,0.000000,0.000000)">
    <path d="M277.838866 -131.002019L277.838866 -161.003885" style="stroke:rgb(100.000000%,0.000000%,0.000000%); stroke-width: 0.500011;stroke-linecap: round;stroke-linejoin: round;stroke-miterlimit: 10.000000;fill: none;"></path>
  </g>
  <g transform="matrix(0.707107,0.707107,-0.707107,0.707107,0.000000,0.000000)">
    <path d="M282.838871 -131.002019L282.838871 -161.003885" style="stroke:rgb(100.000000%,0.000000%,0.000000%); stroke-width: 0.500011;stroke-linecap: round;stroke-linejoin: round;stroke-miterlimit: 10.000000;fill: none;"></path>
  </g>
  <g transform="matrix(0.707107,0.707107,-0.707107,0.707107,0.000000,0.000000)">
    <path d="M287.838877 -131.002019L287.838877 -161.003885" style="stroke:rgb(100.000000%,0.000000%,0.000000%); stroke-width: 0.500011;stroke-linecap: round;stroke-linejoin: round;stroke-miterlimit: 10.000000;fill: none;"></path>
  </g>
  <g transform="matrix(0.707107,0.707107,-0.707107,0.707107,0.000000,0.000000)">
    <path d="M292.838882 -131.002019L292.838882 -161.003885" style="stroke:rgb(100.000000%,0.000000%,0.000000%); stroke-width: 0.500011;stroke-linecap: round;stroke-linejoin: round;stroke-miterlimit: 10.000000;fill: none;"></path>
  </g>
  <g transform="matrix(0.707107,0.707107,-0.707107,0.707107,0.000000,0.000000)">
    <path d="M297.838888 -131.002019L297.838888 -161.003885" style="stroke:rgb(100.000000%,0.000000%,0.000000%); stroke-width: 0.500011;stroke-linecap: round;stroke-linejoin: round;stroke-miterlimit: 10.000000;fill: none;"></path>
  </g>
  <g transform="matrix(0.707107,0.707107,-0.707107,0.707107,0.000000,0.000000)">
    <path d="M302.838893 -131.002019L302.838893 -161.003885" style="stroke:rgb(100.000000%,0.000000%,0.000000%); stroke-width: 0.500011;stroke-linecap: round;stroke-linejoin: round;stroke-miterlimit: 10.000000;fill: none;"></path>
  </g>
  <g transform="matrix(0.707107,0.707107,-0.707107,0.707107,0.000000,0.000000)">
    <path d="M307.838898 -131.002019L307.838898 -161.003885" style="stroke:rgb(100.000000%,0.000000%,0.000000%); stroke-width: 0.500011;stroke-linecap: round;stroke-linejoin: round;stroke-miterlimit: 10.000000;fill: none;"></path>
  </g>
  <g transform="matrix(0.000000,1.000000,-1.000000,0.000000,0.000000,0.000000)">
    <path d="M240.000610 -400.999390C236.104065 -391.195328,232.765198 -381.178726,230.000000 -370.997559C208.791718 -292.910873,221.841980 -211.289749,230.000000 -131.001221C231.489502 -116.342056,236.806320 -100.999390,249.999695 -100.999390L310.000305 -100.999390C323.193680 -100.999390,328.510498 -116.342056,330.000000 -131.001221C338.158020 -211.289749,351.208282 -292.910873,330.000000 -370.997559C327.234802 -381.178726,323.895935 -391.195328,319.999390 -400.999390" style="stroke:rgb(0.000000%,0.000000%,0.000000%); stroke-width: 0.500000;stroke-linecap: round;stroke-linejoin: round;stroke-miterlimit: 10.000000;fill: none;"></path>
  </g>
  <g transform="matrix(0.000000,1.000000,-1.000000,0.000000,0.000000,0.000000)">
    <path d="M235.000305 -400.999390L324.999695 -400.999390L324.999695 -431.001221L235.000305 -431.001221Z" style="stroke:rgb(100.000000%,0.000000%,0.000000%); stroke-width: 0.500000;stroke-linecap: round;stroke-linejoin: round;stroke-miterlimit: 10.000000;fill: none;"></path>
  </g>
  <g transform="matrix(0.000000,1.000000,-1.000000,0.000000,0.000000,0.000000)">
    <path d="M235.000305 -400.999390L235.000305 -431.001221" style="stroke:rgb(100.000000%,0.000000%,0.000000%); stroke-width: 0.500000;stroke-linecap: round;stroke-linejoin: round;stroke-miterlimit: 10.000000;fill: none;"></path>
  </g>
  <g transform="matrix(0.000000,1.000000,-1.000000,0.000000,0.000000,0.000000)">
    <path d="M240.000305 -400.999390L240.000305 -431.001221" style="stroke:rgb(100.000000%,0.000000%,0.000000%); stroke-width: 0.500000;stroke-linecap: round;stroke-linejoin: round;stroke-miterlimit: 10.000000;fill: none;"></path>
  </g>
  <g transform="matrix(0.000000,1.000000,-1.000000,0.000000,0.000000,0.000000)">
    <path d="M245.000305 -400.999390L245.000305 -431.001221" style="stroke:rgb(100.000000%,0.000000%,0.000000%); stroke-width: 0.500000;stroke-linecap: round;stroke-linejoin: round;stroke-miterlimit: 10.000000;fill: none;"></path>
  </g>
  <g transform="matrix(0.000000,1.000000,-1.000000,0.000000,0.000000,0.000000)">
    <path d="M250.000305 -400.999390L250.000305 -431.001221" style="stroke:rgb(100.000000%,0.000000%,0.000000%); stroke-width: 0.500000;stroke-linecap: round;stroke-linejoin: round;stroke-miterlimit: 10.000000;fill: none;"></path>
  </g>
  <g transform="matrix(0.000000,1.000000,-1.000000,0.000000,0.000000,0.000000)">
    <path d="M255.000305 -400.999390L255.000305 -431.001221" style="stroke:rgb(100.000000%,0.000000%,0.000000%); stroke-width: 0.500000;stroke-linecap: round;stroke-linejoin: round;stroke-miterlimit: 10.000000;fill: none;"></path>
  </g>
  <g transform="matrix(0.000000,1.000000,-1.000000,0.000000,0.000000,0.000000)">
    <path d="M260.000305 -400.999390L260.000305 -431.001221" style="stroke:rgb(100.000000%,0.000000%,0.000000%); stroke-width: 0.500000;stroke-linecap: round;stroke-linejoin: round;stroke-miterlimit: 10.000000;fill: none;"></path>
  </g>
  <g transform="matrix(0.000000,1.000000,-1.000000,0.000000,0.000000,0.000000)">
    <path d="M265.000305 -400.999390L265.000305 -431.001221" style="stroke:rgb(100.000000%,0.000000%,0.000000%); stroke-width: 0.500000;stroke-linecap: round;stroke-linejoin: round;stroke-miterlimit: 10.000000;fill: none;"></path>
  </g>
  <g transform="matrix(0.000000,1.000000,-1.000000,0.000000,0.000000,0.000000)">
    <path d="M270.000305 -400.999390L270.000305 -431.001221" style="stroke:rgb(100.000000%,0.000000%,0.000000%); stroke-width: 0.500000;stroke-linecap: round;stroke-linejoin: round;stroke-miterlimit: 10.000000;fill: none;"></path>
  </g>
  <g transform="matrix(0.000000,1.000000,-1.000000,0.000000,0.000000,0.000000)">
    <path d="M275.000305 -400.999390L275.000305 -431.001221" style="stroke:rgb(100.000000%,0.000000%,0.000000%); stroke-width: 0.500000;stroke-linecap: round;stroke-linejoin: round;stroke-miterlimit: 10.000000;fill: none;"></path>
  </g>
  <g transform="matrix(0.000000,1.000000,-1.000000,0.000000,0.000000,0.000000)">
    <path d="M280.000305 -400.999390L280.000305 -431.001221" style="stroke:rgb(100.000000%,0.000000%,0.000000%); stroke-width: 0.500000;stroke-linecap: round;stroke-linejoin: round;stroke-miterlimit: 10.000000;fill: none;"></path>
  </g>
  <g transform="matrix(0.000000,1.000000,-1.000000,0.000000,0.000000,0.000000)">
    <path d="M285.000305 -400.999390L285.000305 -431.001221" style="stroke:rgb(100.000000%,0.000000%,0.000000%); stroke-width: 0.500000;stroke-linecap: round;stroke-linejoin: round;stroke-miterlimit: 10.000000;fill: none;"></path>
  </g>
  <g transform="matrix(0.000000,1.000000,-1.000000,0.000000,0.000000,0.000000)">
    <path d="M290.000305 -400.999390L290.000305 -431.001221" style="stroke:rgb(100.000000%,0.000000%,0.000000%); stroke-width: 0.500000;stroke-linecap: round;stroke-linejoin: round;stroke-miterlimit: 10.000000;fill: none;"></path>
  </g>
  <g transform="matrix(0.000000,1.000000,-1.000000,0.000000,0.000000,0.000000)">
    <path d="M295.000305 -400.999390L295.000305 -431.001221" style="stroke:rgb(100.000000%,0.000000%,0.000000%); stroke-width: 0.500000;stroke-linecap: round;stroke-linejoin: round;stroke-miterlimit: 10.000000;fill: none;"></path>
  </g>
  <g transform="matrix(0.000000,1.000000,-1.000000,0.000000,0.000000,0.000000)">
    <path d="M300.000305 -400.999390L300.000305 -431.001221" style="stroke:rgb(100.000000%,0.000000%,0.000000%); stroke-width: 0.500000;stroke-linecap: round;stroke-linejoin: round;stroke-miterlimit: 10.000000;fill: none;"></path>
  </g>
  <g transform="matrix(0.000000,1.000000,-1.000000,0.000000,0.000000,0.000000)">
    <path d="M305.000305 -400.999390L305.000305 -431.001221" style="stroke:rgb(100.000000%,0.000000%,0.000000%); stroke-width: 0.500000;stroke-linecap: round;stroke-linejoin: round;stroke-miterlimit: 10.000000;fill: none;"></path>
  </g>
  <g transform="matrix(0.000000,1.000000,-1.000000,0.000000,0.000000,0.000000)">
    <path d="M310.000305 -400.999390L310.000305 -431.001221" style="stroke:rgb(100.000000%,0.000000%,0.000000%); stroke-width: 0.500000;stroke-linecap: round;stroke-linejoin: round;stroke-miterlimit: 10.000000;fill: none;"></path>
  </g>
  <g transform="matrix(0.000000,1.000000,-1.000000,0.000000,0.000000,0.000000)">
    <path d="M315.000305 -400.999390L315.000305 -431.001221" style="stroke:rgb(100.000000%,0.000000%,0.000000%); stroke-width: 0.500000;stroke-linecap: round;stroke-linejoin: round;stroke-miterlimit: 10.000000;fill: none;"></path>
  </g>
  <g transform="matrix(0.000000,1.000000,-1.000000,0.000000,0.000000,0.000000)">
    <path d="M320.000305 -400.999390L320.000305 -431.001221" style="stroke:rgb(100.000000%,0.000000%,0.000000%); stroke-width: 0.500000;stroke-linecap: round;stroke-linejoin: round;stroke-miterlimit: 10.000000;fill: none;"></path>
  </g>
  <g transform="matrix(0.000000,1.000000,-1.000000,0.000000,0.000000,0.000000)">
    <path d="M325.000305 -400.999390L325.000305 -431.001221" style="stroke:rgb(100.000000%,0.000000%,0.000000%); stroke-width: 0.500000;stroke-linecap: round;stroke-linejoin: round;stroke-miterlimit: 10.000000;fill: none;"></path>
  </g>
</svg>
