<?xml version="1.0"?>
<!-- Created by MetaPost 1.9991 on 2017.11.23:0050 -->
<svg version="1.1" xmlns="http://www.w3.org/2000/svg" xmlns:xlink="http://www.w3.org/1999/xlink" width="325.999222" height="300.500000" viewBox="0 0 325.999222 300.500000">
<!-- Original BoundingBox: -0.250000 -0.250000 325.749222 300.250000 -->
  <path d="M209.999084 150.000000C209.999084 110.215759,198.934525 72.065735,179.243912 43.936157C159.553284 15.806580,132.848389 -0.000000,104.999542 -0.000000C77.150696 -0.000000,50.445801 15.806580,30.755173 43.936157C11.064560 72.065735,0.000000 110.215759,0.000000 150.000000C0.000000 189.784241,11.064560 227.934265,30.755173 256.063843C50.445801 284.193420,77.150696 300.000000,104.999542 300.000000C132.848389 300.000000,159.553284 284.193420,179.243912 256.063843C198.934525 227.934265,209.999084 189.784241,209.999084 150.000000Z" style="stroke:rgb(0.000000%,0.000000%,0.000000%); stroke-width: 0.500000;stroke-linecap: round;stroke-linejoin: round;stroke-miterlimit: 10.000000;fill: none;"></path>
  <path d="M199.498489 30.001831C190.458603 49.387802,192.046280 72.063782,203.699371 90.000916L203.699371 90.000916C132.438400 90.000916,31.258133 90.004578,31.498581 105.001831C31.738953 119.994507,130.449677 119.998169,199.498489 119.998169L199.498489 119.998169C126.034592 119.998169,21.001190 120.001831,21.001190 134.999084C21.001190 149.996338,126.034576 150.000000,199.498489 150.000000L199.498489 150.000000C132.038300 150.000000,33.196960 150.003662,31.498581 165.000916C29.800201 179.998169,146.979355 180.001831,231.000275 180.001831L272.999451 300.000000L325.499222 300.000000L251.998260 90.000916L233.099106 90.000916C214.552704 75.620041,203.699371 53.470505,203.699371 30.001831Z" style="stroke:rgb(0.000000%,0.000000%,0.000000%); stroke-width: 0.500000;stroke-linecap: round;stroke-linejoin: round;stroke-miterlimit: 10.000000;fill: none;"></path>
  <path d="M41.999176 194.998169L167.999908 194.998169" style="stroke:rgb(0.000000%,0.000000%,0.000000%); stroke-width: 0.500000;stroke-linecap: round;stroke-linejoin: round;stroke-miterlimit: 10.000000;fill: none;"></path>
  <path d="M73.500961 194.998169L73.500961 209.999084" style="stroke:rgb(0.000000%,0.000000%,0.000000%); stroke-width: 0.500000;stroke-linecap: round;stroke-linejoin: round;stroke-miterlimit: 10.000000;fill: none;"></path>
  <path d="M136.501328 194.998169L136.501328 209.999084" style="stroke:rgb(0.000000%,0.000000%,0.000000%); stroke-width: 0.500000;stroke-linecap: round;stroke-linejoin: round;stroke-miterlimit: 10.000000;fill: none;"></path>
  <path d="M104.999542 225.000000C112.703217 234.489990,124.274933 240.000916,136.498123 240.000916L136.498123 255.001831C124.414734 255.001831,113.562424 261.435287,104.999542 269.998169" style="stroke:rgb(0.000000%,0.000000%,0.000000%); stroke-width: 0.500000;stroke-linecap: round;stroke-linejoin: round;stroke-miterlimit: 10.000000;fill: none;"></path>
  <path d="M136.498123 30.001831L73.500961 30.001831L73.500961 75.000000L136.498123 75.000000" style="stroke:rgb(0.000000%,0.000000%,0.000000%); stroke-width: 0.500000;stroke-linecap: round;stroke-linejoin: round;stroke-miterlimit: 10.000000;fill: none;"></path>
  <path d="M73.500961 52.500916L136.498123 52.500916" style="stroke:rgb(0.000000%,0.000000%,0.000000%); stroke-width: 0.500000;stroke-linecap: round;stroke-linejoin: round;stroke-miterlimit: 10.000000;fill: none;"></path>
  <path d="M146.998718 240.000916L199.498489 240.000916" style="stroke:rgb(0.000000%,0.000000%,0.000000%); stroke-width: 0.500000;stroke-linecap: round;stroke-linejoin: round;stroke-miterlimit: 10.000000;fill: none;"></path>
  <path d="M146.998718 255.001831L193.198074 255.001831" style="stroke:rgb(0.000000%,0.000000%,0.000000%); stroke-width: 0.500000;stroke-linecap: round;stroke-linejoin: round;stroke-miterlimit: 10.000000;fill: none;"></path>
  <path d="M209.999084 240.000916C187.397736 227.603561,208.995010 194.377029,229.500320 209.999084C236.104645 215.030624,236.104645 224.968765,229.500320 230.000305L229.500320 230.000305C238.132401 231.336227,244.501236 238.766525,244.501236 247.501373C244.501236 256.236221,238.132401 263.666519,229.500320 265.002441L223.199905 265.002441C229.804230 270.033981,229.804230 279.972122,223.199905 285.003662C202.694595 300.625717,181.097305 267.399185,203.698669 255.001831" style="stroke:rgb(0.000000%,0.000000%,0.000000%); stroke-width: 0.500000;stroke-linecap: round;stroke-linejoin: round;stroke-miterlimit: 10.000000;fill: none;"></path>
</svg>
