<?xml version="1.0"?>
<!-- Created by MetaPost 1.9991 on 2017.11.23:0050 -->
<svg version="1.1" xmlns="http://www.w3.org/2000/svg" xmlns:xlink="http://www.w3.org/1999/xlink" width="233.110062" height="316.750000" viewBox="0 0 233.110062 316.750000">
<!-- Original BoundingBox: -26.499893 -20.250000 206.610168 296.500000 -->
  <path d="M128.374557 69.750000L138.874512 23.500000L183.499313 -0.250000L230.749115 32.250000L222.874146 76.000000L178.249344 101.000000Z" style="stroke:rgb(0.000000%,0.000000%,0.000000%); stroke-width: 0.500000;stroke-linecap: round;stroke-linejoin: round;stroke-miterlimit: 10.000000;fill: none;"></path>
  <path d="M162.499405 91.000000L162.499405 56.000000L151.999451 59.750000L138.874512 76.000000L128.374557 69.750000L183.499313 -0.250000C189.026535 8.151230,196.164017 15.373703,204.499222 21.000000C212.460358 26.373795,221.367310 30.191071,230.749115 32.250000L178.249344 51.000000L178.249344 101.000000Z" style="stroke:rgb(0.000000%,0.000000%,0.000000%); stroke-width: 0.500000;stroke-linecap: round;stroke-linejoin: round;stroke-miterlimit: 10.000000;fill: none;"></path>
  <path d="M162.499405 91.000000L162.499405 56.000000L151.999451 59.750000L138.874512 76.000000L128.374557 69.750000L183.499313 -0.250000C189.026535 8.151230,196.164017 15.373703,204.499222 21.000000C212.460358 26.373795,221.367310 30.191071,230.749115 32.250000L178.249344 51.000000L178.249344 101.000000Z" style="fill: rgb(0.000000%,0.000000%,100.000000%);stroke: none;"></path>
  <path d="M213.030441 26.000000L165.124390 42.250000L191.374283 11.000000Z" style="fill: rgb(100.000000%,0.000000%,0.000000%);stroke: none;"></path>
  <path d="M230.749115 32.250000L222.874146 76.000000L178.249344 101.000000L178.249344 51.000000Z" style="fill: rgb(100.000000%,69.999695%,0.000000%);stroke: none;"></path>
  <path d="M162.499405 91.000000L162.499405 56.000000L151.999451 59.750000L138.874512 76.000000Z" style="fill: rgb(100.000000%,69.999695%,0.000000%);stroke: none;"></path>
  <path d="M128.374557 69.750000L138.874512 23.500000L183.499313 -0.250000Z" style="fill: rgb(100.000000%,69.999695%,0.000000%);stroke: none;"></path>
  <path d="M230.749115 32.250000C232.897202 40.868164,232.897202 49.881836,230.749115 58.500000C229.189651 64.756592,226.522583 70.683441,222.874146 76.000000" style="stroke:rgb(0.000000%,0.000000%,0.000000%); stroke-width: 0.500000;stroke-linecap: round;stroke-linejoin: round;stroke-miterlimit: 10.000000;fill: none;"></path>
  <path d="M138.874512 23.500000C144.116928 17.506958,150.328217 12.436508,157.249435 8.500000C165.343689 3.896332,174.261719 0.923645,183.499313 -0.250000" style="stroke:rgb(0.000000%,0.000000%,0.000000%); stroke-width: 0.500000;stroke-linecap: round;stroke-linejoin: round;stroke-miterlimit: 10.000000;fill: none;"></path>
  <path d="M128.374557 69.750000L127.062057 111.000000L132.312042 113.500000L178.249344 101.000000" style="stroke:rgb(0.000000%,0.000000%,0.000000%); stroke-width: 0.500000;stroke-linecap: round;stroke-linejoin: round;stroke-miterlimit: 10.000000;fill: none;"></path>
  <path d="M128.374557 109.750000C127.100906 111.040146,125.787781 112.290756,124.437073 113.500000C115.831451 121.204361,105.721268 127.223129,98.187180 136.000000C90.371124 145.105331,85.882111 156.549652,78.499771 166.000000C69.335861 177.731003,56.353760 185.653030,45.687408 196.000000C33.904816 207.429764,24.994080 222.191910,26.000000 238.500000C27.244888 258.682236,44.108276 275.659805,41.749924 296.000000C40.924667 303.117615,37.681503 309.736343,32.562469 314.750000" style="stroke:rgb(0.000000%,0.000000%,0.000000%); stroke-width: 0.500000;stroke-linecap: round;stroke-linejoin: round;stroke-miterlimit: 10.000000;fill: none;"></path>
  <path d="M-0.249893 316.000000C10.668060 315.317307,20.520645 309.218063,26.000000 299.750000C31.957016 289.456573,31.678299 276.834106,36.499954 266.000000C42.764633 251.923462,56.709534 242.684036,62.749847 228.500000C68.849869 214.175751,65.803513 197.243195,73.249802 183.500000C80.268280 170.546387,94.567017 164.005508,104.749664 153.500000C113.927170 144.031494,119.499573 131.648346,120.499588 118.500000" style="stroke:rgb(0.000000%,0.000000%,0.000000%); stroke-width: 0.500000;stroke-linecap: round;stroke-linejoin: round;stroke-miterlimit: 10.000000;fill: none;"></path>
  <path d="M137.562012 24.750000C131.618973 24.224731,125.777878 26.542633,121.812088 31.000000C116.490906 36.980759,115.639648 45.562241,111.312134 52.250000C106.962891 58.971329,99.623474 63.165298,91.624710 63.500000" style="stroke:rgb(0.000000%,0.000000%,0.000000%); stroke-width: 0.500000;stroke-linecap: round;stroke-linejoin: round;stroke-miterlimit: 10.000000;fill: none;"></path>
  <path d="M220.249161 77.875000C215.562637 80.853622,212.256271 85.577011,211.061691 91.000000C209.796738 96.742447,211.046448 102.764023,209.749207 108.500000C208.189529 115.396378,203.252548 121.038651,196.624252 123.500000" style="stroke:rgb(0.000000%,0.000000%,0.000000%); stroke-width: 0.500000;stroke-linecap: round;stroke-linejoin: round;stroke-miterlimit: 10.000000;fill: none;"></path>
  <path d="M204.499222 86.000000C204.767838 89.533157,203.843552 93.054306,201.874237 96.000000C198.483353 101.072098,192.517975 103.720459,188.749283 108.500000C184.992493 113.264450,183.886261 119.504059,180.874329 124.750000C177.206421 131.138458,171.008926 135.678757,163.811905 137.250000" style="stroke:rgb(0.000000%,0.000000%,0.000000%); stroke-width: 0.500000;stroke-linecap: round;stroke-linejoin: round;stroke-miterlimit: 10.000000;fill: none;"></path>
  <path d="M192.686768 92.250000C189.817505 95.756287,188.407578 100.232269,188.749283 104.750000C189.235687 111.180984,193.247314 117.034653,192.686768 123.500000C192.169800 129.462662,187.970749 134.461563,182.186813 136.000000" style="stroke:rgb(0.000000%,0.000000%,0.000000%); stroke-width: 0.500000;stroke-linecap: round;stroke-linejoin: round;stroke-miterlimit: 10.000000;fill: none;"></path>
  <path d="M180.874329 98.500000C182.371216 102.831940,181.362335 107.636139,178.249344 111.000000C173.952133 115.643524,166.738876 116.296997,162.499405 121.000000C158.781921 125.123962,158.448349 131.096024,155.936935 136.000000C153.300674 141.147766,148.474854 144.824615,142.811996 146.000000" style="stroke:rgb(0.000000%,0.000000%,0.000000%); stroke-width: 0.500000;stroke-linecap: round;stroke-linejoin: round;stroke-miterlimit: 10.000000;fill: none;"></path>
  <path d="M136.249512 37.250000C129.761200 36.927582,123.653595 40.320709,120.499588 46.000000C116.242935 53.664780,118.570801 63.525284,113.937119 71.000000C110.608978 76.368729,104.452911 79.300201,98.187180 78.500000" style="stroke:rgb(0.000000%,0.000000%,0.000000%); stroke-width: 0.500000;stroke-linecap: round;stroke-linejoin: round;stroke-miterlimit: 10.000000;fill: none;"></path>
  <path d="M132.312042 52.250000C126.021988 52.679077,120.249435 55.886063,116.562103 61.000000C113.021881 65.909897,111.816971 72.079773,108.687134 77.250000C105.420334 82.646484,100.280945 86.651230,94.249695 88.500000" style="stroke:rgb(0.000000%,0.000000%,0.000000%); stroke-width: 0.500000;stroke-linecap: round;stroke-linejoin: round;stroke-miterlimit: 10.000000;fill: none;"></path>
  <path d="M128.374557 67.250000C123.607971 70.163513,119.921616 74.552063,117.874603 79.750000C116.123779 84.195847,115.663971 89.045120,113.937119 93.500000C110.807281 101.574219,103.958542 107.630966,95.562195 109.750000" style="stroke:rgb(0.000000%,0.000000%,0.000000%); stroke-width: 0.500000;stroke-linecap: round;stroke-linejoin: round;stroke-miterlimit: 10.000000;fill: none;"></path>
  <path d="M183.499313 -0.250000L196.624252 29.750000L230.749115 32.250000" style="stroke:rgb(0.000000%,0.000000%,0.000000%); stroke-width: 0.500000;stroke-linecap: round;stroke-linejoin: round;stroke-miterlimit: 10.000000;fill: none;"></path>
  <path d="M178.249344 51.000000L196.624252 29.750000C179.412399 74.860733,170.518707 122.717438,170.374374 171.000000C170.247467 213.448517,176.893463 255.645477,190.061783 296.000000" style="stroke:rgb(0.000000%,0.000000%,0.000000%); stroke-width: 0.500000;stroke-linecap: round;stroke-linejoin: round;stroke-miterlimit: 10.000000;fill: none;"></path>
</svg>
