<?xml version="1.0"?>
<!-- Created by MetaPost 1.9991 on 2017.11.23:0050 -->
<svg version="1.1" xmlns="http://www.w3.org/2000/svg" xmlns:xlink="http://www.w3.org/1999/xlink" width="106.840637" height="120.847916" viewBox="0 0 106.840637 120.847916">
<!-- Original BoundingBox: -0.920547 14.152084 105.920090 120.847916 -->
  <g>
    <defs>
      <clipPath id="CLIP1">
        <path d="M0.000000 60.000000C10.000000 129.999695,114.999542 114.999695,104.999542 45.000000L104.999542 45.000000C94.999542 -24.999695,-10.000000 -9.999695,0.000000 60.000000Z" style="fill: black; stroke: none;"></path>
      </clipPath>
    </defs>
    <g clip-path="url(#CLIP1);">
      <path d="M0.000000 60.000000C10.000000 129.999695,114.999542 114.999695,104.999542 45.000000L104.999542 45.000000C94.999542 -24.999695,-10.000000 -9.999695,0.000000 60.000000Z" style="stroke:rgb(0.000000%,0.000000%,0.000000%); stroke-width: 0.500000;stroke-linecap: round;stroke-linejoin: round;stroke-miterlimit: 10.000000;fill: none;"></path>
      <path d="M0.000000 120.000000L0.000000 120.000000L0.000000 120.000000L0.000000 120.000000L0.000000 120.000000L0.000000 120.000000L0.000000 120.000000L0.000000 120.000000Z" style="stroke:rgb(0.000000%,0.000000%,0.000000%); stroke-width: 0.500000;stroke-linecap: round;stroke-linejoin: round;stroke-miterlimit: 10.000000;fill: none;"></path>
      <path d="M2.834641 120.000000C2.834641 119.248169,2.535934 118.527222,2.004349 117.995651C1.472778 117.464066,0.751831 117.165359,0.000000 117.165359C-0.751831 117.165359,-1.472778 117.464066,-2.004349 117.995651C-2.535934 118.527222,-2.834641 119.248169,-2.834641 120.000000C-2.834641 120.751831,-2.535934 121.472778,-2.004349 122.004349C-1.472778 122.535934,-0.751831 122.834641,0.000000 122.834641C0.751831 122.834641,1.472778 122.535934,2.004349 122.004349C2.535934 121.472778,2.834641 120.751831,2.834641 120.000000Z" style="stroke:rgb(0.000000%,0.000000%,0.000000%); stroke-width: 0.500000;stroke-linecap: round;stroke-linejoin: round;stroke-miterlimit: 10.000000;fill: none;"></path>
      <path d="M5.669281 120.000000C5.669281 118.496353,5.071869 117.054459,4.008698 115.991302C2.945541 114.928131,1.503647 114.330719,0.000000 114.330719C-1.503647 114.330719,-2.945541 114.928131,-4.008698 115.991302C-5.071869 117.054459,-5.669281 118.496353,-5.669281 120.000000C-5.669281 121.503647,-5.071869 122.945541,-4.008698 124.008698C-2.945541 125.071869,-1.503647 125.669281,0.000000 125.669281C1.503647 125.669281,2.945541 125.071869,4.008698 124.008698C5.071869 122.945541,5.669281 121.503647,5.669281 120.000000Z" style="stroke:rgb(0.000000%,0.000000%,0.000000%); stroke-width: 0.500000;stroke-linecap: round;stroke-linejoin: round;stroke-miterlimit: 10.000000;fill: none;"></path>
      <path d="M8.503922 120.000000C8.503922 117.744522,7.607803 115.581680,6.013062 113.986938C4.418320 112.392197,2.255478 111.496078,0.000000 111.496078C-2.255478 111.496078,-4.418320 112.392197,-6.013062 113.986938C-7.607803 115.581680,-8.503922 117.744522,-8.503922 120.000000C-8.503922 122.255478,-7.607803 124.418320,-6.013062 126.013062C-4.418320 127.607803,-2.255478 128.503922,0.000000 128.503922C2.255478 128.503922,4.418320 127.607803,6.013062 126.013062C7.607803 124.418320,8.503922 122.255478,8.503922 120.000000Z" style="stroke:rgb(0.000000%,0.000000%,0.000000%); stroke-width: 0.500000;stroke-linecap: round;stroke-linejoin: round;stroke-miterlimit: 10.000000;fill: none;"></path>
      <path d="M11.338562 120.000000C11.338562 116.992691,10.143738 114.108917,8.017410 111.982590C5.891083 109.856262,3.007309 108.661438,0.000000 108.661438C-3.007309 108.661438,-5.891083 109.856262,-8.017410 111.982590C-10.143738 114.108917,-11.338562 116.992691,-11.338562 120.000000C-11.338562 123.007309,-10.143738 125.891083,-8.017410 128.017410C-5.891083 130.143738,-3.007309 131.338562,0.000000 131.338562C3.007309 131.338562,5.891083 130.143738,8.017410 128.017410C10.143738 125.891083,11.338562 123.007309,11.338562 120.000000Z" style="stroke:rgb(0.000000%,0.000000%,0.000000%); stroke-width: 0.500000;stroke-linecap: round;stroke-linejoin: round;stroke-miterlimit: 10.000000;fill: none;"></path>
      <path d="M14.173203 120.000000C14.173203 116.240860,12.679672 112.636139,10.021759 109.978241C7.363861 107.320328,3.759140 105.826797,0.000000 105.826797C-3.759140 105.826797,-7.363861 107.320328,-10.021759 109.978241C-12.679672 112.636139,-14.173203 116.240860,-14.173203 120.000000C-14.173203 123.759140,-12.679672 127.363861,-10.021759 130.021759C-7.363861 132.679672,-3.759140 134.173203,0.000000 134.173203C3.759140 134.173203,7.363861 132.679672,10.021759 130.021759C12.679672 127.363861,14.173203 123.759140,14.173203 120.000000Z" style="stroke:rgb(0.000000%,0.000000%,0.000000%); stroke-width: 0.500000;stroke-linecap: round;stroke-linejoin: round;stroke-miterlimit: 10.000000;fill: none;"></path>
      <path d="M17.007843 120.000000C17.007843 115.489044,15.215607 111.163376,12.026108 107.973892C8.836624 104.784393,4.510956 102.992157,0.000000 102.992157C-4.510956 102.992157,-8.836624 104.784393,-12.026108 107.973892C-15.215607 111.163376,-17.007843 115.489044,-17.007843 120.000000C-17.007843 124.510956,-15.215607 128.836624,-12.026108 132.026108C-8.836624 135.215607,-4.510956 137.007843,0.000000 137.007843C4.510956 137.007843,8.836624 135.215607,12.026108 132.026108C15.215607 128.836624,17.007843 124.510956,17.007843 120.000000Z" style="stroke:rgb(0.000000%,0.000000%,0.000000%); stroke-width: 0.500000;stroke-linecap: round;stroke-linejoin: round;stroke-miterlimit: 10.000000;fill: none;"></path>
      <path d="M19.842484 120.000000C19.842484 114.737213,17.751541 109.690598,14.030472 105.969528C10.309402 102.248459,5.262787 100.157516,0.000000 100.157516C-5.262787 100.157516,-10.309402 102.248459,-14.030472 105.969528C-17.751541 109.690598,-19.842484 114.737213,-19.842484 120.000000C-19.842484 125.262787,-17.751541 130.309402,-14.030472 134.030472C-10.309402 137.751541,-5.262787 139.842484,0.000000 139.842484C5.262787 139.842484,10.309402 137.751541,14.030472 134.030472C17.751541 130.309402,19.842484 125.262787,19.842484 120.000000Z" style="stroke:rgb(0.000000%,0.000000%,0.000000%); stroke-width: 0.500000;stroke-linecap: round;stroke-linejoin: round;stroke-miterlimit: 10.000000;fill: none;"></path>
      <path d="M22.677124 120.000000C22.677124 113.985382,20.287476 108.217834,16.034821 103.965179C11.782166 99.712524,6.014618 97.322876,0.000000 97.322876C-6.014618 97.322876,-11.782166 99.712524,-16.034821 103.965179C-20.287476 108.217834,-22.677124 113.985382,-22.677124 120.000000C-22.677124 126.014618,-20.287476 131.782166,-16.034821 136.034821C-11.782166 140.287476,-6.014618 142.677124,0.000000 142.677124C6.014618 142.677124,11.782166 140.287476,16.034821 136.034821C20.287476 131.782166,22.677124 126.014618,22.677124 120.000000Z" style="stroke:rgb(0.000000%,0.000000%,0.000000%); stroke-width: 0.500000;stroke-linecap: round;stroke-linejoin: round;stroke-miterlimit: 10.000000;fill: none;"></path>
      <path d="M25.511765 120.000000C25.511765 113.233566,22.823410 106.745056,18.039169 101.960831C13.254944 97.176590,6.766434 94.488235,0.000000 94.488235C-6.766434 94.488235,-13.254944 97.176590,-18.039169 101.960831C-22.823410 106.745056,-25.511765 113.233566,-25.511765 120.000000C-25.511765 126.766434,-22.823410 133.254944,-18.039169 138.039169C-13.254944 142.823410,-6.766434 145.511765,0.000000 145.511765C6.766434 145.511765,13.254944 142.823410,18.039169 138.039169C22.823410 133.254944,25.511765 126.766434,25.511765 120.000000Z" style="stroke:rgb(0.000000%,0.000000%,0.000000%); stroke-width: 0.500000;stroke-linecap: round;stroke-linejoin: round;stroke-miterlimit: 10.000000;fill: none;"></path>
      <path d="M28.346405 120.000000C28.346405 112.481735,25.359344 105.272293,20.043518 99.956482C14.727707 94.640656,7.518265 91.653595,0.000000 91.653595C-7.518265 91.653595,-14.727707 94.640656,-20.043518 99.956482C-25.359344 105.272293,-28.346405 112.481735,-28.346405 120.000000C-28.346405 127.518265,-25.359344 134.727707,-20.043518 140.043518C-14.727707 145.359344,-7.518265 148.346405,0.000000 148.346405C7.518265 148.346405,14.727707 145.359344,20.043518 140.043518C25.359344 134.727707,28.346405 127.518265,28.346405 120.000000Z" style="stroke:rgb(0.000000%,0.000000%,0.000000%); stroke-width: 0.500000;stroke-linecap: round;stroke-linejoin: round;stroke-miterlimit: 10.000000;fill: none;"></path>
      <path d="M31.181046 120.000000C31.181046 111.729904,27.895279 103.799515,22.047882 97.952118C16.200485 92.104721,8.270096 88.818954,0.000000 88.818954C-8.270096 88.818954,-16.200485 92.104721,-22.047882 97.952118C-27.895279 103.799515,-31.181046 111.729904,-31.181046 120.000000C-31.181046 128.270096,-27.895279 136.200485,-22.047882 142.047882C-16.200485 147.895279,-8.270096 151.181046,0.000000 151.181046C8.270096 151.181046,16.200485 147.895279,22.047882 142.047882C27.895279 136.200485,31.181046 128.270096,31.181046 120.000000Z" style="stroke:rgb(0.000000%,0.000000%,0.000000%); stroke-width: 0.500000;stroke-linecap: round;stroke-linejoin: round;stroke-miterlimit: 10.000000;fill: none;"></path>
      <path d="M34.015686 120.000000C34.015686 110.978073,30.431213 102.326752,24.052231 95.947769C17.673248 89.568787,9.021927 85.984314,0.000000 85.984314C-9.021927 85.984314,-17.673248 89.568787,-24.052231 95.947769C-30.431213 102.326752,-34.015686 110.978073,-34.015686 120.000000C-34.015686 129.021927,-30.431213 137.673248,-24.052231 144.052231C-17.673248 150.431213,-9.021927 154.015686,0.000000 154.015686C9.021927 154.015686,17.673248 150.431213,24.052231 144.052231C30.431213 137.673248,34.015686 129.021927,34.015686 120.000000Z" style="stroke:rgb(0.000000%,0.000000%,0.000000%); stroke-width: 0.500000;stroke-linecap: round;stroke-linejoin: round;stroke-miterlimit: 10.000000;fill: none;"></path>
      <path d="M36.850327 120.000000C36.850327 110.226257,32.967148 100.853973,26.056580 93.943420C19.146027 87.032852,9.773743 83.149673,0.000000 83.149673C-9.773743 83.149673,-19.146027 87.032852,-26.056580 93.943420C-32.967148 100.853973,-36.850327 110.226257,-36.850327 120.000000C-36.850327 129.773743,-32.967148 139.146027,-26.056580 146.056580C-19.146027 152.967148,-9.773743 156.850327,0.000000 156.850327C9.773743 156.850327,19.146027 152.967148,26.056580 146.056580C32.967148 139.146027,36.850327 129.773743,36.850327 120.000000Z" style="stroke:rgb(0.000000%,0.000000%,0.000000%); stroke-width: 0.500000;stroke-linecap: round;stroke-linejoin: round;stroke-miterlimit: 10.000000;fill: none;"></path>
      <path d="M39.684967 120.000000C39.684967 109.474426,35.503082 99.381210,28.060928 91.939072C20.618790 84.496918,10.525574 80.315033,0.000000 80.315033C-10.525574 80.315033,-20.618790 84.496918,-28.060928 91.939072C-35.503082 99.381210,-39.684967 109.474426,-39.684967 120.000000C-39.684967 130.525574,-35.503082 140.618790,-28.060928 148.060928C-20.618790 155.503082,-10.525574 159.684967,0.000000 159.684967C10.525574 159.684967,20.618790 155.503082,28.060928 148.060928C35.503082 140.618790,39.684967 130.525574,39.684967 120.000000Z" style="stroke:rgb(0.000000%,0.000000%,0.000000%); stroke-width: 0.500000;stroke-linecap: round;stroke-linejoin: round;stroke-miterlimit: 10.000000;fill: none;"></path>
      <path d="M42.519608 120.000000C42.519608 108.722595,38.039017 97.908432,30.065292 89.934708C22.091568 81.960983,11.277405 77.480392,0.000000 77.480392C-11.277405 77.480392,-22.091568 81.960983,-30.065292 89.934708C-38.039017 97.908432,-42.519608 108.722595,-42.519608 120.000000C-42.519608 131.277405,-38.039017 142.091568,-30.065292 150.065292C-22.091568 158.039017,-11.277405 162.519608,0.000000 162.519608C11.277405 162.519608,22.091568 158.039017,30.065292 150.065292C38.039017 142.091568,42.519608 131.277405,42.519608 120.000000Z" style="stroke:rgb(0.000000%,0.000000%,0.000000%); stroke-width: 0.500000;stroke-linecap: round;stroke-linejoin: round;stroke-miterlimit: 10.000000;fill: none;"></path>
    </g>
  </g>
  <path d="M0.000000 60.000000C10.000000 129.999695,114.999542 114.999695,104.999542 45.000000L104.999542 45.000000C94.999542 -24.999695,-10.000000 -9.999695,0.000000 60.000000Z" style="stroke:rgb(0.000000%,0.000000%,0.000000%); stroke-width: 0.500000;stroke-linecap: round;stroke-linejoin: round;stroke-miterlimit: 10.000000;fill: none;"></path>
</svg>
