<?xml version="1.0" encoding="UTF-8" standalone="no"?>
<!-- Created with Inkscape (http://www.inkscape.org/) -->

<svg
   xmlns:dc="http://purl.org/dc/elements/1.1/"
   xmlns:cc="http://creativecommons.org/ns#"
   xmlns:rdf="http://www.w3.org/1999/02/22-rdf-syntax-ns#"
   xmlns:svg="http://www.w3.org/2000/svg"
   xmlns="http://www.w3.org/2000/svg"
   xmlns:sodipodi="http://sodipodi.sourceforge.net/DTD/sodipodi-0.dtd"
   xmlns:inkscape="http://www.inkscape.org/namespaces/inkscape"
   width="74mm"
   height="30mm"
   viewBox="0 0 262.20472 106.29921"
   id="svg2"
   version="1.1"
   inkscape:version="0.91 r13725"
   sodipodi:docname="b.svg">
  <sodipodi:namedview
     id="base"
     pagecolor="#ffffff"
     bordercolor="#666666"
     borderopacity="1.0"
     inkscape:pageopacity="0.0"
     inkscape:pageshadow="2"
     inkscape:zoom="7.919596"
     inkscape:cx="9.901135"
     inkscape:cy="77.082813"
     inkscape:document-units="px"
     inkscape:current-layer="layer1"
     showgrid="false"
     inkscape:window-width="1366"
     inkscape:window-height="669"
     inkscape:window-x="0"
     inkscape:window-y="28"
     inkscape:window-maximized="1" />
  <defs
     id="defs4" />
  <metadata
     id="metadata7">
    <rdf:RDF>
      <cc:Work
         rdf:about="">
        <dc:format>image/svg+xml</dc:format>
        <dc:type
           rdf:resource="http://purl.org/dc/dcmitype/StillImage" />
        <dc:title></dc:title>
      </cc:Work>
    </rdf:RDF>
  </metadata>
  <g
     transform="translate(0,-946.06299)"
     id="layer1"
     inkscape:groupmode="layer"
     inkscape:label="Layer 1">
    <flowRoot
       transform="translate(0,680.31496)"
       style="font-style:normal;font-variant:normal;font-weight:normal;font-stretch:normal;font-size:40px;line-height:100%;font-family:herscheyfutura;-inkscape-font-specification:herscheyfutura;text-align:start;letter-spacing:0px;word-spacing:0px;writing-mode:lr-tb;text-anchor:start;fill:#000000;fill-opacity:1;stroke:none;stroke-width:1px;stroke-linecap:butt;stroke-linejoin:miter;stroke-opacity:1"
       id="flowRoot4136"
       xml:space="preserve"><flowRegion
         id="flowRegion4138"><rect
           style="font-style:normal;font-variant:normal;font-weight:normal;font-stretch:normal;font-family:herscheyfutura;-inkscape-font-specification:herscheyfutura"
           y="99.306053"
           x="32.324883"
           height="274.76151"
           width="383.85797"
           id="rect4140" /></flowRegion><flowPara
         id="flowPara4142" /></flowRoot>    <g
       id="g4200"
       transform="translate(-97.03597,191.24094)"
       inkscape:label="Hershey Text">
      <path
         id="path4202"
         transform="translate(11,0)"
         style="fill:none;stroke:#000000"
         d="M -7,-12 -7,9 M 7,-12 7,9 M -7,-2 7,-2"
         inkscape:connector-curvature="0" />
      <path
         id="path4204"
         transform="translate(31,0)"
         style="fill:none;stroke:#000000"
         d="M -6,1 6,1 6,-1 5,-3 4,-4 2,-5 l -3,0 -2,1 -2,2 -1,3 0,2 1,3 2,2 2,1 3,0 2,-1 2,-2"
         inkscape:connector-curvature="0" />
      <path
         id="path4206"
         transform="translate(47,0)"
         style="fill:none;stroke:#000000"
         d="m -3,-5 0,14 m 0,-8 1,-3 2,-2 2,-1 3,0"
         inkscape:connector-curvature="0" />
      <path
         id="path4208"
         transform="translate(61,0)"
         style="fill:none;stroke:#000000"
         d="m 6,-2 -1,-2 -3,-1 -3,0 -3,1 -1,2 1,2 2,1 L 3,2 5,3 6,5 6,6 5,8 2,9 -1,9 -4,8 -5,6"
         inkscape:connector-curvature="0" />
      <path
         id="path4210"
         transform="translate(79,0)"
         style="fill:none;stroke:#000000"
         d="m -5,-12 0,21 m 0,-10 3,-3 2,-1 3,0 2,1 1,3 0,10"
         inkscape:connector-curvature="0" />
      <path
         id="path4212"
         transform="translate(98,0)"
         style="fill:none;stroke:#000000"
         d="M -6,1 6,1 6,-1 5,-3 4,-4 2,-5 l -3,0 -2,1 -2,2 -1,3 0,2 1,3 2,2 2,1 3,0 2,-1 2,-2"
         inkscape:connector-curvature="0" />
      <path
         id="path4214"
         transform="translate(115,0)"
         style="fill:none;stroke:#000000"
         d="M -6,-5 0,9 M 6,-5 0,9 l -2,4 -2,2 -2,1 -1,0"
         inkscape:connector-curvature="0" />
      <path
         id="path4216"
         transform="translate(131,0)"
         style="fill:none;stroke:#000000"
         d=""
         inkscape:connector-curvature="0" />
      <path
         id="path4218"
         transform="translate(147,0)"
         style="fill:none;stroke:#000000"
         d="M 0,-12 0,9 m -7,-21 14,0"
         inkscape:connector-curvature="0" />
      <path
         id="path4220"
         transform="translate(164,0)"
         style="fill:none;stroke:#000000"
         d="M -6,1 6,1 6,-1 5,-3 4,-4 2,-5 l -3,0 -2,1 -2,2 -1,3 0,2 1,3 2,2 2,1 3,0 2,-1 2,-2"
         inkscape:connector-curvature="0" />
      <path
         id="path4222"
         transform="translate(181,0)"
         style="fill:none;stroke:#000000"
         d="M -5,-5 6,9 M 6,-5 -5,9"
         inkscape:connector-curvature="0" />
      <path
         id="path4224"
         transform="translate(195,0)"
         style="fill:none;stroke:#000000"
         d="M 0,-12 0,5 1,8 3,9 5,9 m -8,-14 7,0"
         inkscape:connector-curvature="0" />
      <path
         id="path4226"
         transform="translate(210,0)"
         style="fill:none;stroke:#000000"
         d=""
         inkscape:connector-curvature="0" />
      <path
         id="path4228"
         transform="translate(223,0)"
         style="fill:none;stroke:#000000"
         d="m 5,-12 -2,0 -2,1 -1,3 0,17 m -3,-14 7,0"
         inkscape:connector-curvature="0" />
      <path
         id="path4230"
         transform="translate(239,0)"
         style="fill:none;stroke:#000000"
         d="m -1,-5 -2,1 -2,2 -1,3 0,2 1,3 2,2 2,1 L 2,9 4,8 6,6 7,3 7,1 6,-2 4,-4 2,-5 -1,-5"
         inkscape:connector-curvature="0" />
      <path
         id="path4232"
         transform="translate(256,0)"
         style="fill:none;stroke:#000000"
         d="m -3,-5 0,14 m 0,-8 1,-3 2,-2 2,-1 3,0"
         inkscape:connector-curvature="0" />
      <path
         id="path4234"
         transform="translate(270,0)"
         style="fill:none;stroke:#000000"
         d=""
         inkscape:connector-curvature="0" />
      <path
         id="path4236"
         transform="translate(282,0)"
         style="fill:none;stroke:#000000"
         d="M 0,-12 0,9"
         inkscape:connector-curvature="0" />
      <path
         id="path4238"
         transform="translate(295,0)"
         style="fill:none;stroke:#000000"
         d="m -5,-5 0,14 m 0,-10 3,-3 2,-1 3,0 2,1 1,3 0,10"
         inkscape:connector-curvature="0" />
      <path
         id="path4240"
         transform="translate(314,0)"
         style="fill:none;stroke:#000000"
         d="M -5,-12 -5,9 M 5,-5 -5,5 m 4,-4 7,8"
         inkscape:connector-curvature="0" />
      <path
         id="path4242"
         transform="translate(330,0)"
         style="fill:none;stroke:#000000"
         d="m 6,-2 -1,-2 -3,-1 -3,0 -3,1 -1,2 1,2 2,1 L 3,2 5,3 6,5 6,6 5,8 2,9 -1,9 -4,8 -5,6"
         inkscape:connector-curvature="0" />
      <path
         id="path4244"
         transform="translate(348,0)"
         style="fill:none;stroke:#000000"
         d="m 6,-2 -2,-2 -2,-1 -3,0 -2,1 -2,2 -1,3 0,2 1,3 2,2 2,1 3,0 2,-1 2,-2"
         inkscape:connector-curvature="0" />
      <path
         id="path4246"
         transform="translate(366,0)"
         style="fill:none;stroke:#000000"
         d="M 6,-5 6,9 M 6,-2 4,-4 2,-5 l -3,0 -2,1 -2,2 -1,3 0,2 1,3 2,2 2,1 3,0 2,-1 2,-2"
         inkscape:connector-curvature="0" />
      <path
         id="path4248"
         transform="translate(386,0)"
         style="fill:none;stroke:#000000"
         d="m -6,-5 0,21 m 0,-18 2,-2 2,-1 3,0 2,1 2,2 L 6,1 6,3 5,6 3,8 1,9 -2,9 -4,8 -6,6"
         inkscape:connector-curvature="0" />
      <path
         id="path4250"
         transform="translate(404,0)"
         style="fill:none;stroke:#000000"
         d="M -6,1 6,1 6,-1 5,-3 4,-4 2,-5 l -3,0 -2,1 -2,2 -1,3 0,2 1,3 2,2 2,1 3,0 2,-1 2,-2"
         inkscape:connector-curvature="0" />
    </g>
    <g
       inkscape:label="Hershey Text"
       transform="translate(-97.03597,191.24094)"
       id="g4374">
      <path
         d="M -7,-12 -7,9 M 7,-12 7,9 M -7,-2 7,-2"
         style="fill:none;stroke:#000000"
         transform="translate(11,0)"
         id="path4376"
         inkscape:connector-curvature="0" />
      <path
         d="M -6,1 6,1 6,-1 5,-3 4,-4 2,-5 l -3,0 -2,1 -2,2 -1,3 0,2 1,3 2,2 2,1 3,0 2,-1 2,-2"
         style="fill:none;stroke:#000000"
         transform="translate(31,0)"
         id="path4378"
         inkscape:connector-curvature="0" />
      <path
         d="m -3,-5 0,14 m 0,-8 1,-3 2,-2 2,-1 3,0"
         style="fill:none;stroke:#000000"
         transform="translate(47,0)"
         id="path4380"
         inkscape:connector-curvature="0" />
      <path
         d="m 6,-2 -1,-2 -3,-1 -3,0 -3,1 -1,2 1,2 2,1 L 3,2 5,3 6,5 6,6 5,8 2,9 -1,9 -4,8 -5,6"
         style="fill:none;stroke:#000000"
         transform="translate(61,0)"
         id="path4382"
         inkscape:connector-curvature="0" />
      <path
         d="m -5,-12 0,21 m 0,-10 3,-3 2,-1 3,0 2,1 1,3 0,10"
         style="fill:none;stroke:#000000"
         transform="translate(79,0)"
         id="path4384"
         inkscape:connector-curvature="0" />
      <path
         d="M -6,1 6,1 6,-1 5,-3 4,-4 2,-5 l -3,0 -2,1 -2,2 -1,3 0,2 1,3 2,2 2,1 3,0 2,-1 2,-2"
         style="fill:none;stroke:#000000"
         transform="translate(98,0)"
         id="path4386"
         inkscape:connector-curvature="0" />
      <path
         d="M -6,-5 0,9 M 6,-5 0,9 l -2,4 -2,2 -2,1 -1,0"
         style="fill:none;stroke:#000000"
         transform="translate(115,0)"
         id="path4388"
         inkscape:connector-curvature="0" />
      <path
         d=""
         style="fill:none;stroke:#000000"
         transform="translate(131,0)"
         id="path4390"
         inkscape:connector-curvature="0" />
      <path
         d="M 0,-12 0,9 m -7,-21 14,0"
         style="fill:none;stroke:#000000"
         transform="translate(147,0)"
         id="path4392"
         inkscape:connector-curvature="0" />
      <path
         d="M -6,1 6,1 6,-1 5,-3 4,-4 2,-5 l -3,0 -2,1 -2,2 -1,3 0,2 1,3 2,2 2,1 3,0 2,-1 2,-2"
         style="fill:none;stroke:#000000"
         transform="translate(164,0)"
         id="path4394"
         inkscape:connector-curvature="0" />
      <path
         d="M -5,-5 6,9 M 6,-5 -5,9"
         style="fill:none;stroke:#000000"
         transform="translate(181,0)"
         id="path4396"
         inkscape:connector-curvature="0" />
      <path
         d="M 0,-12 0,5 1,8 3,9 5,9 m -8,-14 7,0"
         style="fill:none;stroke:#000000"
         transform="translate(195,0)"
         id="path4398"
         inkscape:connector-curvature="0" />
      <path
         d=""
         style="fill:none;stroke:#000000"
         transform="translate(210,0)"
         id="path4400"
         inkscape:connector-curvature="0" />
      <path
         d="m 5,-12 -2,0 -2,1 -1,3 0,17 m -3,-14 7,0"
         style="fill:none;stroke:#000000"
         transform="translate(223,0)"
         id="path4402"
         inkscape:connector-curvature="0" />
      <path
         d="m -1,-5 -2,1 -2,2 -1,3 0,2 1,3 2,2 2,1 L 2,9 4,8 6,6 7,3 7,1 6,-2 4,-4 2,-5 -1,-5"
         style="fill:none;stroke:#000000"
         transform="translate(239,0)"
         id="path4404"
         inkscape:connector-curvature="0" />
      <path
         d="m -3,-5 0,14 m 0,-8 1,-3 2,-2 2,-1 3,0"
         style="fill:none;stroke:#000000"
         transform="translate(256,0)"
         id="path4406"
         inkscape:connector-curvature="0" />
      <path
         d=""
         style="fill:none;stroke:#000000"
         transform="translate(270,0)"
         id="path4408"
         inkscape:connector-curvature="0" />
      <path
         d="M 0,-12 0,9"
         style="fill:none;stroke:#000000"
         transform="translate(282,0)"
         id="path4410"
         inkscape:connector-curvature="0" />
      <path
         d="m -5,-5 0,14 m 0,-10 3,-3 2,-1 3,0 2,1 1,3 0,10"
         style="fill:none;stroke:#000000"
         transform="translate(295,0)"
         id="path4412"
         inkscape:connector-curvature="0" />
      <path
         d="M -5,-12 -5,9 M 5,-5 -5,5 m 4,-4 7,8"
         style="fill:none;stroke:#000000"
         transform="translate(314,0)"
         id="path4414"
         inkscape:connector-curvature="0" />
      <path
         d="m 6,-2 -1,-2 -3,-1 -3,0 -3,1 -1,2 1,2 2,1 L 3,2 5,3 6,5 6,6 5,8 2,9 -1,9 -4,8 -5,6"
         style="fill:none;stroke:#000000"
         transform="translate(330,0)"
         id="path4416"
         inkscape:connector-curvature="0" />
      <path
         d="m 6,-2 -2,-2 -2,-1 -3,0 -2,1 -2,2 -1,3 0,2 1,3 2,2 2,1 3,0 2,-1 2,-2"
         style="fill:none;stroke:#000000"
         transform="translate(348,0)"
         id="path4418"
         inkscape:connector-curvature="0" />
      <path
         d="M 6,-5 6,9 M 6,-2 4,-4 2,-5 l -3,0 -2,1 -2,2 -1,3 0,2 1,3 2,2 2,1 3,0 2,-1 2,-2"
         style="fill:none;stroke:#000000"
         transform="translate(366,0)"
         id="path4420"
         inkscape:connector-curvature="0" />
      <path
         d="m -6,-5 0,21 m 0,-18 2,-2 2,-1 3,0 2,1 2,2 L 6,1 6,3 5,6 3,8 1,9 -2,9 -4,8 -6,6"
         style="fill:none;stroke:#000000"
         transform="translate(386,0)"
         id="path4422"
         inkscape:connector-curvature="0" />
      <path
         d="M -6,1 6,1 6,-1 5,-3 4,-4 2,-5 l -3,0 -2,1 -2,2 -1,3 0,2 1,3 2,2 2,1 3,0 2,-1 2,-2"
         style="fill:none;stroke:#000000"
         transform="translate(404,0)"
         id="path4424"
         inkscape:connector-curvature="0" />
    </g>
    <g
       id="g4600"
       transform="translate(-124.4726,277.58384)"
       inkscape:label="Hershey Text">
      <path
         id="path4602"
         transform="translate(11,0)"
         style="fill:none;stroke:#000000"
         d="M -7,-12 -7,9 M 7,-12 7,9 M -7,-2 7,-2"
         inkscape:connector-curvature="0" />
      <path
         id="path4604"
         transform="translate(31,0)"
         style="fill:none;stroke:#000000"
         d="M -6,1 6,1 6,-1 5,-3 4,-4 2,-5 l -3,0 -2,1 -2,2 -1,3 0,2 1,3 2,2 2,1 3,0 2,-1 2,-2"
         inkscape:connector-curvature="0" />
      <path
         id="path4606"
         transform="translate(47,0)"
         style="fill:none;stroke:#000000"
         d="m -3,-5 0,14 m 0,-8 1,-3 2,-2 2,-1 3,0"
         inkscape:connector-curvature="0" />
      <path
         id="path4608"
         transform="translate(61,0)"
         style="fill:none;stroke:#000000"
         d="m 6,-2 -1,-2 -3,-1 -3,0 -3,1 -1,2 1,2 2,1 L 3,2 5,3 6,5 6,6 5,8 2,9 -1,9 -4,8 -5,6"
         inkscape:connector-curvature="0" />
      <path
         id="path4610"
         transform="translate(79,0)"
         style="fill:none;stroke:#000000"
         d="m -5,-12 0,21 m 0,-10 3,-3 2,-1 3,0 2,1 1,3 0,10"
         inkscape:connector-curvature="0" />
      <path
         id="path4612"
         transform="translate(98,0)"
         style="fill:none;stroke:#000000"
         d="M -6,1 6,1 6,-1 5,-3 4,-4 2,-5 l -3,0 -2,1 -2,2 -1,3 0,2 1,3 2,2 2,1 3,0 2,-1 2,-2"
         inkscape:connector-curvature="0" />
      <path
         id="path4614"
         transform="translate(115,0)"
         style="fill:none;stroke:#000000"
         d="M -6,-5 0,9 M 6,-5 0,9 l -2,4 -2,2 -2,1 -1,0"
         inkscape:connector-curvature="0" />
      <path
         id="path4616"
         transform="translate(131,0)"
         style="fill:none;stroke:#000000"
         d=""
         inkscape:connector-curvature="0" />
      <path
         id="path4618"
         transform="translate(147,0)"
         style="fill:none;stroke:#000000"
         d="M 0,-12 0,9 m -7,-21 14,0"
         inkscape:connector-curvature="0" />
      <path
         id="path4620"
         transform="translate(164,0)"
         style="fill:none;stroke:#000000"
         d="M -6,1 6,1 6,-1 5,-3 4,-4 2,-5 l -3,0 -2,1 -2,2 -1,3 0,2 1,3 2,2 2,1 3,0 2,-1 2,-2"
         inkscape:connector-curvature="0" />
      <path
         id="path4622"
         transform="translate(181,0)"
         style="fill:none;stroke:#000000"
         d="M -5,-5 6,9 M 6,-5 -5,9"
         inkscape:connector-curvature="0" />
      <path
         id="path4624"
         transform="translate(195,0)"
         style="fill:none;stroke:#000000"
         d="M 0,-12 0,5 1,8 3,9 5,9 m -8,-14 7,0"
         inkscape:connector-curvature="0" />
      <path
         id="path4626"
         transform="translate(210,0)"
         style="fill:none;stroke:#000000"
         d=""
         inkscape:connector-curvature="0" />
      <path
         id="path4628"
         transform="translate(223,0)"
         style="fill:none;stroke:#000000"
         d="m 5,-12 -2,0 -2,1 -1,3 0,17 m -3,-14 7,0"
         inkscape:connector-curvature="0" />
      <path
         id="path4630"
         transform="translate(239,0)"
         style="fill:none;stroke:#000000"
         d="m -1,-5 -2,1 -2,2 -1,3 0,2 1,3 2,2 2,1 L 2,9 4,8 6,6 7,3 7,1 6,-2 4,-4 2,-5 -1,-5"
         inkscape:connector-curvature="0" />
      <path
         id="path4632"
         transform="translate(256,0)"
         style="fill:none;stroke:#000000"
         d="m -3,-5 0,14 m 0,-8 1,-3 2,-2 2,-1 3,0"
         inkscape:connector-curvature="0" />
      <path
         id="path4634"
         transform="translate(270,0)"
         style="fill:none;stroke:#000000"
         d=""
         inkscape:connector-curvature="0" />
      <path
         id="path4636"
         transform="translate(282,0)"
         style="fill:none;stroke:#000000"
         d="M 0,-12 0,9"
         inkscape:connector-curvature="0" />
      <path
         id="path4638"
         transform="translate(295,0)"
         style="fill:none;stroke:#000000"
         d="m -5,-5 0,14 m 0,-10 3,-3 2,-1 3,0 2,1 1,3 0,10"
         inkscape:connector-curvature="0" />
      <path
         id="path4640"
         transform="translate(314,0)"
         style="fill:none;stroke:#000000"
         d="M -5,-12 -5,9 M 5,-5 -5,5 m 4,-4 7,8"
         inkscape:connector-curvature="0" />
      <path
         id="path4642"
         transform="translate(330,0)"
         style="fill:none;stroke:#000000"
         d="m 6,-2 -1,-2 -3,-1 -3,0 -3,1 -1,2 1,2 2,1 L 3,2 5,3 6,5 6,6 5,8 2,9 -1,9 -4,8 -5,6"
         inkscape:connector-curvature="0" />
      <path
         id="path4644"
         transform="translate(348,0)"
         style="fill:none;stroke:#000000"
         d="m 6,-2 -2,-2 -2,-1 -3,0 -2,1 -2,2 -1,3 0,2 1,3 2,2 2,1 3,0 2,-1 2,-2"
         inkscape:connector-curvature="0" />
      <path
         id="path4646"
         transform="translate(366,0)"
         style="fill:none;stroke:#000000"
         d="M 6,-5 6,9 M 6,-2 4,-4 2,-5 l -3,0 -2,1 -2,2 -1,3 0,2 1,3 2,2 2,1 3,0 2,-1 2,-2"
         inkscape:connector-curvature="0" />
      <path
         id="path4648"
         transform="translate(386,0)"
         style="fill:none;stroke:#000000"
         d="m -6,-5 0,21 m 0,-18 2,-2 2,-1 3,0 2,1 2,2 L 6,1 6,3 5,6 3,8 1,9 -2,9 -4,8 -6,6"
         inkscape:connector-curvature="0" />
      <path
         id="path4650"
         transform="translate(404,0)"
         style="fill:none;stroke:#000000"
         d="M -6,1 6,1 6,-1 5,-3 4,-4 2,-5 l -3,0 -2,1 -2,2 -1,3 0,2 1,3 2,2 2,1 3,0 2,-1 2,-2"
         inkscape:connector-curvature="0" />
    </g>
    <g
       inkscape:label="Hershey Text"
       transform="translate(-124.4726,277.58384)"
       id="g4878">
      <path
         d="M -7,-12 -7,9 M 7,-12 7,9 M -7,-2 7,-2"
         style="fill:none;stroke:#000000"
         transform="translate(11,0)"
         id="path4880"
         inkscape:connector-curvature="0" />
      <path
         d="M -6,1 6,1 6,-1 5,-3 4,-4 2,-5 l -3,0 -2,1 -2,2 -1,3 0,2 1,3 2,2 2,1 3,0 2,-1 2,-2"
         style="fill:none;stroke:#000000"
         transform="translate(31,0)"
         id="path4882"
         inkscape:connector-curvature="0" />
      <path
         d="m -3,-5 0,14 m 0,-8 1,-3 2,-2 2,-1 3,0"
         style="fill:none;stroke:#000000"
         transform="translate(47,0)"
         id="path4884"
         inkscape:connector-curvature="0" />
      <path
         d="m 6,-2 -1,-2 -3,-1 -3,0 -3,1 -1,2 1,2 2,1 L 3,2 5,3 6,5 6,6 5,8 2,9 -1,9 -4,8 -5,6"
         style="fill:none;stroke:#000000"
         transform="translate(61,0)"
         id="path4886"
         inkscape:connector-curvature="0" />
      <path
         d="m -5,-12 0,21 m 0,-10 3,-3 2,-1 3,0 2,1 1,3 0,10"
         style="fill:none;stroke:#000000"
         transform="translate(79,0)"
         id="path4888"
         inkscape:connector-curvature="0" />
      <path
         d="M -6,1 6,1 6,-1 5,-3 4,-4 2,-5 l -3,0 -2,1 -2,2 -1,3 0,2 1,3 2,2 2,1 3,0 2,-1 2,-2"
         style="fill:none;stroke:#000000"
         transform="translate(98,0)"
         id="path4890"
         inkscape:connector-curvature="0" />
      <path
         d="M -6,-5 0,9 M 6,-5 0,9 l -2,4 -2,2 -2,1 -1,0"
         style="fill:none;stroke:#000000"
         transform="translate(115,0)"
         id="path4892"
         inkscape:connector-curvature="0" />
      <path
         d=""
         style="fill:none;stroke:#000000"
         transform="translate(131,0)"
         id="path4894"
         inkscape:connector-curvature="0" />
      <path
         d="M 0,-12 0,9 m -7,-21 14,0"
         style="fill:none;stroke:#000000"
         transform="translate(147,0)"
         id="path4896"
         inkscape:connector-curvature="0" />
      <path
         d="M -6,1 6,1 6,-1 5,-3 4,-4 2,-5 l -3,0 -2,1 -2,2 -1,3 0,2 1,3 2,2 2,1 3,0 2,-1 2,-2"
         style="fill:none;stroke:#000000"
         transform="translate(164,0)"
         id="path4898"
         inkscape:connector-curvature="0" />
      <path
         d="M -5,-5 6,9 M 6,-5 -5,9"
         style="fill:none;stroke:#000000"
         transform="translate(181,0)"
         id="path4900"
         inkscape:connector-curvature="0" />
      <path
         d="M 0,-12 0,5 1,8 3,9 5,9 m -8,-14 7,0"
         style="fill:none;stroke:#000000"
         transform="translate(195,0)"
         id="path4902"
         inkscape:connector-curvature="0" />
      <path
         d=""
         style="fill:none;stroke:#000000"
         transform="translate(210,0)"
         id="path4904"
         inkscape:connector-curvature="0" />
      <path
         d="m 5,-12 -2,0 -2,1 -1,3 0,17 m -3,-14 7,0"
         style="fill:none;stroke:#000000"
         transform="translate(223,0)"
         id="path4906"
         inkscape:connector-curvature="0" />
      <path
         d="m -1,-5 -2,1 -2,2 -1,3 0,2 1,3 2,2 2,1 L 2,9 4,8 6,6 7,3 7,1 6,-2 4,-4 2,-5 -1,-5"
         style="fill:none;stroke:#000000"
         transform="translate(239,0)"
         id="path4908"
         inkscape:connector-curvature="0" />
      <path
         d="m -3,-5 0,14 m 0,-8 1,-3 2,-2 2,-1 3,0"
         style="fill:none;stroke:#000000"
         transform="translate(256,0)"
         id="path4910"
         inkscape:connector-curvature="0" />
      <path
         d=""
         style="fill:none;stroke:#000000"
         transform="translate(270,0)"
         id="path4912"
         inkscape:connector-curvature="0" />
      <path
         d="M 0,-12 0,9"
         style="fill:none;stroke:#000000"
         transform="translate(282,0)"
         id="path4914"
         inkscape:connector-curvature="0" />
      <path
         d="m -5,-5 0,14 m 0,-10 3,-3 2,-1 3,0 2,1 1,3 0,10"
         style="fill:none;stroke:#000000"
         transform="translate(295,0)"
         id="path4916"
         inkscape:connector-curvature="0" />
      <path
         d="M -5,-12 -5,9 M 5,-5 -5,5 m 4,-4 7,8"
         style="fill:none;stroke:#000000"
         transform="translate(314,0)"
         id="path4918"
         inkscape:connector-curvature="0" />
      <path
         d="m 6,-2 -1,-2 -3,-1 -3,0 -3,1 -1,2 1,2 2,1 L 3,2 5,3 6,5 6,6 5,8 2,9 -1,9 -4,8 -5,6"
         style="fill:none;stroke:#000000"
         transform="translate(330,0)"
         id="path4920"
         inkscape:connector-curvature="0" />
      <path
         d="m 6,-2 -2,-2 -2,-1 -3,0 -2,1 -2,2 -1,3 0,2 1,3 2,2 2,1 3,0 2,-1 2,-2"
         style="fill:none;stroke:#000000"
         transform="translate(348,0)"
         id="path4922"
         inkscape:connector-curvature="0" />
      <path
         d="M 6,-5 6,9 M 6,-2 4,-4 2,-5 l -3,0 -2,1 -2,2 -1,3 0,2 1,3 2,2 2,1 3,0 2,-1 2,-2"
         style="fill:none;stroke:#000000"
         transform="translate(366,0)"
         id="path4924"
         inkscape:connector-curvature="0" />
      <path
         d="m -6,-5 0,21 m 0,-18 2,-2 2,-1 3,0 2,1 2,2 L 6,1 6,3 5,6 3,8 1,9 -2,9 -4,8 -6,6"
         style="fill:none;stroke:#000000"
         transform="translate(386,0)"
         id="path4926"
         inkscape:connector-curvature="0" />
      <path
         d="M -6,1 6,1 6,-1 5,-3 4,-4 2,-5 l -3,0 -2,1 -2,2 -1,3 0,2 1,3 2,2 2,1 3,0 2,-1 2,-2"
         style="fill:none;stroke:#000000"
         transform="translate(404,0)"
         id="path4928"
         inkscape:connector-curvature="0" />
    </g>
    <g
       id="g5208"
       transform="translate(-124.4726,277.58384)"
       inkscape:label="Hershey Text">
      <path
         id="path5210"
         transform="translate(11,0)"
         style="fill:none;stroke:#000000"
         d="M -7,-12 -7,9 M 7,-12 7,9 M -7,-2 7,-2"
         inkscape:connector-curvature="0" />
      <path
         id="path5212"
         transform="translate(31,0)"
         style="fill:none;stroke:#000000"
         d="M -6,1 6,1 6,-1 5,-3 4,-4 2,-5 l -3,0 -2,1 -2,2 -1,3 0,2 1,3 2,2 2,1 3,0 2,-1 2,-2"
         inkscape:connector-curvature="0" />
      <path
         id="path5214"
         transform="translate(47,0)"
         style="fill:none;stroke:#000000"
         d="m -3,-5 0,14 m 0,-8 1,-3 2,-2 2,-1 3,0"
         inkscape:connector-curvature="0" />
      <path
         id="path5216"
         transform="translate(61,0)"
         style="fill:none;stroke:#000000"
         d="m 6,-2 -1,-2 -3,-1 -3,0 -3,1 -1,2 1,2 2,1 L 3,2 5,3 6,5 6,6 5,8 2,9 -1,9 -4,8 -5,6"
         inkscape:connector-curvature="0" />
      <path
         id="path5218"
         transform="translate(79,0)"
         style="fill:none;stroke:#000000"
         d="m -5,-12 0,21 m 0,-10 3,-3 2,-1 3,0 2,1 1,3 0,10"
         inkscape:connector-curvature="0" />
      <path
         id="path5220"
         transform="translate(98,0)"
         style="fill:none;stroke:#000000"
         d="M -6,1 6,1 6,-1 5,-3 4,-4 2,-5 l -3,0 -2,1 -2,2 -1,3 0,2 1,3 2,2 2,1 3,0 2,-1 2,-2"
         inkscape:connector-curvature="0" />
      <path
         id="path5222"
         transform="translate(115,0)"
         style="fill:none;stroke:#000000"
         d="M -6,-5 0,9 M 6,-5 0,9 l -2,4 -2,2 -2,1 -1,0"
         inkscape:connector-curvature="0" />
      <path
         id="path5224"
         transform="translate(131,0)"
         style="fill:none;stroke:#000000"
         d=""
         inkscape:connector-curvature="0" />
      <path
         id="path5226"
         transform="translate(147,0)"
         style="fill:none;stroke:#000000"
         d="M 0,-12 0,9 m -7,-21 14,0"
         inkscape:connector-curvature="0" />
      <path
         id="path5228"
         transform="translate(164,0)"
         style="fill:none;stroke:#000000"
         d="M -6,1 6,1 6,-1 5,-3 4,-4 2,-5 l -3,0 -2,1 -2,2 -1,3 0,2 1,3 2,2 2,1 3,0 2,-1 2,-2"
         inkscape:connector-curvature="0" />
      <path
         id="path5230"
         transform="translate(181,0)"
         style="fill:none;stroke:#000000"
         d="M -5,-5 6,9 M 6,-5 -5,9"
         inkscape:connector-curvature="0" />
      <path
         id="path5232"
         transform="translate(195,0)"
         style="fill:none;stroke:#000000"
         d="M 0,-12 0,5 1,8 3,9 5,9 m -8,-14 7,0"
         inkscape:connector-curvature="0" />
      <path
         id="path5234"
         transform="translate(210,0)"
         style="fill:none;stroke:#000000"
         d=""
         inkscape:connector-curvature="0" />
      <path
         id="path5236"
         transform="translate(223,0)"
         style="fill:none;stroke:#000000"
         d="m 5,-12 -2,0 -2,1 -1,3 0,17 m -3,-14 7,0"
         inkscape:connector-curvature="0" />
      <path
         id="path5238"
         transform="translate(239,0)"
         style="fill:none;stroke:#000000"
         d="m -1,-5 -2,1 -2,2 -1,3 0,2 1,3 2,2 2,1 L 2,9 4,8 6,6 7,3 7,1 6,-2 4,-4 2,-5 -1,-5"
         inkscape:connector-curvature="0" />
      <path
         id="path5240"
         transform="translate(256,0)"
         style="fill:none;stroke:#000000"
         d="m -3,-5 0,14 m 0,-8 1,-3 2,-2 2,-1 3,0"
         inkscape:connector-curvature="0" />
      <path
         id="path5242"
         transform="translate(270,0)"
         style="fill:none;stroke:#000000"
         d=""
         inkscape:connector-curvature="0" />
      <path
         id="path5244"
         transform="translate(282,0)"
         style="fill:none;stroke:#000000"
         d="M 0,-12 0,9"
         inkscape:connector-curvature="0" />
      <path
         id="path5246"
         transform="translate(295,0)"
         style="fill:none;stroke:#000000"
         d="m -5,-5 0,14 m 0,-10 3,-3 2,-1 3,0 2,1 1,3 0,10"
         inkscape:connector-curvature="0" />
      <path
         id="path5248"
         transform="translate(314,0)"
         style="fill:none;stroke:#000000"
         d="M -5,-12 -5,9 M 5,-5 -5,5 m 4,-4 7,8"
         inkscape:connector-curvature="0" />
      <path
         id="path5250"
         transform="translate(330,0)"
         style="fill:none;stroke:#000000"
         d="m 6,-2 -1,-2 -3,-1 -3,0 -3,1 -1,2 1,2 2,1 L 3,2 5,3 6,5 6,6 5,8 2,9 -1,9 -4,8 -5,6"
         inkscape:connector-curvature="0" />
      <path
         id="path5252"
         transform="translate(348,0)"
         style="fill:none;stroke:#000000"
         d="m 6,-2 -2,-2 -2,-1 -3,0 -2,1 -2,2 -1,3 0,2 1,3 2,2 2,1 3,0 2,-1 2,-2"
         inkscape:connector-curvature="0" />
      <path
         id="path5254"
         transform="translate(366,0)"
         style="fill:none;stroke:#000000"
         d="M 6,-5 6,9 M 6,-2 4,-4 2,-5 l -3,0 -2,1 -2,2 -1,3 0,2 1,3 2,2 2,1 3,0 2,-1 2,-2"
         inkscape:connector-curvature="0" />
      <path
         id="path5256"
         transform="translate(386,0)"
         style="fill:none;stroke:#000000"
         d="m -6,-5 0,21 m 0,-18 2,-2 2,-1 3,0 2,1 2,2 L 6,1 6,3 5,6 3,8 1,9 -2,9 -4,8 -6,6"
         inkscape:connector-curvature="0" />
      <path
         id="path5258"
         transform="translate(404,0)"
         style="fill:none;stroke:#000000"
         d="M -6,1 6,1 6,-1 5,-3 4,-4 2,-5 l -3,0 -2,1 -2,2 -1,3 0,2 1,3 2,2 2,1 3,0 2,-1 2,-2"
         inkscape:connector-curvature="0" />
    </g>
    <g
       inkscape:label="Hershey Text"
       transform="translate(-126.28999,277.58384)"
       id="g5590">
      <path
         d="M -7,-12 -7,9 M 7,-12 7,9 M -7,-2 7,-2"
         style="fill:none;stroke:#000000"
         transform="translate(11,0)"
         id="path5592"
         inkscape:connector-curvature="0" />
      <path
         d="M -6,1 6,1 6,-1 5,-3 4,-4 2,-5 l -3,0 -2,1 -2,2 -1,3 0,2 1,3 2,2 2,1 3,0 2,-1 2,-2"
         style="fill:none;stroke:#000000"
         transform="translate(31,0)"
         id="path5594"
         inkscape:connector-curvature="0" />
      <path
         d="m -3,-5 0,14 m 0,-8 1,-3 2,-2 2,-1 3,0"
         style="fill:none;stroke:#000000"
         transform="translate(47,0)"
         id="path5596"
         inkscape:connector-curvature="0" />
      <path
         d="m 6,-2 -1,-2 -3,-1 -3,0 -3,1 -1,2 1,2 2,1 L 3,2 5,3 6,5 6,6 5,8 2,9 -1,9 -4,8 -5,6"
         style="fill:none;stroke:#000000"
         transform="translate(61,0)"
         id="path5598"
         inkscape:connector-curvature="0" />
      <path
         d="m -5,-12 0,21 m 0,-10 3,-3 2,-1 3,0 2,1 1,3 0,10"
         style="fill:none;stroke:#000000"
         transform="translate(79,0)"
         id="path5600"
         inkscape:connector-curvature="0" />
      <path
         d="M -6,1 6,1 6,-1 5,-3 4,-4 2,-5 l -3,0 -2,1 -2,2 -1,3 0,2 1,3 2,2 2,1 3,0 2,-1 2,-2"
         style="fill:none;stroke:#000000"
         transform="translate(98,0)"
         id="path5602"
         inkscape:connector-curvature="0" />
      <path
         d="M -6,-5 0,9 M 6,-5 0,9 l -2,4 -2,2 -2,1 -1,0"
         style="fill:none;stroke:#000000"
         transform="translate(115,0)"
         id="path5604"
         inkscape:connector-curvature="0" />
      <path
         d=""
         style="fill:none;stroke:#000000"
         transform="translate(131,0)"
         id="path5606"
         inkscape:connector-curvature="0" />
      <path
         d="M 0,-12 0,9 m -7,-21 14,0"
         style="fill:none;stroke:#000000"
         transform="translate(147,0)"
         id="path5608"
         inkscape:connector-curvature="0" />
      <path
         d="M -6,1 6,1 6,-1 5,-3 4,-4 2,-5 l -3,0 -2,1 -2,2 -1,3 0,2 1,3 2,2 2,1 3,0 2,-1 2,-2"
         style="fill:none;stroke:#000000"
         transform="translate(164,0)"
         id="path5610"
         inkscape:connector-curvature="0" />
      <path
         d="M -5,-5 6,9 M 6,-5 -5,9"
         style="fill:none;stroke:#000000"
         transform="translate(181,0)"
         id="path5612"
         inkscape:connector-curvature="0" />
      <path
         d="M 0,-12 0,5 1,8 3,9 5,9 m -8,-14 7,0"
         style="fill:none;stroke:#000000"
         transform="translate(195,0)"
         id="path5614"
         inkscape:connector-curvature="0" />
      <path
         d=""
         style="fill:none;stroke:#000000"
         transform="translate(210,0)"
         id="path5616"
         inkscape:connector-curvature="0" />
      <path
         d="m 5,-12 -2,0 -2,1 -1,3 0,17 m -3,-14 7,0"
         style="fill:none;stroke:#000000"
         transform="translate(223,0)"
         id="path5618"
         inkscape:connector-curvature="0" />
      <path
         d="m -1,-5 -2,1 -2,2 -1,3 0,2 1,3 2,2 2,1 L 2,9 4,8 6,6 7,3 7,1 6,-2 4,-4 2,-5 -1,-5"
         style="fill:none;stroke:#000000"
         transform="translate(239,0)"
         id="path5620"
         inkscape:connector-curvature="0" />
      <path
         d="m -3,-5 0,14 m 0,-8 1,-3 2,-2 2,-1 3,0"
         style="fill:none;stroke:#000000"
         transform="translate(256,0)"
         id="path5622"
         inkscape:connector-curvature="0" />
      <path
         d=""
         style="fill:none;stroke:#000000"
         transform="translate(270,0)"
         id="path5624"
         inkscape:connector-curvature="0" />
      <path
         d="M 0,-12 0,9"
         style="fill:none;stroke:#000000"
         transform="translate(282,0)"
         id="path5626"
         inkscape:connector-curvature="0" />
      <path
         d="m -5,-5 0,14 m 0,-10 3,-3 2,-1 3,0 2,1 1,3 0,10"
         style="fill:none;stroke:#000000"
         transform="translate(295,0)"
         id="path5628"
         inkscape:connector-curvature="0" />
      <path
         d="M -5,-12 -5,9 M 5,-5 -5,5 m 4,-4 7,8"
         style="fill:none;stroke:#000000"
         transform="translate(314,0)"
         id="path5630"
         inkscape:connector-curvature="0" />
      <path
         d="m 6,-2 -1,-2 -3,-1 -3,0 -3,1 -1,2 1,2 2,1 L 3,2 5,3 6,5 6,6 5,8 2,9 -1,9 -4,8 -5,6"
         style="fill:none;stroke:#000000"
         transform="translate(330,0)"
         id="path5632"
         inkscape:connector-curvature="0" />
      <path
         d="m 6,-2 -2,-2 -2,-1 -3,0 -2,1 -2,2 -1,3 0,2 1,3 2,2 2,1 3,0 2,-1 2,-2"
         style="fill:none;stroke:#000000"
         transform="translate(348,0)"
         id="path5634"
         inkscape:connector-curvature="0" />
      <path
         d="M 6,-5 6,9 M 6,-2 4,-4 2,-5 l -3,0 -2,1 -2,2 -1,3 0,2 1,3 2,2 2,1 3,0 2,-1 2,-2"
         style="fill:none;stroke:#000000"
         transform="translate(366,0)"
         id="path5636"
         inkscape:connector-curvature="0" />
      <path
         d="m -6,-5 0,21 m 0,-18 2,-2 2,-1 3,0 2,1 2,2 L 6,1 6,3 5,6 3,8 1,9 -2,9 -4,8 -6,6"
         style="fill:none;stroke:#000000"
         transform="translate(386,0)"
         id="path5638"
         inkscape:connector-curvature="0" />
      <path
         d="M -6,1 6,1 6,-1 5,-3 4,-4 2,-5 l -3,0 -2,1 -2,2 -1,3 0,2 1,3 2,2 2,1 3,0 2,-1 2,-2"
         style="fill:none;stroke:#000000"
         transform="translate(404,0)"
         id="path5640"
         inkscape:connector-curvature="0" />
    </g>
    <g
       id="g6024"
       transform="translate(-126.28999,277.58384)"
       inkscape:label="Hershey Text">
      <path
         id="path6026"
         transform="translate(11,0)"
         style="fill:none;stroke:#000000"
         d="M -7,-12 -7,9 M 7,-12 7,9 M -7,-2 7,-2"
         inkscape:connector-curvature="0" />
      <path
         id="path6028"
         transform="translate(31,0)"
         style="fill:none;stroke:#000000"
         d="M -6,1 6,1 6,-1 5,-3 4,-4 2,-5 l -3,0 -2,1 -2,2 -1,3 0,2 1,3 2,2 2,1 3,0 2,-1 2,-2"
         inkscape:connector-curvature="0" />
      <path
         id="path6030"
         transform="translate(47,0)"
         style="fill:none;stroke:#000000"
         d="m -3,-5 0,14 m 0,-8 1,-3 2,-2 2,-1 3,0"
         inkscape:connector-curvature="0" />
      <path
         id="path6032"
         transform="translate(61,0)"
         style="fill:none;stroke:#000000"
         d="m 6,-2 -1,-2 -3,-1 -3,0 -3,1 -1,2 1,2 2,1 L 3,2 5,3 6,5 6,6 5,8 2,9 -1,9 -4,8 -5,6"
         inkscape:connector-curvature="0" />
      <path
         id="path6034"
         transform="translate(79,0)"
         style="fill:none;stroke:#000000"
         d="m -5,-12 0,21 m 0,-10 3,-3 2,-1 3,0 2,1 1,3 0,10"
         inkscape:connector-curvature="0" />
      <path
         id="path6036"
         transform="translate(98,0)"
         style="fill:none;stroke:#000000"
         d="M -6,1 6,1 6,-1 5,-3 4,-4 2,-5 l -3,0 -2,1 -2,2 -1,3 0,2 1,3 2,2 2,1 3,0 2,-1 2,-2"
         inkscape:connector-curvature="0" />
      <path
         id="path6038"
         transform="translate(115,0)"
         style="fill:none;stroke:#000000"
         d="M -6,-5 0,9 M 6,-5 0,9 l -2,4 -2,2 -2,1 -1,0"
         inkscape:connector-curvature="0" />
      <path
         id="path6040"
         transform="translate(131,0)"
         style="fill:none;stroke:#000000"
         d=""
         inkscape:connector-curvature="0" />
      <path
         id="path6042"
         transform="translate(147,0)"
         style="fill:none;stroke:#000000"
         d="M 0,-12 0,9 m -7,-21 14,0"
         inkscape:connector-curvature="0" />
      <path
         id="path6044"
         transform="translate(164,0)"
         style="fill:none;stroke:#000000"
         d="M -6,1 6,1 6,-1 5,-3 4,-4 2,-5 l -3,0 -2,1 -2,2 -1,3 0,2 1,3 2,2 2,1 3,0 2,-1 2,-2"
         inkscape:connector-curvature="0" />
      <path
         id="path6046"
         transform="translate(181,0)"
         style="fill:none;stroke:#000000"
         d="M -5,-5 6,9 M 6,-5 -5,9"
         inkscape:connector-curvature="0" />
      <path
         id="path6048"
         transform="translate(195,0)"
         style="fill:none;stroke:#000000"
         d="M 0,-12 0,5 1,8 3,9 5,9 m -8,-14 7,0"
         inkscape:connector-curvature="0" />
      <path
         id="path6050"
         transform="translate(210,0)"
         style="fill:none;stroke:#000000"
         d=""
         inkscape:connector-curvature="0" />
      <path
         id="path6052"
         transform="translate(223,0)"
         style="fill:none;stroke:#000000"
         d="m 5,-12 -2,0 -2,1 -1,3 0,17 m -3,-14 7,0"
         inkscape:connector-curvature="0" />
      <path
         id="path6054"
         transform="translate(239,0)"
         style="fill:none;stroke:#000000"
         d="m -1,-5 -2,1 -2,2 -1,3 0,2 1,3 2,2 2,1 L 2,9 4,8 6,6 7,3 7,1 6,-2 4,-4 2,-5 -1,-5"
         inkscape:connector-curvature="0" />
      <path
         id="path6056"
         transform="translate(256,0)"
         style="fill:none;stroke:#000000"
         d="m -3,-5 0,14 m 0,-8 1,-3 2,-2 2,-1 3,0"
         inkscape:connector-curvature="0" />
      <path
         id="path6058"
         transform="translate(270,0)"
         style="fill:none;stroke:#000000"
         d=""
         inkscape:connector-curvature="0" />
      <path
         id="path6060"
         transform="translate(282,0)"
         style="fill:none;stroke:#000000"
         d="M 0,-12 0,9"
         inkscape:connector-curvature="0" />
      <path
         id="path6062"
         transform="translate(295,0)"
         style="fill:none;stroke:#000000"
         d="m -5,-5 0,14 m 0,-10 3,-3 2,-1 3,0 2,1 1,3 0,10"
         inkscape:connector-curvature="0" />
      <path
         id="path6064"
         transform="translate(314,0)"
         style="fill:none;stroke:#000000"
         d="M -5,-12 -5,9 M 5,-5 -5,5 m 4,-4 7,8"
         inkscape:connector-curvature="0" />
      <path
         id="path6066"
         transform="translate(330,0)"
         style="fill:none;stroke:#000000"
         d="m 6,-2 -1,-2 -3,-1 -3,0 -3,1 -1,2 1,2 2,1 L 3,2 5,3 6,5 6,6 5,8 2,9 -1,9 -4,8 -5,6"
         inkscape:connector-curvature="0" />
      <path
         id="path6068"
         transform="translate(348,0)"
         style="fill:none;stroke:#000000"
         d="m 6,-2 -2,-2 -2,-1 -3,0 -2,1 -2,2 -1,3 0,2 1,3 2,2 2,1 3,0 2,-1 2,-2"
         inkscape:connector-curvature="0" />
      <path
         id="path6070"
         transform="translate(366,0)"
         style="fill:none;stroke:#000000"
         d="M 6,-5 6,9 M 6,-2 4,-4 2,-5 l -3,0 -2,1 -2,2 -1,3 0,2 1,3 2,2 2,1 3,0 2,-1 2,-2"
         inkscape:connector-curvature="0" />
      <path
         id="path6072"
         transform="translate(386,0)"
         style="fill:none;stroke:#000000"
         d="m -6,-5 0,21 m 0,-18 2,-2 2,-1 3,0 2,1 2,2 L 6,1 6,3 5,6 3,8 1,9 -2,9 -4,8 -6,6"
         inkscape:connector-curvature="0" />
      <path
         id="path6074"
         transform="translate(404,0)"
         style="fill:none;stroke:#000000"
         d="M -6,1 6,1 6,-1 5,-3 4,-4 2,-5 l -3,0 -2,1 -2,2 -1,3 0,2 1,3 2,2 2,1 3,0 2,-1 2,-2"
         inkscape:connector-curvature="0" />
    </g>
    <g
       id="g4659"
       transform="translate(-6.3337585,16.162441)">
      <path
         id="path12041"
         style="fill:none;stroke:#000000;stroke-width:1"
         d="m 29.001386,951.60157 0.842584,-1.21338 0.842584,-1.61784 m 1.263876,-3.64015 -2.527752,7.28029 0,0.80892 0.421292,0.40446 0.842584,0 0.842584,-0.40446 0.421292,-0.40446 0.842584,-1.21338 m -3.370336,-3.23568 2.949044,0"
         inkscape:connector-curvature="0" />
      <path
         id="path12043"
         style="fill:none;stroke:#000000;stroke-width:1"
         d="m 36.584642,951.19711 -0.421292,-0.80892 -0.842584,-0.40446 -0.842584,0 -0.842584,0.40446 -0.421291,0.40446 -0.421292,0.80892 0,0.80892 0.421292,0.80892 0.842583,0.40446 0.842584,0 0.842584,-0.40446 0.421292,-0.80892 0.842584,-2.42676 -0.421292,2.0223 0,1.21338 0.421292,0.40446 0.421292,0 0.842584,-0.40446 0.421292,-0.40446 0.842584,-1.21338"
         inkscape:connector-curvature="0" />
      <path
         id="path12045"
         style="fill:none;stroke:#000000;stroke-width:1"
         d="m 39.533686,951.60157 0.842584,-1.21338 0.842583,-0.40446 0.421292,0.40446 0,0.40446 -0.421292,1.61784 -0.421292,1.21338 m 0.421292,-1.21338 0.421292,-0.80892 0.842584,-1.21338 0.842584,-0.40446 0.842584,0 0.421292,0.40446 0,0.80892 -0.421292,1.21338 0,0.80892 0.421292,0.40446 0.421292,0 0.842584,-0.40446 0.421292,-0.40446 0.842584,-1.21338"
         inkscape:connector-curvature="0" />
      <path
         id="path12047"
         style="fill:none;stroke:#000000;stroke-width:1"
         d="m 47.11694,951.60157 0.842584,-1.21338 1.263876,-2.0223 0.421292,-0.80892 0.421292,-1.21339 0,-0.80892 -0.421292,-0.40446 -0.842584,0.40446 -0.421292,0.80892 -0.421292,1.61785 -0.421292,2.42676 -0.421292,3.23568 m 0,0 0.421292,-1.21338 0.421292,-0.80892 0.842584,-1.21338 0.842584,-0.40446 0.842584,0 0.421292,0.40446 0,0.80892 -0.842584,0.40446 -1.263876,0 m 0,0 0.842584,0.40446 0.421292,1.21338 0.421292,0.40446 0.421292,0 0.842584,-0.40446 0.421292,-0.40446 0.842584,-1.21338"
         inkscape:connector-curvature="0" />
      <path
         id="path12049"
         style="fill:none;stroke:#000000;stroke-width:1"
         d="m 55.54278,949.98373 -0.842584,0 -0.842584,0.40446 -0.421292,0.40446 -0.421291,0.80892 0,0.80892 0.421291,0.80892 0.842584,0.40446 0.842584,0 0.842584,-0.40446 0.421292,-0.40446 0.421292,-0.80892 0,-0.80892 -0.421292,-0.80892 -0.842584,-0.40446 -0.421292,0.40446 0,0.80892 0.421292,0.80892 0.842584,0.40446 1.263876,0 0.842584,-0.40446 0.421292,-0.40446"
         inkscape:connector-curvature="0" />
      <path
         id="path12051"
         style="fill:none;stroke:#000000;stroke-width:1"
         d="m 58.913116,951.60157 0.842583,-1.61784 -0.842583,2.42676 0,0.80892 0.421291,0.40446 0.842584,0 0.842584,-0.40446 0.842584,-0.80892 0.842584,-1.21338 m 0.421292,-1.21338 -0.842584,2.42676 0,0.80892 0.421292,0.40446 0.421292,0 0.842584,-0.40446 0.421292,-0.40446 0.842584,-1.21338"
         inkscape:connector-curvature="0" />
      <path
         id="path12055"
         style="fill:none;stroke:#000000;stroke-width:1"
         d="m 71.973166,951.60157 0.842584,-1.21338 1.263876,-2.0223 0.421292,-0.80892 0.421292,-1.21339 0,-0.80892 -0.421292,-0.40446 -0.842584,0.40446 -0.421292,0.80892 -0.421292,1.61785 -0.421292,2.83122 0,2.42676 0.421292,0.40446 0.421292,0 0.842584,-0.40446 0.842584,-0.80892 0.421292,-1.21338 0,-1.21338 0.421292,1.61784 0.421292,0.40446 0.842584,0 0.842584,-0.40446"
         inkscape:connector-curvature="0" />
      <path
         id="path12057"
         style="fill:none;stroke:#000000;stroke-width:1"
         d="m 81.662881,951.19711 -0.421292,-0.80892 -0.842584,-0.40446 -0.842584,0 -0.842584,0.40446 -0.421292,0.40446 -0.421291,0.80892 0,0.80892 0.421291,0.80892 0.842584,0.40446 0.842584,0 0.842584,-0.40446 0.421292,-0.80892 0.842584,-2.42676 -0.421292,2.0223 0,1.21338 0.421292,0.40446 0.421292,0 0.842584,-0.40446 0.421292,-0.40446 0.842584,-1.21338"
         inkscape:connector-curvature="0" />
      <path
         id="path12059"
         style="fill:none;stroke:#000000;stroke-width:1"
         d="m 84.611925,951.60157 0.842584,-1.21338 0.842584,-1.61784 m 1.263876,-3.64015 -2.527752,7.28029 0,0.80892 0.421292,0.40446 0.842584,0 0.842584,-0.40446 0.421292,-0.40446 0.842584,-1.21338 m -3.370336,-3.23568 2.949044,0"
         inkscape:connector-curvature="0" />
      <path
         id="path12061"
         style="fill:none;stroke:#000000;stroke-width:1"
         d="m 90.931304,949.98373 -0.842584,0 -0.842584,0.40446 -0.421292,0.40446 -0.421291,0.80892 0,0.80892 0.421291,0.80892 0.842584,0.40446 0.842584,0 0.842584,-0.40446 0.421292,-0.40446 0.421292,-0.80892 0,-0.80892 -0.421292,-0.80892 -0.842584,-0.40446 -0.421292,0.40446 0,0.80892 0.421292,0.80892 0.842584,0.40446 1.263876,0 0.842584,-0.40446 0.421292,-0.40446"
         inkscape:connector-curvature="0" />
    </g>
    <g
       id="g4711"
       transform="translate(-13.192621,28.97326)">
      <path
         inkscape:connector-curvature="0"
         id="path5291"
         style="fill:none;stroke:#000000;stroke-width:1"
         d="m 38.466251,952.73709 0,4.25023 m 0,-2.22631 -0.454278,-0.40479 -0.454278,-0.20239 -0.681416,0 -0.454278,0.20239 -0.454278,0.40479 -0.227139,0.60717 0,0.40479 0.227139,0.60717 0.454278,0.40479 0.454278,0.20239 0.681416,0 0.454278,-0.20239 0.454278,-0.40479" />
      <path
         inkscape:connector-curvature="0"
         id="path5293"
         style="fill:none;stroke:#000000;stroke-width:1"
         d="m 40.056224,955.36818 2.725667,0 0,-0.40478 -0.227139,-0.40478 -0.227139,-0.2024 -0.454278,-0.20239 -0.681416,0 -0.454278,0.20239 -0.454278,0.40479 -0.227139,0.60717 0,0.40479 0.227139,0.60717 0.454278,0.40479 0.454278,0.20239 0.681416,0 0.454278,-0.20239 0.454278,-0.40479" />
      <path
         inkscape:connector-curvature="0"
         id="path5295"
         style="fill:none;stroke:#000000;stroke-width:1"
         d="m 45.734692,952.73709 -0.454278,0 -0.454278,0.20239 -0.227139,0.60718 0,3.44066 m -0.681416,-2.83349 1.589972,0" />
      <path
         inkscape:connector-curvature="0"
         id="path5299"
         style="fill:none;stroke:#000000;stroke-width:1"
         d="m 50.731745,952.73709 0,4.25023 m 0,-2.22631 0.454277,-0.40479 0.454278,-0.20239 0.681417,0 0.454277,0.20239 0.454278,0.40479 0.227139,0.60717 0,0.40479 -0.227139,0.60717 -0.454278,0.40479 -0.454277,0.20239 -0.681417,0 -0.454278,-0.20239 -0.454277,-0.40479" />
      <path
         inkscape:connector-curvature="0"
         id="path5301"
         style="fill:none;stroke:#000000;stroke-width:1"
         d="m 55.955939,954.15383 -0.454278,0.20239 -0.454278,0.40479 -0.227138,0.60717 0,0.40479 0.227138,0.60717 0.454278,0.40479 0.454278,0.20239 0.681416,0 0.454278,-0.20239 0.454278,-0.40479 0.227139,-0.60717 0,-0.40479 -0.227139,-0.60717 -0.454278,-0.40479 -0.454278,-0.20239 -0.681416,0" />
      <path
         inkscape:connector-curvature="0"
         id="path5303"
         style="fill:none;stroke:#000000;stroke-width:1"
         d="m 59.363023,954.15383 0,2.02392 0.227139,0.60718 0.454278,0.20239 0.681417,0 0.454277,-0.20239 0.681417,-0.60718 m 0,-2.02392 0,2.83349" />
      <path
         inkscape:connector-curvature="0"
         id="path5305"
         style="fill:none;stroke:#000000;stroke-width:1"
         d="m 63.678663,952.73709 0,4.25023 m 2.271389,-2.83349 -2.271389,2.02392 m 0.908556,-0.80957 1.589972,1.61914" />
      <path
         inkscape:connector-curvature="0"
         id="path5307"
         style="fill:none;stroke:#000000;stroke-width:1"
         d="m 67.540028,954.55862 4.088499,0 m -4.088499,1.21435 4.088499,0" />
      <path
         inkscape:connector-curvature="0"
         id="path5309"
         style="fill:none;stroke:#000000;stroke-width:1"
         d="m 74.808472,952.73709 -0.454278,0 -0.454277,0.20239 -0.227139,0.60718 0,3.44066 m -0.681417,-2.83349 1.589972,0" />
      <path
         inkscape:connector-curvature="0"
         id="path5311"
         style="fill:none;stroke:#000000;stroke-width:1"
         d="m 77.079859,954.15383 -0.454278,0.20239 -0.454278,0.40479 -0.227138,0.60717 0,0.40479 0.227138,0.60717 0.454278,0.40479 0.454278,0.20239 0.681416,0 0.454278,-0.20239 0.454278,-0.40479 0.227139,-0.60717 0,-0.40479 -0.227139,-0.60717 -0.454278,-0.40479 -0.454278,-0.20239 -0.681416,0" />
      <path
         inkscape:connector-curvature="0"
         id="path5313"
         style="fill:none;stroke:#000000;stroke-width:1"
         d="m 80.486941,954.15383 0,2.83349 m 0,-1.61914 0.227139,-0.60717 0.454278,-0.40479 0.454277,-0.20239 0.681417,0" />
      <path
         inkscape:connector-curvature="0"
         id="path5317"
         style="fill:none;stroke:#000000;stroke-width:1"
         d="m 86.846825,955.36818 2.725666,0 0,-0.40478 -0.227139,-0.40478 -0.227139,-0.2024 -0.454278,-0.20239 -0.681416,0 -0.454278,0.20239 -0.454278,0.40479 -0.227138,0.60717 0,0.40479 0.227138,0.60717 0.454278,0.40479 0.454278,0.20239 0.681416,0 0.454278,-0.20239 0.454278,-0.40479" />
      <path
         inkscape:connector-curvature="0"
         id="path5319"
         style="fill:none;stroke:#000000;stroke-width:1"
         d="m 91.162463,954.15383 0,2.83349 m 0,-2.02392 0.681417,-0.60718 0.454278,-0.20239 0.681416,0 0.454278,0.20239 0.227139,0.60718 0,2.02392" />
      <path
         inkscape:connector-curvature="0"
         id="path5321"
         style="fill:none;stroke:#000000;stroke-width:1"
         d="m 97.976631,952.73709 0,4.25023 m 0,-2.22631 -0.454278,-0.40479 -0.454278,-0.20239 -0.681416,0 -0.454278,0.20239 -0.454278,0.40479 -0.227138,0.60717 0,0.40479 0.227138,0.60717 0.454278,0.40479 0.454278,0.20239 0.681416,0 0.454278,-0.20239 0.454278,-0.40479" />
      <path
         inkscape:connector-curvature="0"
         id="path5323"
         style="fill:none;stroke:#000000;stroke-width:1"
         d="m 102.29227,952.73709 0,4.25023 m 0,-2.22631 -0.45428,-0.40479 -0.45428,-0.20239 -0.68141,0 -0.45428,0.20239 -0.454277,0.40479 -0.227138,0.60717 0,0.40479 0.227138,0.60717 0.454277,0.40479 0.45428,0.20239 0.68141,0 0.45428,-0.20239 0.45428,-0.40479" />
      <path
         inkscape:connector-curvature="0"
         id="path5325"
         style="fill:none;stroke:#000000;stroke-width:1"
         d="m 103.88224,955.36818 2.72567,0 0,-0.40478 -0.22714,-0.40478 -0.22714,-0.2024 -0.45428,-0.20239 -0.68141,0 -0.45428,0.20239 -0.45428,0.40479 -0.22714,0.60717 0,0.40479 0.22714,0.60717 0.45428,0.40479 0.45428,0.20239 0.68141,0 0.45428,-0.20239 0.45428,-0.40479" />
      <path
         inkscape:connector-curvature="0"
         id="path5327"
         style="fill:none;stroke:#000000;stroke-width:1"
         d="m 109.56071,952.73709 -0.45428,0 -0.45427,0.20239 -0.22714,0.60718 0,3.44066 m -0.68142,-2.83349 1.58997,0" />
      <path
         inkscape:connector-curvature="0"
         id="path5329"
         style="fill:none;stroke:#000000;stroke-width:1"
         d="m 110.92355,954.55862 -0.22714,0.20239 0.22714,0.20239 0.22714,-0.20239 -0.22714,-0.20239 m 0.22714,1.61913 -0.22714,0.20239 -0.22714,-0.20239 0.22714,-0.20239 0.22714,0.20239 0,0.40479 -0.45428,0.40478" />
    </g>
  </g>
</svg>
