<?xml version="1.0" encoding="UTF-8" standalone="no"?>
<!-- Created with Inkscape (http://www.inkscape.org/) -->

<svg
   xmlns:dc="http://purl.org/dc/elements/1.1/"
   xmlns:cc="http://creativecommons.org/ns#"
   xmlns:rdf="http://www.w3.org/1999/02/22-rdf-syntax-ns#"
   xmlns:svg="http://www.w3.org/2000/svg"
   xmlns="http://www.w3.org/2000/svg"
   xmlns:sodipodi="http://sodipodi.sourceforge.net/DTD/sodipodi-0.dtd"
   xmlns:inkscape="http://www.inkscape.org/namespaces/inkscape"
   width="74mm"
   height="30mm"
   viewBox="0 0 262.20472 106.29921"
   id="svg2"
   version="1.1"
   inkscape:version="0.91 r13725"
   sodipodi:docname="è.svg">
  <sodipodi:namedview
     id="base"
     pagecolor="#ffffff"
     bordercolor="#666666"
     borderopacity="1.0"
     inkscape:pageopacity="0.0"
     inkscape:pageshadow="2"
     inkscape:zoom="1.979899"
     inkscape:cx="65.793896"
     inkscape:cy="53.347254"
     inkscape:document-units="px"
     inkscape:current-layer="layer1"
     showgrid="false"
     inkscape:window-width="1366"
     inkscape:window-height="669"
     inkscape:window-x="0"
     inkscape:window-y="28"
     inkscape:window-maximized="1" />
  <defs
     id="defs4" />
  <metadata
     id="metadata7">
    <rdf:RDF>
      <cc:Work
         rdf:about="">
        <dc:format>image/svg+xml</dc:format>
        <dc:type
           rdf:resource="http://purl.org/dc/dcmitype/StillImage" />
        <dc:title></dc:title>
      </cc:Work>
    </rdf:RDF>
  </metadata>
  <g
     transform="translate(0,-946.06299)"
     id="layer1"
     inkscape:groupmode="layer"
     inkscape:label="Layer 1">
    <flowRoot
       transform="translate(0,680.31496)"
       style="font-style:normal;font-variant:normal;font-weight:normal;font-stretch:normal;font-size:40px;line-height:100%;font-family:herscheyfutura;-inkscape-font-specification:herscheyfutura;text-align:start;letter-spacing:0px;word-spacing:0px;writing-mode:lr-tb;text-anchor:start;fill:#000000;fill-opacity:1;stroke:none;stroke-width:1px;stroke-linecap:butt;stroke-linejoin:miter;stroke-opacity:1"
       id="flowRoot4136"
       xml:space="preserve"><flowRegion
         id="flowRegion4138"><rect
           style="font-style:normal;font-variant:normal;font-weight:normal;font-stretch:normal;font-family:herscheyfutura;-inkscape-font-specification:herscheyfutura"
           y="99.306053"
           x="32.324883"
           height="274.76151"
           width="383.85797"
           id="rect4140" /></flowRegion><flowPara
         id="flowPara4142" /></flowRoot>    <g
       id="g4200"
       transform="translate(-97.03597,191.24094)"
       inkscape:label="Hershey Text">
      <path
         id="path4202"
         transform="translate(11,0)"
         style="fill:none;stroke:#000000"
         d="M -7,-12 -7,9 M 7,-12 7,9 M -7,-2 7,-2"
         inkscape:connector-curvature="0" />
      <path
         id="path4204"
         transform="translate(31,0)"
         style="fill:none;stroke:#000000"
         d="M -6,1 6,1 6,-1 5,-3 4,-4 2,-5 l -3,0 -2,1 -2,2 -1,3 0,2 1,3 2,2 2,1 3,0 2,-1 2,-2"
         inkscape:connector-curvature="0" />
      <path
         id="path4206"
         transform="translate(47,0)"
         style="fill:none;stroke:#000000"
         d="m -3,-5 0,14 m 0,-8 1,-3 2,-2 2,-1 3,0"
         inkscape:connector-curvature="0" />
      <path
         id="path4208"
         transform="translate(61,0)"
         style="fill:none;stroke:#000000"
         d="m 6,-2 -1,-2 -3,-1 -3,0 -3,1 -1,2 1,2 2,1 L 3,2 5,3 6,5 6,6 5,8 2,9 -1,9 -4,8 -5,6"
         inkscape:connector-curvature="0" />
      <path
         id="path4210"
         transform="translate(79,0)"
         style="fill:none;stroke:#000000"
         d="m -5,-12 0,21 m 0,-10 3,-3 2,-1 3,0 2,1 1,3 0,10"
         inkscape:connector-curvature="0" />
      <path
         id="path4212"
         transform="translate(98,0)"
         style="fill:none;stroke:#000000"
         d="M -6,1 6,1 6,-1 5,-3 4,-4 2,-5 l -3,0 -2,1 -2,2 -1,3 0,2 1,3 2,2 2,1 3,0 2,-1 2,-2"
         inkscape:connector-curvature="0" />
      <path
         id="path4214"
         transform="translate(115,0)"
         style="fill:none;stroke:#000000"
         d="M -6,-5 0,9 M 6,-5 0,9 l -2,4 -2,2 -2,1 -1,0"
         inkscape:connector-curvature="0" />
      <path
         id="path4216"
         transform="translate(131,0)"
         style="fill:none;stroke:#000000"
         d=""
         inkscape:connector-curvature="0" />
      <path
         id="path4218"
         transform="translate(147,0)"
         style="fill:none;stroke:#000000"
         d="M 0,-12 0,9 m -7,-21 14,0"
         inkscape:connector-curvature="0" />
      <path
         id="path4220"
         transform="translate(164,0)"
         style="fill:none;stroke:#000000"
         d="M -6,1 6,1 6,-1 5,-3 4,-4 2,-5 l -3,0 -2,1 -2,2 -1,3 0,2 1,3 2,2 2,1 3,0 2,-1 2,-2"
         inkscape:connector-curvature="0" />
      <path
         id="path4222"
         transform="translate(181,0)"
         style="fill:none;stroke:#000000"
         d="M -5,-5 6,9 M 6,-5 -5,9"
         inkscape:connector-curvature="0" />
      <path
         id="path4224"
         transform="translate(195,0)"
         style="fill:none;stroke:#000000"
         d="M 0,-12 0,5 1,8 3,9 5,9 m -8,-14 7,0"
         inkscape:connector-curvature="0" />
      <path
         id="path4226"
         transform="translate(210,0)"
         style="fill:none;stroke:#000000"
         d=""
         inkscape:connector-curvature="0" />
      <path
         id="path4228"
         transform="translate(223,0)"
         style="fill:none;stroke:#000000"
         d="m 5,-12 -2,0 -2,1 -1,3 0,17 m -3,-14 7,0"
         inkscape:connector-curvature="0" />
      <path
         id="path4230"
         transform="translate(239,0)"
         style="fill:none;stroke:#000000"
         d="m -1,-5 -2,1 -2,2 -1,3 0,2 1,3 2,2 2,1 L 2,9 4,8 6,6 7,3 7,1 6,-2 4,-4 2,-5 -1,-5"
         inkscape:connector-curvature="0" />
      <path
         id="path4232"
         transform="translate(256,0)"
         style="fill:none;stroke:#000000"
         d="m -3,-5 0,14 m 0,-8 1,-3 2,-2 2,-1 3,0"
         inkscape:connector-curvature="0" />
      <path
         id="path4234"
         transform="translate(270,0)"
         style="fill:none;stroke:#000000"
         d=""
         inkscape:connector-curvature="0" />
      <path
         id="path4236"
         transform="translate(282,0)"
         style="fill:none;stroke:#000000"
         d="M 0,-12 0,9"
         inkscape:connector-curvature="0" />
      <path
         id="path4238"
         transform="translate(295,0)"
         style="fill:none;stroke:#000000"
         d="m -5,-5 0,14 m 0,-10 3,-3 2,-1 3,0 2,1 1,3 0,10"
         inkscape:connector-curvature="0" />
      <path
         id="path4240"
         transform="translate(314,0)"
         style="fill:none;stroke:#000000"
         d="M -5,-12 -5,9 M 5,-5 -5,5 m 4,-4 7,8"
         inkscape:connector-curvature="0" />
      <path
         id="path4242"
         transform="translate(330,0)"
         style="fill:none;stroke:#000000"
         d="m 6,-2 -1,-2 -3,-1 -3,0 -3,1 -1,2 1,2 2,1 L 3,2 5,3 6,5 6,6 5,8 2,9 -1,9 -4,8 -5,6"
         inkscape:connector-curvature="0" />
      <path
         id="path4244"
         transform="translate(348,0)"
         style="fill:none;stroke:#000000"
         d="m 6,-2 -2,-2 -2,-1 -3,0 -2,1 -2,2 -1,3 0,2 1,3 2,2 2,1 3,0 2,-1 2,-2"
         inkscape:connector-curvature="0" />
      <path
         id="path4246"
         transform="translate(366,0)"
         style="fill:none;stroke:#000000"
         d="M 6,-5 6,9 M 6,-2 4,-4 2,-5 l -3,0 -2,1 -2,2 -1,3 0,2 1,3 2,2 2,1 3,0 2,-1 2,-2"
         inkscape:connector-curvature="0" />
      <path
         id="path4248"
         transform="translate(386,0)"
         style="fill:none;stroke:#000000"
         d="m -6,-5 0,21 m 0,-18 2,-2 2,-1 3,0 2,1 2,2 L 6,1 6,3 5,6 3,8 1,9 -2,9 -4,8 -6,6"
         inkscape:connector-curvature="0" />
      <path
         id="path4250"
         transform="translate(404,0)"
         style="fill:none;stroke:#000000"
         d="M -6,1 6,1 6,-1 5,-3 4,-4 2,-5 l -3,0 -2,1 -2,2 -1,3 0,2 1,3 2,2 2,1 3,0 2,-1 2,-2"
         inkscape:connector-curvature="0" />
    </g>
    <g
       inkscape:label="Hershey Text"
       transform="translate(-97.03597,191.24094)"
       id="g4374">
      <path
         d="M -7,-12 -7,9 M 7,-12 7,9 M -7,-2 7,-2"
         style="fill:none;stroke:#000000"
         transform="translate(11,0)"
         id="path4376"
         inkscape:connector-curvature="0" />
      <path
         d="M -6,1 6,1 6,-1 5,-3 4,-4 2,-5 l -3,0 -2,1 -2,2 -1,3 0,2 1,3 2,2 2,1 3,0 2,-1 2,-2"
         style="fill:none;stroke:#000000"
         transform="translate(31,0)"
         id="path4378"
         inkscape:connector-curvature="0" />
      <path
         d="m -3,-5 0,14 m 0,-8 1,-3 2,-2 2,-1 3,0"
         style="fill:none;stroke:#000000"
         transform="translate(47,0)"
         id="path4380"
         inkscape:connector-curvature="0" />
      <path
         d="m 6,-2 -1,-2 -3,-1 -3,0 -3,1 -1,2 1,2 2,1 L 3,2 5,3 6,5 6,6 5,8 2,9 -1,9 -4,8 -5,6"
         style="fill:none;stroke:#000000"
         transform="translate(61,0)"
         id="path4382"
         inkscape:connector-curvature="0" />
      <path
         d="m -5,-12 0,21 m 0,-10 3,-3 2,-1 3,0 2,1 1,3 0,10"
         style="fill:none;stroke:#000000"
         transform="translate(79,0)"
         id="path4384"
         inkscape:connector-curvature="0" />
      <path
         d="M -6,1 6,1 6,-1 5,-3 4,-4 2,-5 l -3,0 -2,1 -2,2 -1,3 0,2 1,3 2,2 2,1 3,0 2,-1 2,-2"
         style="fill:none;stroke:#000000"
         transform="translate(98,0)"
         id="path4386"
         inkscape:connector-curvature="0" />
      <path
         d="M -6,-5 0,9 M 6,-5 0,9 l -2,4 -2,2 -2,1 -1,0"
         style="fill:none;stroke:#000000"
         transform="translate(115,0)"
         id="path4388"
         inkscape:connector-curvature="0" />
      <path
         d=""
         style="fill:none;stroke:#000000"
         transform="translate(131,0)"
         id="path4390"
         inkscape:connector-curvature="0" />
      <path
         d="M 0,-12 0,9 m -7,-21 14,0"
         style="fill:none;stroke:#000000"
         transform="translate(147,0)"
         id="path4392"
         inkscape:connector-curvature="0" />
      <path
         d="M -6,1 6,1 6,-1 5,-3 4,-4 2,-5 l -3,0 -2,1 -2,2 -1,3 0,2 1,3 2,2 2,1 3,0 2,-1 2,-2"
         style="fill:none;stroke:#000000"
         transform="translate(164,0)"
         id="path4394"
         inkscape:connector-curvature="0" />
      <path
         d="M -5,-5 6,9 M 6,-5 -5,9"
         style="fill:none;stroke:#000000"
         transform="translate(181,0)"
         id="path4396"
         inkscape:connector-curvature="0" />
      <path
         d="M 0,-12 0,5 1,8 3,9 5,9 m -8,-14 7,0"
         style="fill:none;stroke:#000000"
         transform="translate(195,0)"
         id="path4398"
         inkscape:connector-curvature="0" />
      <path
         d=""
         style="fill:none;stroke:#000000"
         transform="translate(210,0)"
         id="path4400"
         inkscape:connector-curvature="0" />
      <path
         d="m 5,-12 -2,0 -2,1 -1,3 0,17 m -3,-14 7,0"
         style="fill:none;stroke:#000000"
         transform="translate(223,0)"
         id="path4402"
         inkscape:connector-curvature="0" />
      <path
         d="m -1,-5 -2,1 -2,2 -1,3 0,2 1,3 2,2 2,1 L 2,9 4,8 6,6 7,3 7,1 6,-2 4,-4 2,-5 -1,-5"
         style="fill:none;stroke:#000000"
         transform="translate(239,0)"
         id="path4404"
         inkscape:connector-curvature="0" />
      <path
         d="m -3,-5 0,14 m 0,-8 1,-3 2,-2 2,-1 3,0"
         style="fill:none;stroke:#000000"
         transform="translate(256,0)"
         id="path4406"
         inkscape:connector-curvature="0" />
      <path
         d=""
         style="fill:none;stroke:#000000"
         transform="translate(270,0)"
         id="path4408"
         inkscape:connector-curvature="0" />
      <path
         d="M 0,-12 0,9"
         style="fill:none;stroke:#000000"
         transform="translate(282,0)"
         id="path4410"
         inkscape:connector-curvature="0" />
      <path
         d="m -5,-5 0,14 m 0,-10 3,-3 2,-1 3,0 2,1 1,3 0,10"
         style="fill:none;stroke:#000000"
         transform="translate(295,0)"
         id="path4412"
         inkscape:connector-curvature="0" />
      <path
         d="M -5,-12 -5,9 M 5,-5 -5,5 m 4,-4 7,8"
         style="fill:none;stroke:#000000"
         transform="translate(314,0)"
         id="path4414"
         inkscape:connector-curvature="0" />
      <path
         d="m 6,-2 -1,-2 -3,-1 -3,0 -3,1 -1,2 1,2 2,1 L 3,2 5,3 6,5 6,6 5,8 2,9 -1,9 -4,8 -5,6"
         style="fill:none;stroke:#000000"
         transform="translate(330,0)"
         id="path4416"
         inkscape:connector-curvature="0" />
      <path
         d="m 6,-2 -2,-2 -2,-1 -3,0 -2,1 -2,2 -1,3 0,2 1,3 2,2 2,1 3,0 2,-1 2,-2"
         style="fill:none;stroke:#000000"
         transform="translate(348,0)"
         id="path4418"
         inkscape:connector-curvature="0" />
      <path
         d="M 6,-5 6,9 M 6,-2 4,-4 2,-5 l -3,0 -2,1 -2,2 -1,3 0,2 1,3 2,2 2,1 3,0 2,-1 2,-2"
         style="fill:none;stroke:#000000"
         transform="translate(366,0)"
         id="path4420"
         inkscape:connector-curvature="0" />
      <path
         d="m -6,-5 0,21 m 0,-18 2,-2 2,-1 3,0 2,1 2,2 L 6,1 6,3 5,6 3,8 1,9 -2,9 -4,8 -6,6"
         style="fill:none;stroke:#000000"
         transform="translate(386,0)"
         id="path4422"
         inkscape:connector-curvature="0" />
      <path
         d="M -6,1 6,1 6,-1 5,-3 4,-4 2,-5 l -3,0 -2,1 -2,2 -1,3 0,2 1,3 2,2 2,1 3,0 2,-1 2,-2"
         style="fill:none;stroke:#000000"
         transform="translate(404,0)"
         id="path4424"
         inkscape:connector-curvature="0" />
    </g>
    <g
       id="g4600"
       transform="translate(-124.4726,277.58384)"
       inkscape:label="Hershey Text">
      <path
         id="path4602"
         transform="translate(11,0)"
         style="fill:none;stroke:#000000"
         d="M -7,-12 -7,9 M 7,-12 7,9 M -7,-2 7,-2"
         inkscape:connector-curvature="0" />
      <path
         id="path4604"
         transform="translate(31,0)"
         style="fill:none;stroke:#000000"
         d="M -6,1 6,1 6,-1 5,-3 4,-4 2,-5 l -3,0 -2,1 -2,2 -1,3 0,2 1,3 2,2 2,1 3,0 2,-1 2,-2"
         inkscape:connector-curvature="0" />
      <path
         id="path4606"
         transform="translate(47,0)"
         style="fill:none;stroke:#000000"
         d="m -3,-5 0,14 m 0,-8 1,-3 2,-2 2,-1 3,0"
         inkscape:connector-curvature="0" />
      <path
         id="path4608"
         transform="translate(61,0)"
         style="fill:none;stroke:#000000"
         d="m 6,-2 -1,-2 -3,-1 -3,0 -3,1 -1,2 1,2 2,1 L 3,2 5,3 6,5 6,6 5,8 2,9 -1,9 -4,8 -5,6"
         inkscape:connector-curvature="0" />
      <path
         id="path4610"
         transform="translate(79,0)"
         style="fill:none;stroke:#000000"
         d="m -5,-12 0,21 m 0,-10 3,-3 2,-1 3,0 2,1 1,3 0,10"
         inkscape:connector-curvature="0" />
      <path
         id="path4612"
         transform="translate(98,0)"
         style="fill:none;stroke:#000000"
         d="M -6,1 6,1 6,-1 5,-3 4,-4 2,-5 l -3,0 -2,1 -2,2 -1,3 0,2 1,3 2,2 2,1 3,0 2,-1 2,-2"
         inkscape:connector-curvature="0" />
      <path
         id="path4614"
         transform="translate(115,0)"
         style="fill:none;stroke:#000000"
         d="M -6,-5 0,9 M 6,-5 0,9 l -2,4 -2,2 -2,1 -1,0"
         inkscape:connector-curvature="0" />
      <path
         id="path4616"
         transform="translate(131,0)"
         style="fill:none;stroke:#000000"
         d=""
         inkscape:connector-curvature="0" />
      <path
         id="path4618"
         transform="translate(147,0)"
         style="fill:none;stroke:#000000"
         d="M 0,-12 0,9 m -7,-21 14,0"
         inkscape:connector-curvature="0" />
      <path
         id="path4620"
         transform="translate(164,0)"
         style="fill:none;stroke:#000000"
         d="M -6,1 6,1 6,-1 5,-3 4,-4 2,-5 l -3,0 -2,1 -2,2 -1,3 0,2 1,3 2,2 2,1 3,0 2,-1 2,-2"
         inkscape:connector-curvature="0" />
      <path
         id="path4622"
         transform="translate(181,0)"
         style="fill:none;stroke:#000000"
         d="M -5,-5 6,9 M 6,-5 -5,9"
         inkscape:connector-curvature="0" />
      <path
         id="path4624"
         transform="translate(195,0)"
         style="fill:none;stroke:#000000"
         d="M 0,-12 0,5 1,8 3,9 5,9 m -8,-14 7,0"
         inkscape:connector-curvature="0" />
      <path
         id="path4626"
         transform="translate(210,0)"
         style="fill:none;stroke:#000000"
         d=""
         inkscape:connector-curvature="0" />
      <path
         id="path4628"
         transform="translate(223,0)"
         style="fill:none;stroke:#000000"
         d="m 5,-12 -2,0 -2,1 -1,3 0,17 m -3,-14 7,0"
         inkscape:connector-curvature="0" />
      <path
         id="path4630"
         transform="translate(239,0)"
         style="fill:none;stroke:#000000"
         d="m -1,-5 -2,1 -2,2 -1,3 0,2 1,3 2,2 2,1 L 2,9 4,8 6,6 7,3 7,1 6,-2 4,-4 2,-5 -1,-5"
         inkscape:connector-curvature="0" />
      <path
         id="path4632"
         transform="translate(256,0)"
         style="fill:none;stroke:#000000"
         d="m -3,-5 0,14 m 0,-8 1,-3 2,-2 2,-1 3,0"
         inkscape:connector-curvature="0" />
      <path
         id="path4634"
         transform="translate(270,0)"
         style="fill:none;stroke:#000000"
         d=""
         inkscape:connector-curvature="0" />
      <path
         id="path4636"
         transform="translate(282,0)"
         style="fill:none;stroke:#000000"
         d="M 0,-12 0,9"
         inkscape:connector-curvature="0" />
      <path
         id="path4638"
         transform="translate(295,0)"
         style="fill:none;stroke:#000000"
         d="m -5,-5 0,14 m 0,-10 3,-3 2,-1 3,0 2,1 1,3 0,10"
         inkscape:connector-curvature="0" />
      <path
         id="path4640"
         transform="translate(314,0)"
         style="fill:none;stroke:#000000"
         d="M -5,-12 -5,9 M 5,-5 -5,5 m 4,-4 7,8"
         inkscape:connector-curvature="0" />
      <path
         id="path4642"
         transform="translate(330,0)"
         style="fill:none;stroke:#000000"
         d="m 6,-2 -1,-2 -3,-1 -3,0 -3,1 -1,2 1,2 2,1 L 3,2 5,3 6,5 6,6 5,8 2,9 -1,9 -4,8 -5,6"
         inkscape:connector-curvature="0" />
      <path
         id="path4644"
         transform="translate(348,0)"
         style="fill:none;stroke:#000000"
         d="m 6,-2 -2,-2 -2,-1 -3,0 -2,1 -2,2 -1,3 0,2 1,3 2,2 2,1 3,0 2,-1 2,-2"
         inkscape:connector-curvature="0" />
      <path
         id="path4646"
         transform="translate(366,0)"
         style="fill:none;stroke:#000000"
         d="M 6,-5 6,9 M 6,-2 4,-4 2,-5 l -3,0 -2,1 -2,2 -1,3 0,2 1,3 2,2 2,1 3,0 2,-1 2,-2"
         inkscape:connector-curvature="0" />
      <path
         id="path4648"
         transform="translate(386,0)"
         style="fill:none;stroke:#000000"
         d="m -6,-5 0,21 m 0,-18 2,-2 2,-1 3,0 2,1 2,2 L 6,1 6,3 5,6 3,8 1,9 -2,9 -4,8 -6,6"
         inkscape:connector-curvature="0" />
      <path
         id="path4650"
         transform="translate(404,0)"
         style="fill:none;stroke:#000000"
         d="M -6,1 6,1 6,-1 5,-3 4,-4 2,-5 l -3,0 -2,1 -2,2 -1,3 0,2 1,3 2,2 2,1 3,0 2,-1 2,-2"
         inkscape:connector-curvature="0" />
    </g>
    <g
       inkscape:label="Hershey Text"
       transform="translate(-124.4726,277.58384)"
       id="g4878">
      <path
         d="M -7,-12 -7,9 M 7,-12 7,9 M -7,-2 7,-2"
         style="fill:none;stroke:#000000"
         transform="translate(11,0)"
         id="path4880"
         inkscape:connector-curvature="0" />
      <path
         d="M -6,1 6,1 6,-1 5,-3 4,-4 2,-5 l -3,0 -2,1 -2,2 -1,3 0,2 1,3 2,2 2,1 3,0 2,-1 2,-2"
         style="fill:none;stroke:#000000"
         transform="translate(31,0)"
         id="path4882"
         inkscape:connector-curvature="0" />
      <path
         d="m -3,-5 0,14 m 0,-8 1,-3 2,-2 2,-1 3,0"
         style="fill:none;stroke:#000000"
         transform="translate(47,0)"
         id="path4884"
         inkscape:connector-curvature="0" />
      <path
         d="m 6,-2 -1,-2 -3,-1 -3,0 -3,1 -1,2 1,2 2,1 L 3,2 5,3 6,5 6,6 5,8 2,9 -1,9 -4,8 -5,6"
         style="fill:none;stroke:#000000"
         transform="translate(61,0)"
         id="path4886"
         inkscape:connector-curvature="0" />
      <path
         d="m -5,-12 0,21 m 0,-10 3,-3 2,-1 3,0 2,1 1,3 0,10"
         style="fill:none;stroke:#000000"
         transform="translate(79,0)"
         id="path4888"
         inkscape:connector-curvature="0" />
      <path
         d="M -6,1 6,1 6,-1 5,-3 4,-4 2,-5 l -3,0 -2,1 -2,2 -1,3 0,2 1,3 2,2 2,1 3,0 2,-1 2,-2"
         style="fill:none;stroke:#000000"
         transform="translate(98,0)"
         id="path4890"
         inkscape:connector-curvature="0" />
      <path
         d="M -6,-5 0,9 M 6,-5 0,9 l -2,4 -2,2 -2,1 -1,0"
         style="fill:none;stroke:#000000"
         transform="translate(115,0)"
         id="path4892"
         inkscape:connector-curvature="0" />
      <path
         d=""
         style="fill:none;stroke:#000000"
         transform="translate(131,0)"
         id="path4894"
         inkscape:connector-curvature="0" />
      <path
         d="M 0,-12 0,9 m -7,-21 14,0"
         style="fill:none;stroke:#000000"
         transform="translate(147,0)"
         id="path4896"
         inkscape:connector-curvature="0" />
      <path
         d="M -6,1 6,1 6,-1 5,-3 4,-4 2,-5 l -3,0 -2,1 -2,2 -1,3 0,2 1,3 2,2 2,1 3,0 2,-1 2,-2"
         style="fill:none;stroke:#000000"
         transform="translate(164,0)"
         id="path4898"
         inkscape:connector-curvature="0" />
      <path
         d="M -5,-5 6,9 M 6,-5 -5,9"
         style="fill:none;stroke:#000000"
         transform="translate(181,0)"
         id="path4900"
         inkscape:connector-curvature="0" />
      <path
         d="M 0,-12 0,5 1,8 3,9 5,9 m -8,-14 7,0"
         style="fill:none;stroke:#000000"
         transform="translate(195,0)"
         id="path4902"
         inkscape:connector-curvature="0" />
      <path
         d=""
         style="fill:none;stroke:#000000"
         transform="translate(210,0)"
         id="path4904"
         inkscape:connector-curvature="0" />
      <path
         d="m 5,-12 -2,0 -2,1 -1,3 0,17 m -3,-14 7,0"
         style="fill:none;stroke:#000000"
         transform="translate(223,0)"
         id="path4906"
         inkscape:connector-curvature="0" />
      <path
         d="m -1,-5 -2,1 -2,2 -1,3 0,2 1,3 2,2 2,1 L 2,9 4,8 6,6 7,3 7,1 6,-2 4,-4 2,-5 -1,-5"
         style="fill:none;stroke:#000000"
         transform="translate(239,0)"
         id="path4908"
         inkscape:connector-curvature="0" />
      <path
         d="m -3,-5 0,14 m 0,-8 1,-3 2,-2 2,-1 3,0"
         style="fill:none;stroke:#000000"
         transform="translate(256,0)"
         id="path4910"
         inkscape:connector-curvature="0" />
      <path
         d=""
         style="fill:none;stroke:#000000"
         transform="translate(270,0)"
         id="path4912"
         inkscape:connector-curvature="0" />
      <path
         d="M 0,-12 0,9"
         style="fill:none;stroke:#000000"
         transform="translate(282,0)"
         id="path4914"
         inkscape:connector-curvature="0" />
      <path
         d="m -5,-5 0,14 m 0,-10 3,-3 2,-1 3,0 2,1 1,3 0,10"
         style="fill:none;stroke:#000000"
         transform="translate(295,0)"
         id="path4916"
         inkscape:connector-curvature="0" />
      <path
         d="M -5,-12 -5,9 M 5,-5 -5,5 m 4,-4 7,8"
         style="fill:none;stroke:#000000"
         transform="translate(314,0)"
         id="path4918"
         inkscape:connector-curvature="0" />
      <path
         d="m 6,-2 -1,-2 -3,-1 -3,0 -3,1 -1,2 1,2 2,1 L 3,2 5,3 6,5 6,6 5,8 2,9 -1,9 -4,8 -5,6"
         style="fill:none;stroke:#000000"
         transform="translate(330,0)"
         id="path4920"
         inkscape:connector-curvature="0" />
      <path
         d="m 6,-2 -2,-2 -2,-1 -3,0 -2,1 -2,2 -1,3 0,2 1,3 2,2 2,1 3,0 2,-1 2,-2"
         style="fill:none;stroke:#000000"
         transform="translate(348,0)"
         id="path4922"
         inkscape:connector-curvature="0" />
      <path
         d="M 6,-5 6,9 M 6,-2 4,-4 2,-5 l -3,0 -2,1 -2,2 -1,3 0,2 1,3 2,2 2,1 3,0 2,-1 2,-2"
         style="fill:none;stroke:#000000"
         transform="translate(366,0)"
         id="path4924"
         inkscape:connector-curvature="0" />
      <path
         d="m -6,-5 0,21 m 0,-18 2,-2 2,-1 3,0 2,1 2,2 L 6,1 6,3 5,6 3,8 1,9 -2,9 -4,8 -6,6"
         style="fill:none;stroke:#000000"
         transform="translate(386,0)"
         id="path4926"
         inkscape:connector-curvature="0" />
      <path
         d="M -6,1 6,1 6,-1 5,-3 4,-4 2,-5 l -3,0 -2,1 -2,2 -1,3 0,2 1,3 2,2 2,1 3,0 2,-1 2,-2"
         style="fill:none;stroke:#000000"
         transform="translate(404,0)"
         id="path4928"
         inkscape:connector-curvature="0" />
    </g>
    <g
       id="g5208"
       transform="translate(-124.4726,277.58384)"
       inkscape:label="Hershey Text">
      <path
         id="path5210"
         transform="translate(11,0)"
         style="fill:none;stroke:#000000"
         d="M -7,-12 -7,9 M 7,-12 7,9 M -7,-2 7,-2"
         inkscape:connector-curvature="0" />
      <path
         id="path5212"
         transform="translate(31,0)"
         style="fill:none;stroke:#000000"
         d="M -6,1 6,1 6,-1 5,-3 4,-4 2,-5 l -3,0 -2,1 -2,2 -1,3 0,2 1,3 2,2 2,1 3,0 2,-1 2,-2"
         inkscape:connector-curvature="0" />
      <path
         id="path5214"
         transform="translate(47,0)"
         style="fill:none;stroke:#000000"
         d="m -3,-5 0,14 m 0,-8 1,-3 2,-2 2,-1 3,0"
         inkscape:connector-curvature="0" />
      <path
         id="path5216"
         transform="translate(61,0)"
         style="fill:none;stroke:#000000"
         d="m 6,-2 -1,-2 -3,-1 -3,0 -3,1 -1,2 1,2 2,1 L 3,2 5,3 6,5 6,6 5,8 2,9 -1,9 -4,8 -5,6"
         inkscape:connector-curvature="0" />
      <path
         id="path5218"
         transform="translate(79,0)"
         style="fill:none;stroke:#000000"
         d="m -5,-12 0,21 m 0,-10 3,-3 2,-1 3,0 2,1 1,3 0,10"
         inkscape:connector-curvature="0" />
      <path
         id="path5220"
         transform="translate(98,0)"
         style="fill:none;stroke:#000000"
         d="M -6,1 6,1 6,-1 5,-3 4,-4 2,-5 l -3,0 -2,1 -2,2 -1,3 0,2 1,3 2,2 2,1 3,0 2,-1 2,-2"
         inkscape:connector-curvature="0" />
      <path
         id="path5222"
         transform="translate(115,0)"
         style="fill:none;stroke:#000000"
         d="M -6,-5 0,9 M 6,-5 0,9 l -2,4 -2,2 -2,1 -1,0"
         inkscape:connector-curvature="0" />
      <path
         id="path5224"
         transform="translate(131,0)"
         style="fill:none;stroke:#000000"
         d=""
         inkscape:connector-curvature="0" />
      <path
         id="path5226"
         transform="translate(147,0)"
         style="fill:none;stroke:#000000"
         d="M 0,-12 0,9 m -7,-21 14,0"
         inkscape:connector-curvature="0" />
      <path
         id="path5228"
         transform="translate(164,0)"
         style="fill:none;stroke:#000000"
         d="M -6,1 6,1 6,-1 5,-3 4,-4 2,-5 l -3,0 -2,1 -2,2 -1,3 0,2 1,3 2,2 2,1 3,0 2,-1 2,-2"
         inkscape:connector-curvature="0" />
      <path
         id="path5230"
         transform="translate(181,0)"
         style="fill:none;stroke:#000000"
         d="M -5,-5 6,9 M 6,-5 -5,9"
         inkscape:connector-curvature="0" />
      <path
         id="path5232"
         transform="translate(195,0)"
         style="fill:none;stroke:#000000"
         d="M 0,-12 0,5 1,8 3,9 5,9 m -8,-14 7,0"
         inkscape:connector-curvature="0" />
      <path
         id="path5234"
         transform="translate(210,0)"
         style="fill:none;stroke:#000000"
         d=""
         inkscape:connector-curvature="0" />
      <path
         id="path5236"
         transform="translate(223,0)"
         style="fill:none;stroke:#000000"
         d="m 5,-12 -2,0 -2,1 -1,3 0,17 m -3,-14 7,0"
         inkscape:connector-curvature="0" />
      <path
         id="path5238"
         transform="translate(239,0)"
         style="fill:none;stroke:#000000"
         d="m -1,-5 -2,1 -2,2 -1,3 0,2 1,3 2,2 2,1 L 2,9 4,8 6,6 7,3 7,1 6,-2 4,-4 2,-5 -1,-5"
         inkscape:connector-curvature="0" />
      <path
         id="path5240"
         transform="translate(256,0)"
         style="fill:none;stroke:#000000"
         d="m -3,-5 0,14 m 0,-8 1,-3 2,-2 2,-1 3,0"
         inkscape:connector-curvature="0" />
      <path
         id="path5242"
         transform="translate(270,0)"
         style="fill:none;stroke:#000000"
         d=""
         inkscape:connector-curvature="0" />
      <path
         id="path5244"
         transform="translate(282,0)"
         style="fill:none;stroke:#000000"
         d="M 0,-12 0,9"
         inkscape:connector-curvature="0" />
      <path
         id="path5246"
         transform="translate(295,0)"
         style="fill:none;stroke:#000000"
         d="m -5,-5 0,14 m 0,-10 3,-3 2,-1 3,0 2,1 1,3 0,10"
         inkscape:connector-curvature="0" />
      <path
         id="path5248"
         transform="translate(314,0)"
         style="fill:none;stroke:#000000"
         d="M -5,-12 -5,9 M 5,-5 -5,5 m 4,-4 7,8"
         inkscape:connector-curvature="0" />
      <path
         id="path5250"
         transform="translate(330,0)"
         style="fill:none;stroke:#000000"
         d="m 6,-2 -1,-2 -3,-1 -3,0 -3,1 -1,2 1,2 2,1 L 3,2 5,3 6,5 6,6 5,8 2,9 -1,9 -4,8 -5,6"
         inkscape:connector-curvature="0" />
      <path
         id="path5252"
         transform="translate(348,0)"
         style="fill:none;stroke:#000000"
         d="m 6,-2 -2,-2 -2,-1 -3,0 -2,1 -2,2 -1,3 0,2 1,3 2,2 2,1 3,0 2,-1 2,-2"
         inkscape:connector-curvature="0" />
      <path
         id="path5254"
         transform="translate(366,0)"
         style="fill:none;stroke:#000000"
         d="M 6,-5 6,9 M 6,-2 4,-4 2,-5 l -3,0 -2,1 -2,2 -1,3 0,2 1,3 2,2 2,1 3,0 2,-1 2,-2"
         inkscape:connector-curvature="0" />
      <path
         id="path5256"
         transform="translate(386,0)"
         style="fill:none;stroke:#000000"
         d="m -6,-5 0,21 m 0,-18 2,-2 2,-1 3,0 2,1 2,2 L 6,1 6,3 5,6 3,8 1,9 -2,9 -4,8 -6,6"
         inkscape:connector-curvature="0" />
      <path
         id="path5258"
         transform="translate(404,0)"
         style="fill:none;stroke:#000000"
         d="M -6,1 6,1 6,-1 5,-3 4,-4 2,-5 l -3,0 -2,1 -2,2 -1,3 0,2 1,3 2,2 2,1 3,0 2,-1 2,-2"
         inkscape:connector-curvature="0" />
    </g>
    <g
       inkscape:label="Hershey Text"
       transform="translate(-126.28999,277.58384)"
       id="g5590">
      <path
         d="M -7,-12 -7,9 M 7,-12 7,9 M -7,-2 7,-2"
         style="fill:none;stroke:#000000"
         transform="translate(11,0)"
         id="path5592"
         inkscape:connector-curvature="0" />
      <path
         d="M -6,1 6,1 6,-1 5,-3 4,-4 2,-5 l -3,0 -2,1 -2,2 -1,3 0,2 1,3 2,2 2,1 3,0 2,-1 2,-2"
         style="fill:none;stroke:#000000"
         transform="translate(31,0)"
         id="path5594"
         inkscape:connector-curvature="0" />
      <path
         d="m -3,-5 0,14 m 0,-8 1,-3 2,-2 2,-1 3,0"
         style="fill:none;stroke:#000000"
         transform="translate(47,0)"
         id="path5596"
         inkscape:connector-curvature="0" />
      <path
         d="m 6,-2 -1,-2 -3,-1 -3,0 -3,1 -1,2 1,2 2,1 L 3,2 5,3 6,5 6,6 5,8 2,9 -1,9 -4,8 -5,6"
         style="fill:none;stroke:#000000"
         transform="translate(61,0)"
         id="path5598"
         inkscape:connector-curvature="0" />
      <path
         d="m -5,-12 0,21 m 0,-10 3,-3 2,-1 3,0 2,1 1,3 0,10"
         style="fill:none;stroke:#000000"
         transform="translate(79,0)"
         id="path5600"
         inkscape:connector-curvature="0" />
      <path
         d="M -6,1 6,1 6,-1 5,-3 4,-4 2,-5 l -3,0 -2,1 -2,2 -1,3 0,2 1,3 2,2 2,1 3,0 2,-1 2,-2"
         style="fill:none;stroke:#000000"
         transform="translate(98,0)"
         id="path5602"
         inkscape:connector-curvature="0" />
      <path
         d="M -6,-5 0,9 M 6,-5 0,9 l -2,4 -2,2 -2,1 -1,0"
         style="fill:none;stroke:#000000"
         transform="translate(115,0)"
         id="path5604"
         inkscape:connector-curvature="0" />
      <path
         d=""
         style="fill:none;stroke:#000000"
         transform="translate(131,0)"
         id="path5606"
         inkscape:connector-curvature="0" />
      <path
         d="M 0,-12 0,9 m -7,-21 14,0"
         style="fill:none;stroke:#000000"
         transform="translate(147,0)"
         id="path5608"
         inkscape:connector-curvature="0" />
      <path
         d="M -6,1 6,1 6,-1 5,-3 4,-4 2,-5 l -3,0 -2,1 -2,2 -1,3 0,2 1,3 2,2 2,1 3,0 2,-1 2,-2"
         style="fill:none;stroke:#000000"
         transform="translate(164,0)"
         id="path5610"
         inkscape:connector-curvature="0" />
      <path
         d="M -5,-5 6,9 M 6,-5 -5,9"
         style="fill:none;stroke:#000000"
         transform="translate(181,0)"
         id="path5612"
         inkscape:connector-curvature="0" />
      <path
         d="M 0,-12 0,5 1,8 3,9 5,9 m -8,-14 7,0"
         style="fill:none;stroke:#000000"
         transform="translate(195,0)"
         id="path5614"
         inkscape:connector-curvature="0" />
      <path
         d=""
         style="fill:none;stroke:#000000"
         transform="translate(210,0)"
         id="path5616"
         inkscape:connector-curvature="0" />
      <path
         d="m 5,-12 -2,0 -2,1 -1,3 0,17 m -3,-14 7,0"
         style="fill:none;stroke:#000000"
         transform="translate(223,0)"
         id="path5618"
         inkscape:connector-curvature="0" />
      <path
         d="m -1,-5 -2,1 -2,2 -1,3 0,2 1,3 2,2 2,1 L 2,9 4,8 6,6 7,3 7,1 6,-2 4,-4 2,-5 -1,-5"
         style="fill:none;stroke:#000000"
         transform="translate(239,0)"
         id="path5620"
         inkscape:connector-curvature="0" />
      <path
         d="m -3,-5 0,14 m 0,-8 1,-3 2,-2 2,-1 3,0"
         style="fill:none;stroke:#000000"
         transform="translate(256,0)"
         id="path5622"
         inkscape:connector-curvature="0" />
      <path
         d=""
         style="fill:none;stroke:#000000"
         transform="translate(270,0)"
         id="path5624"
         inkscape:connector-curvature="0" />
      <path
         d="M 0,-12 0,9"
         style="fill:none;stroke:#000000"
         transform="translate(282,0)"
         id="path5626"
         inkscape:connector-curvature="0" />
      <path
         d="m -5,-5 0,14 m 0,-10 3,-3 2,-1 3,0 2,1 1,3 0,10"
         style="fill:none;stroke:#000000"
         transform="translate(295,0)"
         id="path5628"
         inkscape:connector-curvature="0" />
      <path
         d="M -5,-12 -5,9 M 5,-5 -5,5 m 4,-4 7,8"
         style="fill:none;stroke:#000000"
         transform="translate(314,0)"
         id="path5630"
         inkscape:connector-curvature="0" />
      <path
         d="m 6,-2 -1,-2 -3,-1 -3,0 -3,1 -1,2 1,2 2,1 L 3,2 5,3 6,5 6,6 5,8 2,9 -1,9 -4,8 -5,6"
         style="fill:none;stroke:#000000"
         transform="translate(330,0)"
         id="path5632"
         inkscape:connector-curvature="0" />
      <path
         d="m 6,-2 -2,-2 -2,-1 -3,0 -2,1 -2,2 -1,3 0,2 1,3 2,2 2,1 3,0 2,-1 2,-2"
         style="fill:none;stroke:#000000"
         transform="translate(348,0)"
         id="path5634"
         inkscape:connector-curvature="0" />
      <path
         d="M 6,-5 6,9 M 6,-2 4,-4 2,-5 l -3,0 -2,1 -2,2 -1,3 0,2 1,3 2,2 2,1 3,0 2,-1 2,-2"
         style="fill:none;stroke:#000000"
         transform="translate(366,0)"
         id="path5636"
         inkscape:connector-curvature="0" />
      <path
         d="m -6,-5 0,21 m 0,-18 2,-2 2,-1 3,0 2,1 2,2 L 6,1 6,3 5,6 3,8 1,9 -2,9 -4,8 -6,6"
         style="fill:none;stroke:#000000"
         transform="translate(386,0)"
         id="path5638"
         inkscape:connector-curvature="0" />
      <path
         d="M -6,1 6,1 6,-1 5,-3 4,-4 2,-5 l -3,0 -2,1 -2,2 -1,3 0,2 1,3 2,2 2,1 3,0 2,-1 2,-2"
         style="fill:none;stroke:#000000"
         transform="translate(404,0)"
         id="path5640"
         inkscape:connector-curvature="0" />
    </g>
    <g
       id="g6024"
       transform="translate(-126.28999,277.58384)"
       inkscape:label="Hershey Text">
      <path
         id="path6026"
         transform="translate(11,0)"
         style="fill:none;stroke:#000000"
         d="M -7,-12 -7,9 M 7,-12 7,9 M -7,-2 7,-2"
         inkscape:connector-curvature="0" />
      <path
         id="path6028"
         transform="translate(31,0)"
         style="fill:none;stroke:#000000"
         d="M -6,1 6,1 6,-1 5,-3 4,-4 2,-5 l -3,0 -2,1 -2,2 -1,3 0,2 1,3 2,2 2,1 3,0 2,-1 2,-2"
         inkscape:connector-curvature="0" />
      <path
         id="path6030"
         transform="translate(47,0)"
         style="fill:none;stroke:#000000"
         d="m -3,-5 0,14 m 0,-8 1,-3 2,-2 2,-1 3,0"
         inkscape:connector-curvature="0" />
      <path
         id="path6032"
         transform="translate(61,0)"
         style="fill:none;stroke:#000000"
         d="m 6,-2 -1,-2 -3,-1 -3,0 -3,1 -1,2 1,2 2,1 L 3,2 5,3 6,5 6,6 5,8 2,9 -1,9 -4,8 -5,6"
         inkscape:connector-curvature="0" />
      <path
         id="path6034"
         transform="translate(79,0)"
         style="fill:none;stroke:#000000"
         d="m -5,-12 0,21 m 0,-10 3,-3 2,-1 3,0 2,1 1,3 0,10"
         inkscape:connector-curvature="0" />
      <path
         id="path6036"
         transform="translate(98,0)"
         style="fill:none;stroke:#000000"
         d="M -6,1 6,1 6,-1 5,-3 4,-4 2,-5 l -3,0 -2,1 -2,2 -1,3 0,2 1,3 2,2 2,1 3,0 2,-1 2,-2"
         inkscape:connector-curvature="0" />
      <path
         id="path6038"
         transform="translate(115,0)"
         style="fill:none;stroke:#000000"
         d="M -6,-5 0,9 M 6,-5 0,9 l -2,4 -2,2 -2,1 -1,0"
         inkscape:connector-curvature="0" />
      <path
         id="path6040"
         transform="translate(131,0)"
         style="fill:none;stroke:#000000"
         d=""
         inkscape:connector-curvature="0" />
      <path
         id="path6042"
         transform="translate(147,0)"
         style="fill:none;stroke:#000000"
         d="M 0,-12 0,9 m -7,-21 14,0"
         inkscape:connector-curvature="0" />
      <path
         id="path6044"
         transform="translate(164,0)"
         style="fill:none;stroke:#000000"
         d="M -6,1 6,1 6,-1 5,-3 4,-4 2,-5 l -3,0 -2,1 -2,2 -1,3 0,2 1,3 2,2 2,1 3,0 2,-1 2,-2"
         inkscape:connector-curvature="0" />
      <path
         id="path6046"
         transform="translate(181,0)"
         style="fill:none;stroke:#000000"
         d="M -5,-5 6,9 M 6,-5 -5,9"
         inkscape:connector-curvature="0" />
      <path
         id="path6048"
         transform="translate(195,0)"
         style="fill:none;stroke:#000000"
         d="M 0,-12 0,5 1,8 3,9 5,9 m -8,-14 7,0"
         inkscape:connector-curvature="0" />
      <path
         id="path6050"
         transform="translate(210,0)"
         style="fill:none;stroke:#000000"
         d=""
         inkscape:connector-curvature="0" />
      <path
         id="path6052"
         transform="translate(223,0)"
         style="fill:none;stroke:#000000"
         d="m 5,-12 -2,0 -2,1 -1,3 0,17 m -3,-14 7,0"
         inkscape:connector-curvature="0" />
      <path
         id="path6054"
         transform="translate(239,0)"
         style="fill:none;stroke:#000000"
         d="m -1,-5 -2,1 -2,2 -1,3 0,2 1,3 2,2 2,1 L 2,9 4,8 6,6 7,3 7,1 6,-2 4,-4 2,-5 -1,-5"
         inkscape:connector-curvature="0" />
      <path
         id="path6056"
         transform="translate(256,0)"
         style="fill:none;stroke:#000000"
         d="m -3,-5 0,14 m 0,-8 1,-3 2,-2 2,-1 3,0"
         inkscape:connector-curvature="0" />
      <path
         id="path6058"
         transform="translate(270,0)"
         style="fill:none;stroke:#000000"
         d=""
         inkscape:connector-curvature="0" />
      <path
         id="path6060"
         transform="translate(282,0)"
         style="fill:none;stroke:#000000"
         d="M 0,-12 0,9"
         inkscape:connector-curvature="0" />
      <path
         id="path6062"
         transform="translate(295,0)"
         style="fill:none;stroke:#000000"
         d="m -5,-5 0,14 m 0,-10 3,-3 2,-1 3,0 2,1 1,3 0,10"
         inkscape:connector-curvature="0" />
      <path
         id="path6064"
         transform="translate(314,0)"
         style="fill:none;stroke:#000000"
         d="M -5,-12 -5,9 M 5,-5 -5,5 m 4,-4 7,8"
         inkscape:connector-curvature="0" />
      <path
         id="path6066"
         transform="translate(330,0)"
         style="fill:none;stroke:#000000"
         d="m 6,-2 -1,-2 -3,-1 -3,0 -3,1 -1,2 1,2 2,1 L 3,2 5,3 6,5 6,6 5,8 2,9 -1,9 -4,8 -5,6"
         inkscape:connector-curvature="0" />
      <path
         id="path6068"
         transform="translate(348,0)"
         style="fill:none;stroke:#000000"
         d="m 6,-2 -2,-2 -2,-1 -3,0 -2,1 -2,2 -1,3 0,2 1,3 2,2 2,1 3,0 2,-1 2,-2"
         inkscape:connector-curvature="0" />
      <path
         id="path6070"
         transform="translate(366,0)"
         style="fill:none;stroke:#000000"
         d="M 6,-5 6,9 M 6,-2 4,-4 2,-5 l -3,0 -2,1 -2,2 -1,3 0,2 1,3 2,2 2,1 3,0 2,-1 2,-2"
         inkscape:connector-curvature="0" />
      <path
         id="path6072"
         transform="translate(386,0)"
         style="fill:none;stroke:#000000"
         d="m -6,-5 0,21 m 0,-18 2,-2 2,-1 3,0 2,1 2,2 L 6,1 6,3 5,6 3,8 1,9 -2,9 -4,8 -6,6"
         inkscape:connector-curvature="0" />
      <path
         id="path6074"
         transform="translate(404,0)"
         style="fill:none;stroke:#000000"
         d="M -6,1 6,1 6,-1 5,-3 4,-4 2,-5 l -3,0 -2,1 -2,2 -1,3 0,2 1,3 2,2 2,1 3,0 2,-1 2,-2"
         inkscape:connector-curvature="0" />
    </g>
    <g
       id="g4427"
       transform="translate(3.9143411,10.85914)">
      <path
         id="path12121"
         style="fill:none;stroke:#000000;stroke-width:1"
         d="m 18.69949,956.90487 0.842584,-1.21338 0.842584,-1.61784 m 1.263876,-3.64015 -2.527752,7.28029 0,0.80892 0.421292,0.40446 0.842584,0 0.842584,-0.40446 0.421292,-0.40446 0.842584,-1.21338 m -3.370336,-3.23568 2.949044,0"
         inkscape:connector-curvature="0" />
      <path
         id="path12123"
         style="fill:none;stroke:#000000;stroke-width:1"
         d="m 26.282742,956.50041 -0.421292,-0.80892 -0.842584,-0.40446 -0.842584,0 -0.842584,0.40446 -0.421291,0.40446 -0.421292,0.80892 0,0.80892 0.421292,0.80892 0.842583,0.40446 0.842584,0 0.842584,-0.40446 0.421292,-0.80892 0.842584,-2.42676 -0.421292,2.0223 0,1.21338 0.421292,0.40446 0.421292,0 0.842584,-0.40446 0.421292,-0.40446 0.842584,-1.21338"
         inkscape:connector-curvature="0" />
      <path
         id="path12125"
         style="fill:none;stroke:#000000;stroke-width:1"
         d="m 29.231791,956.90487 0.842584,-1.21338 0.842583,-0.40446 0.421292,0.40446 0,0.40446 -0.421292,1.61784 -0.421292,1.21338 m 0.421292,-1.21338 0.421292,-0.80892 0.842584,-1.21338 0.842584,-0.40446 0.842584,0 0.421292,0.40446 0,0.80892 -0.421292,1.21338 0,0.80892 0.421292,0.40446 0.421292,0 0.842584,-0.40446 0.421292,-0.40446 0.842584,-1.21338"
         inkscape:connector-curvature="0" />
      <path
         id="path12127"
         style="fill:none;stroke:#000000;stroke-width:1"
         d="m 36.815046,956.90487 0.842584,-1.21338 1.263876,-2.0223 0.421292,-0.80892 0.421292,-1.21339 0,-0.80892 -0.421292,-0.40446 -0.842584,0.40446 -0.421292,0.80892 -0.421292,1.61785 -0.421292,2.42676 -0.421292,3.23568 m 0,0 0.421292,-1.21338 0.421292,-0.80892 0.842584,-1.21338 0.842584,-0.40446 0.842584,0 0.421292,0.40446 0,0.80892 -0.842584,0.40446 -1.263876,0 m 0,0 0.842584,0.40446 0.421292,1.21338 0.421292,0.40446 0.421292,0 0.842584,-0.40446 0.421292,-0.40446 0.842584,-1.21338"
         inkscape:connector-curvature="0" />
      <path
         id="path12129"
         style="fill:none;stroke:#000000;stroke-width:1"
         d="m 45.240886,955.28703 -0.842584,0 -0.842584,0.40446 -0.421292,0.40446 -0.421291,0.80892 0,0.80892 0.421291,0.80892 0.842584,0.40446 0.842584,0 0.842584,-0.40446 0.421292,-0.40446 0.421292,-0.80892 0,-0.80892 -0.421292,-0.80892 -0.842584,-0.40446 -0.421292,0.40446 0,0.80892 0.421292,0.80892 0.842584,0.40446 1.263876,0 0.842584,-0.40446 0.421292,-0.40446"
         inkscape:connector-curvature="0" />
      <path
         id="path12131"
         style="fill:none;stroke:#000000;stroke-width:1"
         d="m 48.611215,956.90487 0.842583,-1.61784 -0.842583,2.42676 0,0.80892 0.421291,0.40446 0.842584,0 0.842584,-0.40446 0.842584,-0.80892 0.842584,-1.21338 m 0.421292,-1.21338 -0.842584,2.42676 0,0.80892 0.421292,0.40446 0.421292,0 0.842584,-0.40446 0.421292,-0.40446 0.842584,-1.21338"
         inkscape:connector-curvature="0" />
      <path
         id="path12135"
         style="fill:none;stroke:#000000;stroke-width:1"
         d="m 70.518402,956.50041 -0.421292,-0.80892 -0.842584,-0.40446 -0.842584,0 -0.842584,0.40446 -0.421292,0.40446 -0.421291,0.80892 0,0.80892 0.421291,0.80892 0.842584,0.40446 0.842584,0 0.842584,-0.40446 0.421292,-0.80892 2.527752,-7.28029 m -1.685168,4.85353 -0.421292,2.0223 0,1.21338 0.421292,0.40446 0.421292,0 0.842584,-0.40446 0.421292,-0.40446 0.842584,-1.21338"
         inkscape:connector-curvature="0" />
      <path
         id="path12137"
         style="fill:none;stroke:#000000;stroke-width:1"
         d="m 73.88873,958.11825 0.842584,-0.40446 0.421292,-0.40446 0.421292,-0.80892 0,-0.80892 -0.421292,-0.40446 -0.421292,0 -0.842584,0.40446 -0.421292,0.80892 0,1.21338 0.421292,0.80892 0.842584,0.40446 0.842584,0 0.842584,-0.40446 0.421292,-0.40446 0.842584,-1.21338"
         inkscape:connector-curvature="0" />
      <path
         id="path12139"
         style="fill:none;stroke:#000000;stroke-width:1"
         d="m 77.680366,956.90487 0.842584,-1.21338 1.263876,-2.0223 0.421292,-0.80892 0.421292,-1.21339 0,-0.80892 -0.421292,-0.40446 -0.842584,0.40446 -0.421292,0.80892 -0.421292,1.61785 -0.421292,2.42676 -0.421292,3.23568 m 0,0 0.421292,-1.21338 0.421292,-0.80892 0.842584,-1.21338 0.842584,-0.40446 0.842584,0 0.421292,0.40446 0,0.80892 -0.842584,0.40446 -1.263876,0 m 0,0 0.842584,0.40446 0.421292,1.21338 0.421292,0.40446 0.421292,0 0.842584,-0.40446 0.421292,-0.40446 0.842584,-1.21338"
         inkscape:connector-curvature="0" />
    </g>
    <g
       id="g4446"
       transform="translate(2.0203051,-2.5253814)">
      <path
         sodipodi:nodetypes="cscc"
         inkscape:connector-curvature="0"
         id="path4404-6"
         d="m 64.621911,964.33604 c -0.0186,0.3345 0.0066,1.0628 0.184992,1.6569 0.124661,0.4151 0.324135,0.7646 0.635759,0.8684 0.75761,0.2526 1.54679,-0.2841 1.6415,-0.5682"
         style="fill:none;fill-rule:evenodd;stroke:#000000;stroke-width:1px;stroke-linecap:butt;stroke-linejoin:miter;stroke-opacity:1" />
      <path
         id="path12137-3"
         style="fill:none;stroke:#000000;stroke-width:1"
         d="m 64.777016,971.67443 0.842584,-0.40446 0.421292,-0.40446 0.421292,-0.80892 0,-0.80892 -0.421292,-0.40446 -0.421292,0 -0.842584,0.40446 -0.421292,0.80892 0,1.21338 0.421292,0.80892 0.842584,0.40446 0.842584,0 0.842584,-0.40446 0.421292,-0.40446 0.842583,-1.21338"
         inkscape:connector-curvature="0" />
    </g>
  </g>
</svg>
