<?xml version="1.0"?>
<!-- Created by MetaPost 1.9991 on 2017.11.21:1952 -->
<svg version="1.1" xmlns="http://www.w3.org/2000/svg" xmlns:xlink="http://www.w3.org/1999/xlink" width="503.000000" height="1003.000000" viewBox="0 0 503.000000 1003.000000">
<!-- Original BoundingBox: -1.500000 -1.500000 501.500000 1001.500000 -->
  <path d="M-0.500000 1002.500000L2.500000 1002.500000L2.500000 999.500000L2.500000 499.500000L2.500000 502.500000L502.500000 502.500000L499.500000 502.500000L499.500000 1002.500000L499.500000 999.500000L-0.500000 999.500000L-0.500000 1002.500000L2.500000 1002.500000L502.500000 1002.500000L502.500000 999.500000L502.500000 499.500000L499.500000 499.500000L-0.500000 499.500000L-0.500000 502.500000Z" style="fill: rgb(0.000000%,0.000000%,0.000000%);stroke: none;"></path>
  <path d="M-0.500000 499.500000L-0.500000 502.500000L2.500000 502.500000L252.500000 2.500000L249.500000 2.500000L499.500000 502.500000L499.500000 499.500000L-0.500000 499.500000L-0.500000 502.500000L2.500000 502.500000L502.500000 502.500000L502.500000 499.500000L252.500000 -0.500000L249.500000 -0.500000Z" style="fill: rgb(0.000000%,0.000000%,0.000000%);stroke: none;"></path>
  <path d="M244.500000 999.500000L244.500000 1002.500000L247.500000 1002.500000L257.500000 1002.500000L257.500000 999.500000L257.500000 749.500000L254.500000 749.500000L244.500000 749.500000L244.500000 752.500000L244.500000 1002.500000L247.500000 1002.500000L247.500000 999.500000L247.500000 749.500000L247.500000 752.500000L257.500000 752.500000L254.500000 752.500000L254.500000 1002.500000L254.500000 999.500000Z" style="fill: rgb(0.000000%,0.000000%,0.000000%);stroke: none;"></path>
</svg>
