<?xml version="1.0"?>
<!-- Created by MetaPost 1.9991 on 2017.11.22:1030 -->
<svg version="1.1" xmlns="http://www.w3.org/2000/svg" xmlns:xlink="http://www.w3.org/1999/xlink" width="1008.981339" height="614.335190" viewBox="0 0 1008.981339 614.335190">
<!-- Original BoundingBox: -4.981339 -4.914825 1004.000000 609.420364 -->
  <path d="M34.000000 609.000000L14.000000 569.000000C177.197281 577.213043,340.603516 580.547867,504.000000 579.000000C670.831268 577.419586,837.575500 570.749817,1004.000000 559.000000L994.000000 609.000000Z" style="stroke:rgb(100.000000%,0.000000%,0.000000%); stroke-width: 8.000000;stroke-linecap: round;stroke-linejoin: round;stroke-miterlimit: 10.000000;fill: none;"></path>
  <path d="M504.000000 579.000000L504.000000 9.000000L1004.000000 519.000000L14.000000 519.000000L504.000000 9.000000" style="stroke:rgb(0.000000%,0.000000%,100.000000%); stroke-width: 8.000000;stroke-linecap: round;stroke-linejoin: round;stroke-miterlimit: 10.000000;fill: none;"></path>
  <g transform="translate(31.509323 606.000000)" style="fill: rgb(0.000000%,0.000000%,0.000000%);">
    <text font-size="9.962646">1</text>
  </g>
  <path d="M34.000000 609.000000l0 0" style="stroke:rgb(0.000000%,0.000000%,0.000000%); stroke-width: 3.000000;stroke-linecap: round;stroke-linejoin: round;stroke-miterlimit: 10.000000;fill: none;"></path>
  <g transform="translate(11.509323 566.000000)" style="fill: rgb(0.000000%,0.000000%,0.000000%);">
    <text font-size="9.962646">2</text>
  </g>
  <path d="M14.000000 569.000000l0 0" style="stroke:rgb(0.000000%,0.000000%,0.000000%); stroke-width: 3.000000;stroke-linecap: round;stroke-linejoin: round;stroke-miterlimit: 10.000000;fill: none;"></path>
  <g transform="translate(501.509323 576.000000)" style="fill: rgb(0.000000%,0.000000%,0.000000%);">
    <text font-size="9.962646">3</text>
  </g>
  <path d="M504.000000 579.000000l0 0" style="stroke:rgb(0.000000%,0.000000%,0.000000%); stroke-width: 3.000000;stroke-linecap: round;stroke-linejoin: round;stroke-miterlimit: 10.000000;fill: none;"></path>
  <g transform="translate(1001.509323 556.000000)" style="fill: rgb(0.000000%,0.000000%,0.000000%);">
    <text font-size="9.962646">4</text>
  </g>
  <path d="M1004.000000 559.000000l0 0" style="stroke:rgb(0.000000%,0.000000%,0.000000%); stroke-width: 3.000000;stroke-linecap: round;stroke-linejoin: round;stroke-miterlimit: 10.000000;fill: none;"></path>
  <g transform="translate(991.509323 606.000000)" style="fill: rgb(0.000000%,0.000000%,0.000000%);">
    <text font-size="9.962646">5</text>
  </g>
  <path d="M994.000000 609.000000l0 0" style="stroke:rgb(0.000000%,0.000000%,0.000000%); stroke-width: 3.000000;stroke-linecap: round;stroke-linejoin: round;stroke-miterlimit: 10.000000;fill: none;"></path>
  <g transform="translate(31.509323 596.000000)" style="fill: rgb(0.000000%,0.000000%,0.000000%);">
    <text font-size="9.962646">6</text>
  </g>
  <path d="M34.000000 599.000000l0 0" style="stroke:rgb(0.000000%,0.000000%,0.000000%); stroke-width: 3.000000;stroke-linecap: round;stroke-linejoin: round;stroke-miterlimit: 10.000000;fill: none;"></path>
  <g transform="translate(101.509323 556.000000)" style="fill: rgb(0.000000%,0.000000%,0.000000%);">
    <text font-size="9.962646">7</text>
  </g>
  <path d="M104.000000 559.000000l0 0" style="stroke:rgb(0.000000%,0.000000%,0.000000%); stroke-width: 3.000000;stroke-linecap: round;stroke-linejoin: round;stroke-miterlimit: 10.000000;fill: none;"></path>
  <g transform="translate(501.509323 6.000000)" style="fill: rgb(0.000000%,0.000000%,0.000000%);">
    <text font-size="9.962646">8</text>
  </g>
  <path d="M504.000000 9.000000l0 0" style="stroke:rgb(0.000000%,0.000000%,0.000000%); stroke-width: 3.000000;stroke-linecap: round;stroke-linejoin: round;stroke-miterlimit: 10.000000;fill: none;"></path>
  <g transform="translate(1001.509323 516.000000)" style="fill: rgb(0.000000%,0.000000%,0.000000%);">
    <text font-size="9.962646">9</text>
  </g>
  <path d="M1004.000000 519.000000l0 0" style="stroke:rgb(0.000000%,0.000000%,0.000000%); stroke-width: 3.000000;stroke-linecap: round;stroke-linejoin: round;stroke-miterlimit: 10.000000;fill: none;"></path>
  <g transform="translate(9.018661 516.000000)" style="fill: rgb(0.000000%,0.000000%,0.000000%);">
    <text font-size="9.962646">10</text>
  </g>
  <path d="M14.000000 519.000000l0 0" style="stroke:rgb(0.000000%,0.000000%,0.000000%); stroke-width: 3.000000;stroke-linecap: round;stroke-linejoin: round;stroke-miterlimit: 10.000000;fill: none;"></path>
  <g transform="translate(-0.981339 606.000000)" style="fill: rgb(0.000000%,0.000000%,0.000000%);">
    <text font-size="9.962646">11</text>
  </g>
  <path d="M4.000000 609.000000l0 0" style="stroke:rgb(0.000000%,0.000000%,0.000000%); stroke-width: 3.000000;stroke-linecap: round;stroke-linejoin: round;stroke-miterlimit: 10.000000;fill: none;"></path>
  <g transform="translate(9.018661 596.000000)" style="fill: rgb(0.000000%,0.000000%,0.000000%);">
    <text font-size="9.962646">12</text>
  </g>
  <path d="M14.000000 599.000000l0 0" style="stroke:rgb(0.000000%,0.000000%,0.000000%); stroke-width: 3.000000;stroke-linecap: round;stroke-linejoin: round;stroke-miterlimit: 10.000000;fill: none;"></path>
  <g transform="translate(19.018661 606.000000)" style="fill: rgb(0.000000%,0.000000%,0.000000%);">
    <text font-size="9.962646">13</text>
  </g>
  <path d="M24.000000 609.000000l0 0" style="stroke:rgb(0.000000%,0.000000%,0.000000%); stroke-width: 3.000000;stroke-linecap: round;stroke-linejoin: round;stroke-miterlimit: 10.000000;fill: none;"></path>
  <g transform="translate(29.018661 591.000000)" style="fill: rgb(0.000000%,0.000000%,0.000000%);">
    <text font-size="9.962646">14</text>
  </g>
  <path d="M34.000000 594.000000l0 0" style="stroke:rgb(0.000000%,0.000000%,0.000000%); stroke-width: 3.000000;stroke-linecap: round;stroke-linejoin: round;stroke-miterlimit: 10.000000;fill: none;"></path>
  <path d="M4.000000 609.000000C1.498169 602.722122,7.722122 596.498169,14.000000 599.000000C18.556641 600.815887,19.577911 606.955231,24.000000 609.000000C33.450790 613.370056,41.668808 601.043015,34.000000 594.000000" style="stroke:rgb(0.000000%,0.000000%,100.000000%); stroke-width: 8.000000;stroke-linecap: round;stroke-linejoin: round;stroke-miterlimit: 10.000000;fill: none;"></path>
  <path d="M60.692810 609.000000C58.190979 602.722122,64.414932 596.498169,70.692810 599.000000C75.249451 600.815887,76.270721 606.955231,80.692810 609.000000C90.143600 613.370056,98.361618 601.043015,90.692810 594.000000" style="stroke:rgb(0.000000%,0.000000%,100.000000%); stroke-width: 8.000000;stroke-linecap: round;stroke-linejoin: round;stroke-miterlimit: 10.000000;fill: none;"></path>
  <path d="M117.385620 609.000000C114.883789 602.722122,121.107742 596.498169,127.385620 599.000000C131.942261 600.815887,132.963531 606.955231,137.385620 609.000000C146.836411 613.370056,155.054428 601.043015,147.385620 594.000000" style="stroke:rgb(0.000000%,0.000000%,100.000000%); stroke-width: 8.000000;stroke-linecap: round;stroke-linejoin: round;stroke-miterlimit: 10.000000;fill: none;"></path>
  <path d="M174.078430 609.000000C171.576599 602.722122,177.800552 596.498169,184.078430 599.000000C188.635071 600.815887,189.656342 606.955231,194.078430 609.000000C203.529221 613.370056,211.747238 601.043015,204.078430 594.000000" style="stroke:rgb(0.000000%,0.000000%,100.000000%); stroke-width: 8.000000;stroke-linecap: round;stroke-linejoin: round;stroke-miterlimit: 10.000000;fill: none;"></path>
  <path d="M230.771240 609.000000C228.269409 602.722122,234.493362 596.498169,240.771240 599.000000C245.327881 600.815887,246.349152 606.955231,250.771240 609.000000C260.222031 613.370056,268.440048 601.043015,260.771240 594.000000" style="stroke:rgb(0.000000%,0.000000%,100.000000%); stroke-width: 8.000000;stroke-linecap: round;stroke-linejoin: round;stroke-miterlimit: 10.000000;fill: none;"></path>
  <path d="M287.464050 609.000000C284.962219 602.722122,291.186172 596.498169,297.464050 599.000000C302.020691 600.815887,303.041962 606.955231,307.464050 609.000000C316.914841 613.370056,325.132858 601.043015,317.464050 594.000000" style="stroke:rgb(0.000000%,0.000000%,100.000000%); stroke-width: 8.000000;stroke-linecap: round;stroke-linejoin: round;stroke-miterlimit: 10.000000;fill: none;"></path>
  <path d="M344.156860 609.000000C341.655029 602.722122,347.878983 596.498169,354.156860 599.000000C358.713501 600.815887,359.734772 606.955231,364.156860 609.000000C373.607651 613.370056,381.825668 601.043015,374.156860 594.000000" style="stroke:rgb(0.000000%,0.000000%,100.000000%); stroke-width: 8.000000;stroke-linecap: round;stroke-linejoin: round;stroke-miterlimit: 10.000000;fill: none;"></path>
  <path d="M400.849670 609.000000C398.347839 602.722122,404.571793 596.498169,410.849670 599.000000C415.406311 600.815887,416.427582 606.955231,420.849670 609.000000C430.300461 613.370056,438.518478 601.043015,430.849670 594.000000" style="stroke:rgb(0.000000%,0.000000%,100.000000%); stroke-width: 8.000000;stroke-linecap: round;stroke-linejoin: round;stroke-miterlimit: 10.000000;fill: none;"></path>
  <path d="M457.542480 609.000000C455.040649 602.722122,461.264603 596.498169,467.542480 599.000000C472.099121 600.815887,473.120392 606.955231,477.542480 609.000000C486.993271 613.370056,495.211288 601.043015,487.542480 594.000000" style="stroke:rgb(0.000000%,0.000000%,100.000000%); stroke-width: 8.000000;stroke-linecap: round;stroke-linejoin: round;stroke-miterlimit: 10.000000;fill: none;"></path>
  <path d="M514.235291 609.000000C511.733459 602.722122,517.957413 596.498169,524.235291 599.000000C528.791931 600.815887,529.813202 606.955231,534.235291 609.000000C543.686081 613.370056,551.904099 601.043015,544.235291 594.000000" style="stroke:rgb(0.000000%,0.000000%,100.000000%); stroke-width: 8.000000;stroke-linecap: round;stroke-linejoin: round;stroke-miterlimit: 10.000000;fill: none;"></path>
  <path d="M570.928101 609.000000C568.426270 602.722122,574.650223 596.498169,580.928101 599.000000C585.484741 600.815887,586.506012 606.955231,590.928101 609.000000C600.378891 613.370056,608.596909 601.043015,600.928101 594.000000" style="stroke:rgb(0.000000%,0.000000%,100.000000%); stroke-width: 8.000000;stroke-linecap: round;stroke-linejoin: round;stroke-miterlimit: 10.000000;fill: none;"></path>
  <path d="M627.620911 609.000000C625.119080 602.722122,631.343033 596.498169,637.620911 599.000000C642.177551 600.815887,643.198822 606.955231,647.620911 609.000000C657.071701 613.370056,665.289719 601.043015,657.620911 594.000000" style="stroke:rgb(0.000000%,0.000000%,100.000000%); stroke-width: 8.000000;stroke-linecap: round;stroke-linejoin: round;stroke-miterlimit: 10.000000;fill: none;"></path>
  <path d="M684.313721 609.000000C681.811890 602.722122,688.035843 596.498169,694.313721 599.000000C698.870361 600.815887,699.891632 606.955231,704.313721 609.000000C713.764511 613.370056,721.982529 601.043015,714.313721 594.000000" style="stroke:rgb(0.000000%,0.000000%,100.000000%); stroke-width: 8.000000;stroke-linecap: round;stroke-linejoin: round;stroke-miterlimit: 10.000000;fill: none;"></path>
  <path d="M741.006531 609.000000C738.504700 602.722122,744.728653 596.498169,751.006531 599.000000C755.563171 600.815887,756.584442 606.955231,761.006531 609.000000C770.457321 613.370056,778.675339 601.043015,771.006531 594.000000" style="stroke:rgb(0.000000%,0.000000%,100.000000%); stroke-width: 8.000000;stroke-linecap: round;stroke-linejoin: round;stroke-miterlimit: 10.000000;fill: none;"></path>
  <path d="M797.699341 609.000000C795.197510 602.722122,801.421463 596.498169,807.699341 599.000000C812.255981 600.815887,813.277252 606.955231,817.699341 609.000000C827.150131 613.370056,835.368149 601.043015,827.699341 594.000000" style="stroke:rgb(0.000000%,0.000000%,100.000000%); stroke-width: 8.000000;stroke-linecap: round;stroke-linejoin: round;stroke-miterlimit: 10.000000;fill: none;"></path>
  <path d="M854.392151 609.000000C851.890320 602.722122,858.114273 596.498169,864.392151 599.000000C868.948792 600.815887,869.970062 606.955231,874.392151 609.000000C883.842941 613.370056,892.060959 601.043015,884.392151 594.000000" style="stroke:rgb(0.000000%,0.000000%,100.000000%); stroke-width: 8.000000;stroke-linecap: round;stroke-linejoin: round;stroke-miterlimit: 10.000000;fill: none;"></path>
  <path d="M911.084961 609.000000C908.583130 602.722122,914.807083 596.498169,921.084961 599.000000C925.641602 600.815887,926.662872 606.955231,931.084961 609.000000C940.535751 613.370056,948.753769 601.043015,941.084961 594.000000" style="stroke:rgb(0.000000%,0.000000%,100.000000%); stroke-width: 8.000000;stroke-linecap: round;stroke-linejoin: round;stroke-miterlimit: 10.000000;fill: none;"></path>
  <path d="M967.777771 609.000000C965.275940 602.722122,971.499893 596.498169,977.777771 599.000000C982.334412 600.815887,983.355682 606.955231,987.777771 609.000000C997.228561 613.370056,1005.446579 601.043015,997.777771 594.000000" style="stroke:rgb(0.000000%,0.000000%,100.000000%); stroke-width: 8.000000;stroke-linecap: round;stroke-linejoin: round;stroke-miterlimit: 10.000000;fill: none;"></path>
</svg>
