<?xml version="1.0"?>
<!-- Created by MetaPost 1.9991 on 2017.11.21:2027 -->
<svg version="1.1" xmlns="http://www.w3.org/2000/svg" xmlns:xlink="http://www.w3.org/1999/xlink" width="260.500000" height="150.500000" viewBox="0 0 260.500000 150.500000">
<!-- Original BoundingBox: -0.250000 -0.250000 260.250000 150.250000 -->
  <path d="M0.000000 146.000000L100.000000 150.000000L100.000000 50.000000L50.000000 -0.000000L0.000000 50.000000L0.000000 146.000000" style="stroke:rgb(100.000000%,0.000000%,0.000000%); stroke-width: 0.500000;stroke-linecap: round;stroke-linejoin: round;stroke-miterlimit: 10.000000;fill: none;"></path>
  <path d="M100.000000 50.000000L120.000000 70.000000L120.000000 150.000000L0.000000 150.000000" style="stroke:rgb(0.000000%,0.000000%,100.000000%); stroke-width: 0.500000;stroke-linecap: round;stroke-linejoin: round;stroke-miterlimit: 10.000000;fill: none;"></path>
  <path d="M0.000000 50.000000L100.000000 50.000000" style="stroke:rgb(0.000000%,0.000000%,0.000000%); stroke-width: 0.500000;stroke-linecap: round;stroke-linejoin: round;stroke-miterlimit: 10.000000;fill: none;"></path>
  <path d="M20.000000 50.000000C20.000000 33.431458,33.431458 20.000000,50.000000 20.000000C66.568542 20.000000,80.000000 33.431458,80.000000 50.000000" style="stroke:rgb(100.000000%,0.000000%,0.000000%); stroke-width: 0.500000;stroke-linecap: round;stroke-linejoin: round;stroke-miterlimit: 10.000000;fill: none;"></path>
  <path d="M40.000000 150.000000L40.000000 110.000000C39.610718 108.695084,39.610718 107.304916,40.000000 106.000000C43.558350 94.072052,61.303055 97.620987,60.000000 110.000000L60.000000 150.000000" style="stroke:rgb(0.000000%,100.000000%,0.000000%); stroke-width: 0.500000;stroke-linecap: round;stroke-linejoin: round;stroke-miterlimit: 10.000000;fill: none;"></path>
  <path d="M50.000000 -0.000000L180.000000 10.000000L260.000000 80.000000" style="stroke:rgb(0.000000%,0.000000%,0.000000%); stroke-width: 0.500000;stroke-linecap: round;stroke-linejoin: round;stroke-miterlimit: 10.000000;fill: none;"></path>
  <path d="M120.000000 150.000000L250.000000 140.000000" style="stroke:rgb(0.000000%,0.000000%,0.000000%); stroke-width: 0.500000;stroke-linecap: round;stroke-linejoin: round;stroke-miterlimit: 10.000000;fill: none;"></path>
  <path d="M130.000000 80.000000L260.000000 80.000000" style="stroke:rgb(0.000000%,0.000000%,0.000000%); stroke-width: 0.500000;stroke-linecap: round;stroke-linejoin: round;stroke-miterlimit: 10.000000;fill: none;"></path>
  <path d="M160.000000 120.000000L220.000000 120.000000L220.000000 80.000000L160.000000 80.000000L160.000000 120.000000" style="stroke:rgb(0.000000%,0.000000%,0.000000%); stroke-width: 0.500000;stroke-linecap: round;stroke-linejoin: round;stroke-miterlimit: 10.000000;fill: none;"></path>
  <path d="M160.000000 115.000000L220.000000 115.000000" style="stroke:rgb(0.000000%,0.000000%,0.000000%); stroke-width: 0.500000;stroke-linecap: round;stroke-linejoin: round;stroke-miterlimit: 10.000000;fill: none;"></path>
  <path d="M160.000000 110.000000L220.000000 110.000000" style="stroke:rgb(0.000000%,0.000000%,0.000000%); stroke-width: 0.000000;stroke-linecap: round;stroke-linejoin: round;stroke-miterlimit: 10.000000;fill: none;"></path>
  <path d="M160.000000 105.000000L220.000000 105.000000" style="stroke:rgb(0.000000%,100.000000%,0.000000%); stroke-width: 0.500000;stroke-linecap: round;stroke-linejoin: round;stroke-miterlimit: 10.000000;fill: none;"></path>
</svg>
