<?xml version="1.0"?>
<!-- Created by MetaPost 1.9991 on 2017.11.22:1624 -->
<svg version="1.1" xmlns="http://www.w3.org/2000/svg" xmlns:xlink="http://www.w3.org/1999/xlink" width="0.000000" height="0.000000" viewBox="0 0 0.000000 0.000000">
<!-- Original BoundingBox: 32767.999985 32767.999985 -32767.999985 -32767.999985 -->
</svg>
