<?xml version="1.0"?>
<!-- Created by MetaPost 1.9991 on 2017.11.22:0351 -->
<svg version="1.1" xmlns="http://www.w3.org/2000/svg" xmlns:xlink="http://www.w3.org/1999/xlink" width="128.856110" height="108.053223" viewBox="0 0 128.856110 108.053223">
<!-- Original BoundingBox: -9.856110 -9.000000 119.000000 99.053223 -->
  <path d="M55.000000 11.250000L55.000000 29.250000L73.000000 29.250000C80.218063 22.031937,90.013092 17.998932,100.213638 17.998947L82.213638 17.998947L82.500000 18.000000C96.848221 18.106171,110.000000 27.086899,110.000000 40.500000L110.000000 22.500000C110.000000 53.534805,76.608368 68.391632,55.000000 90.000000L73.000000 90.000000C52.393738 69.393738,17.143890 56.507843,17.143890 29.878281L17.143890 47.878281C17.143890 45.530579,17.417862 43.076050,18.000000 40.500000C20.892914 27.698486,32.309555 18.765976,45.500000 18.000000C46.113846 17.964355,46.725937 17.946777,47.335861 17.946777L29.335861 17.946777C38.992844 17.946777,48.104233 22.354233,55.000000 29.250000L73.000000 29.250000L73.000000 11.250000C66.104233 4.354233,56.992844 -0.053223,47.335861 -0.053223L29.335861 -0.053223C28.725937 -0.053223,28.113846 -0.035645,27.500000 -0.000000C14.309555 0.765976,2.892914 9.698486,0.000000 22.500000C-0.582138 25.076050,-0.856110 27.530579,-0.856110 29.878281L-0.856110 47.878281C-0.856110 74.507843,34.393738 87.393738,55.000000 108.000000L73.000000 108.000000C94.608368 86.391632,128.000000 71.534805,128.000000 40.500000L128.000000 22.500000L128.000000 22.500000C128.000000 9.086899,114.848221 0.106171,100.500000 -0.000000L100.213638 -0.001053L82.213638 -0.001053C72.013092 -0.001068,62.218063 4.031937,55.000000 11.250000Z" style="fill: rgb(0.000000%,0.000000%,0.000000%);stroke: none;"></path>
  <path d="M51.000000 22.500000L33.000000 22.500000L33.000000 40.500000L33.000000 74.250000L51.000000 74.250000L84.000000 74.250000L84.000000 56.250000L66.000000 56.250000L33.000000 56.250000L51.000000 56.250000Z" style="fill: rgb(100.000000%,0.000000%,0.000000%);stroke: none;"></path>
</svg>
