<?xml version="1.0"?>
<!-- Created by MetaPost 1.9991 on 2017.11.21:1948 -->
<svg version="1.1" xmlns="http://www.w3.org/2000/svg" xmlns:xlink="http://www.w3.org/1999/xlink" width="35.000000" height="45.000000" viewBox="0 0 35.000000 45.000000">
<!-- Original BoundingBox: -2.500000 -2.500000 32.500000 42.500000 -->
  <path d="M2.000000 42.000000L2.000000 2.000000L32.000000 42.000000L32.000000 2.000000" style="stroke:rgb(0.000000%,0.000000%,100.000000%); stroke-width: 5.000000;stroke-linecap: round;stroke-linejoin: round;stroke-miterlimit: 10.000000;fill: none;"></path>
</svg>
