<?xml version="1.0"?>
<!-- Created by MetaPost 1.9991 on 2017.11.21:2007 -->
<svg version="1.1" xmlns="http://www.w3.org/2000/svg" xmlns:xlink="http://www.w3.org/1999/xlink" width="130.250000" height="200.500000" viewBox="0 0 130.250000 200.500000">
<!-- Original BoundingBox: 29.750000 -0.250000 130.250000 200.250000 -->
  <path d="M30.000000 200.000000L80.000000 -0.000000L130.000000 200.000000Z" style="stroke:rgb(0.000000%,0.000000%,0.000000%); stroke-width: 0.500000;stroke-linecap: round;stroke-linejoin: round;stroke-miterlimit: 10.000000;fill: none;"></path>
</svg>
