<?xml version="1.0"?>
<!-- Created by MetaPost 1.9991 on 2017.11.21:2046 -->
<svg version="1.1" xmlns="http://www.w3.org/2000/svg" xmlns:xlink="http://www.w3.org/1999/xlink" width="30.082764" height="45.202316" viewBox="0 0 30.082764 45.202316">
<!-- Original BoundingBox: -2.582733 -2.568604 27.500031 42.633713 -->
  <path d="M2.000000 39.000000C5.088882 40.683472,8.494522 41.705154,12.000000 42.000000C19.587982 42.638214,27.018005 38.786163,27.000000 32.000000C26.981522 25.030487,19.189011 22.005539,12.000000 20.000000C7.418442 18.721878,2.682693 16.536423,2.000000 12.000000C1.208481 6.740494,6.213104 2.699631,12.000000 2.000000C17.496552 1.335464,23.001480 3.170441,27.000000 7.000000" style="stroke:rgb(100.000000%,0.000000%,0.000000%); stroke-width: 5.000000;stroke-linecap: round;stroke-linejoin: round;stroke-miterlimit: 10.000000;fill: none;"></path>
</svg>
